<svg width="216" height="40" viewBox="0 0 216 40" fill="none" xmlns="http://www.w3.org/2000/svg">
<path d="M162.306 28.8562V19.6536C164.959 19.4893 166.363 21.2969 166.363 24.2549C166.519 28.0346 164.803 29.3492 162.306 28.8562ZM171.981 25.2409C172.293 18.3389 168.704 15.381 162.462 15.2166V7H157V31.9785C162.306 34.2792 171.513 32.9645 171.981 25.2409Z" fill="#B1132F"/>
<path d="M210 31.3333V15.6667C210 13.8333 209.835 12.3333 209.34 11.1667C209.01 10 208.35 9 207.689 8.16667C206.864 7.5 206.039 6.83334 205.049 6.5C204.058 6.16667 202.903 6 201.748 6C200.592 6 199.437 6.16667 198.447 6.33333C197.456 6.5 196.631 6.83333 195.806 7.16667C194.981 7.5 194.485 7.83333 193.99 8L195.311 12.3333C195.806 12 196.301 11.8333 196.961 11.5C197.621 11.3333 198.117 11 198.777 10.8333C199.437 10.6667 200.097 10.6667 200.757 10.6667C201.583 10.6667 202.078 10.8333 202.738 11C203.233 11.1667 203.728 11.5 204.058 12C204.388 12.5 204.553 13.1667 204.553 14.1667V15.3333C203.233 15.5 202.078 15.6667 200.922 16C199.767 16.3333 198.612 16.6667 197.786 17C196.796 17.5 195.971 18 195.311 18.6667C194.65 19.3333 193.99 20.1667 193.66 21.1667C193.33 22.1667 193 23.3333 193 24.6667C193 27.3333 193.825 29.5 195.311 30.8333C196.796 32.1667 199.107 32.8333 202.243 33C204.058 33 205.709 32.8333 207.029 32.5C208.019 32.5 209.175 32 210 31.3333ZM204.388 28.6667C203.068 29.5 200.427 29.1667 199.437 28C198.777 27.3333 198.447 26.1667 198.447 24.6667C198.447 20.5 201.252 19.6667 204.553 19.1667V28.6667H204.388Z" fill="#B1132F"/>
<path d="M193 32L185.565 18.01L192.009 6.75377H186.061L180.113 17.8492V0H174V32H180.113V19.2965L186.226 32H193Z" fill="#B1132F"/>
<path d="M39.8333 19.4172C39.8333 20.5767 39.8333 21.7362 39.6667 22.7301C39.5 23.7239 39.3333 24.7178 39.1667 25.3804C39 26.2086 38.6667 26.7055 38.1667 27.2025C37.6667 27.6994 37.1667 27.865 36.5 27.865C35.8333 27.865 35.3333 27.6994 34.8333 27.2025C34.3333 26.7055 34 26.2086 33.8333 25.3804C33.6667 24.5521 33.5 23.7239 33.3333 22.7301C33.1667 21.7362 33.1667 20.5767 33.1667 19.4172C33.1667 18.2577 33.1667 17.0982 33.3333 16.1043C33.5 15.1104 33.5 14.1166 33.8333 13.2883C34 12.4601 34.3333 11.7975 34.8333 11.4663C35.3333 10.9693 35.8333 10.8037 36.5 10.8037C37.1667 10.8037 37.6667 10.9693 38.1667 11.4663C38.6667 11.9632 39 12.6258 39.1667 13.2883C39.3333 14.1166 39.5 14.9448 39.6667 16.1043C39.8333 17.0982 39.8333 18.2577 39.8333 19.4172ZM46 19.4172C46 17.4294 45.8333 15.6074 45.3333 14.1166C45 12.4601 44.3333 11.135 43.5 9.80982C42.6667 8.65031 41.6667 7.65644 40.5 6.99387C39.3333 6.33129 38 6 36.5 6C35 6 33.6667 6.33129 32.5 6.99387C31.3333 7.65644 30.3333 8.65031 29.5 9.80982C28.6667 10.9693 28.1667 12.4601 27.6667 14.1166C27.3333 15.773 27 17.5951 27 19.4172C27 21.4049 27.1667 23.227 27.6667 24.8834C28 26.5399 28.6667 28.0307 29.5 29.1902C30.3333 30.3497 31.3333 31.3436 32.5 32.0061C33.6667 32.6687 35 33 36.5 33C38 33 39.3333 32.6687 40.5 32.0061C41.6667 31.3436 42.6667 30.3497 43.5 29.1902C44.3333 28.0307 44.8333 26.5399 45.3333 24.8834C45.8333 23.227 46 21.4049 46 19.4172Z" fill="#B1132F"/>
<path d="M59.4393 19.6798C59.4393 22.4433 59.1215 24.5567 58.3271 26.0197C57.6916 27.4828 56.5794 28.133 54.9907 28.133C54.6729 28.133 54.3551 28.133 54.1963 27.9704C53.8785 27.9704 53.7196 27.8079 53.5607 27.8079V11.5517C53.7196 11.3892 54.0374 11.3892 54.3551 11.2266C54.6729 11.2266 54.9907 11.064 55.3084 11.064C56.2617 11.064 57.0561 11.3892 57.6916 12.0394C58.3271 12.6897 58.8037 13.665 58.9626 14.9655C59.2804 16.266 59.4393 17.7291 59.4393 19.6798ZM65 19.5172C65 17.4039 64.8411 15.6158 64.3645 14.1527C63.8878 12.5271 63.2523 11.2266 62.4579 10.2512C61.6636 9.1133 60.5514 8.46305 59.4393 7.81281C58.3271 7.32512 56.8972 7 55.4673 7C54.3551 7 53.243 7 52.2897 7.16256C51.3364 7.32512 50.5421 7.48768 49.9065 7.81281C49.271 8.13793 48.6355 8.46305 48 8.78817V40H53.7196V31.7094C54.0374 31.8719 54.3551 31.8719 54.8318 32.0345C55.3084 32.0345 55.9439 32.197 56.4206 32.197C57.6916 32.197 58.8037 31.8719 59.9159 31.3842C61.028 30.734 61.8224 29.9212 62.6168 28.7832C63.4112 27.6453 63.8878 26.3448 64.3645 24.7192C64.8411 23.2562 65 21.468 65 19.5172Z" fill="#B1132F"/>
<path d="M100 6.1677V24.6149C100 25.7888 100.167 26.9627 100.5 27.9689C100.833 28.9752 101.333 29.8137 102 30.6522C102.667 31.323 103.667 31.9938 104.833 32.3292C106 32.6646 107.333 33 109.167 33C111 33 112.667 32.8323 114.167 32.4969C115.667 32.1615 117 31.6584 118 31.1553V6.1677H111.833V27.6335C111.667 27.8012 111.333 27.8012 111.167 27.9689C111 27.9689 110.667 28.1366 110.333 28.1366C110 28.1366 109.667 28.1366 109.333 28.1366C108.5 28.1366 107.833 27.9689 107.333 27.6335C106.833 27.2981 106.5 26.795 106.333 26.2919C106.167 25.7888 106 25.118 106 24.4472V6H100V6.1677Z" fill="#B1132F"/>
<path d="M68 7V24.875C68 26.0125 68.1611 26.9875 68.4833 27.9625C68.8056 28.9375 69.2889 29.75 69.9333 30.5625C70.5778 31.375 71.3833 31.8625 72.1889 32.35C73.1556 32.8375 74.1222 33 75.4111 33C76.5389 33 77.5056 32.8375 78.3111 32.675C79.1167 32.5125 79.9222 32.1875 80.5667 31.7C81.2111 31.375 81.6944 30.8875 82.1778 30.4C82.5 30.8875 82.9833 31.375 83.6278 31.7C84.2722 32.025 84.9167 32.35 85.7222 32.675C86.5278 32.8375 87.4944 33 88.6222 33C89.75 33 90.8778 33 91.8444 32.8375C92.8111 32.675 93.7778 32.5125 94.5833 32.1875C95.3889 31.8625 96.1944 31.5375 97 31.05V7H91.0389V27.8C90.8778 27.9625 90.5556 27.9625 90.3944 28.125C90.2333 28.125 89.9111 28.2875 89.5889 28.2875C89.2667 28.2875 88.9444 28.2875 88.6222 28.2875C87.6556 28.2875 86.85 27.9625 86.2056 27.3125C85.7222 26.6625 85.4 25.85 85.4 24.875V7H79.4389V27.15C79.1167 27.6375 78.6333 27.9625 78.3111 28.125C77.8278 28.2875 77.3444 28.45 76.8611 28.45C76.2167 28.45 75.5722 28.2875 75.25 27.9625C74.7667 27.6375 74.4444 27.3125 74.2833 26.6625C74.1222 26.175 73.9611 25.525 73.9611 24.875V7H68Z" fill="#B1132F"/>
<path d="M154 31.1518L152.747 26.6545C152.12 27.4873 151.181 27.6539 150.398 27.6539C147.108 27.6539 146.639 21.9906 146.639 19.3255C146.639 16.4938 146.952 10.9971 150.398 10.9971C151.337 10.9971 152.12 11.3302 152.747 11.9965L154 7.83225C152.747 6.33314 150.867 6 149.145 6C145.229 6 142.566 9.49794 141.627 13.6622C141.157 15.3278 141 17.3267 141 19.492C141 24.156 142.096 29.9859 146.012 32.1512C148.048 33.4838 152.277 33.3172 154 31.1518Z" fill="#B1132F"/>
<path d="M126.99 32V20.8535H132.01V32H138V7H132.01V16.2357H126.99V7H121V32H126.99Z" fill="#B1132F"/>
<path d="M26 32.8354L24.519 7H18.1013L13 23.1266L8.06329 7H1.48101L0 32.8354H6.08861L6.58228 18.8481V16.0506L7.07595 18.519L11.1899 32.8354H14.8101L18.924 18.6835L19.4177 16.0506V18.8481L19.7468 33C22.0506 32.8354 23.8608 32.8354 26 32.8354Z" fill="#B1132F"/>
<path fill-rule="evenodd" clip-rule="evenodd" d="M211 8.5C211 9.83333 212.167 11 213.5 11C214.833 11 216 9.83333 216 8.5C216 7.16667 214.833 6 213.5 6C212 6 211 7.16667 211 8.5ZM211.167 8.5C211.167 7.33333 212.167 6.33333 213.333 6.33333C214.5 6.33333 215.5 7.33333 215.5 8.5C215.5 9.66667 214.5 10.6667 213.333 10.6667C212.167 10.8333 211.167 9.83333 211.167 8.5Z" fill="#B1132F"/>
<path fill-rule="evenodd" clip-rule="evenodd" d="M213.308 7.16666H214.077C214.385 7.16666 214.692 7.33333 214.692 7.66667C214.692 8.16667 214.385 8.16667 214.231 8.16667H213.462V7.16666H213.308ZM213 10H213.308V8.66667H214.077C214.538 8.66667 214.538 9 214.538 9.33333C214.538 9.66667 214.538 9.83333 214.692 10H215C214.846 9.83333 214.846 9.66667 214.846 9.33333C214.846 9 214.846 8.66667 214.538 8.66667C214.846 8.66667 215 8.33333 215 7.83333C215 7 214.385 7 214.077 7H213V10Z" fill="#B1132F"/>
</svg>
