<svg width="140" height="53" viewBox="0 0 140 53" fill="none" xmlns="http://www.w3.org/2000/svg">
<path opacity="0.75" d="M122.792 52.0498C122.155 52.0498 121.624 51.8386 121.093 51.5219L119.393 50.4661C118.862 50.1494 118.543 49.6215 118.225 49.0936L113.02 36.741H111.958L110.47 47.9323C110.364 48.6713 110.046 49.3048 109.408 49.8327L107.602 51.4163C107.071 51.9442 106.328 52.1554 105.584 52.1554H96.5554C95.7056 52.1554 94.8558 51.7331 94.2185 51.0996L92.519 48.988C91.8816 48.3546 91.6692 47.4044 91.7754 46.5598L97.7238 4.22311C97.83 3.48406 98.1487 2.8506 98.786 2.32271L100.592 0.739044C101.123 0.211156 101.866 0 102.61 0H122.049C130.759 0 140 5.91235 140 16.8924C140 23.4382 137.026 29.0339 131.821 32.5179L137.451 45.0817C137.876 46.0319 137.769 47.0876 137.238 48.0378L135.539 50.5717C135.008 51.4163 134.052 51.9442 132.989 51.9442H122.792V52.0498ZM131.715 46.8765L132.033 46.3486L126.191 33.257C125.979 32.7291 125.873 32.2012 125.979 31.5677V31.251C126.085 30.3008 126.722 29.4562 127.572 29.0339C132.033 26.6056 134.583 22.1713 134.583 16.998C134.583 9.39641 127.997 5.27888 121.836 5.27888H103.354L102.822 5.80677L97.1927 46.3486L97.7238 46.8765H104.841L105.372 46.3486L107.071 34.2072C107.284 32.7291 108.558 31.5677 110.152 31.5677H114.507C115.781 31.5677 116.844 32.3068 117.375 33.4681L122.898 46.4542L123.429 46.8765H131.715ZM111.745 25.761C110.895 25.761 110.046 25.3386 109.408 24.7052C108.877 24.0717 108.558 23.1215 108.665 22.2769L109.833 14.253C110.046 12.7749 111.32 11.6135 112.913 11.6135H118.968C123.323 11.6135 126.085 14.0418 126.085 17.8426C126.085 22.8048 122.686 25.6554 117.056 25.6554H111.745V25.761ZM117.162 20.4821C120.88 20.4821 120.88 19.004 120.88 17.8426C120.88 17.3147 120.88 16.7869 118.968 16.7869H114.719L114.188 20.4821H117.162ZM20.3945 53C14.1275 53 9.13505 51.4163 5.62974 48.3546C2.01821 45.1873 0 40.6474 0 35.0518C0 33.6793 0.106222 32.4123 0.318665 31.1454L4.03642 4.22311C4.14264 3.48406 4.4613 2.8506 5.09863 2.32271L6.9044 0.739044C7.43551 0.316733 8.17906 0.105578 8.92261 0.105578H17.9514C18.8012 0.105578 19.651 0.527888 20.2883 1.16135L21.9879 3.16733C22.519 3.8008 22.8376 4.751 22.7314 5.59562L18.9074 32.6235C18.8012 33.0458 18.8012 33.3625 18.8012 33.8904C18.8012 35.2629 18.8012 35.6853 21.3505 35.6853C24.5372 35.6853 25.7056 34.5239 26.1305 31.251L29.8483 4.22311C29.9545 3.48406 30.2731 2.8506 30.9105 2.32271L32.7162 0.739044C33.2473 0.211156 33.9909 0 34.7344 0H43.7633C44.613 0 45.4628 0.422311 46.1002 1.05578L47.9059 3.06175C48.437 3.69522 48.7557 4.64542 48.6495 5.49004L44.8255 32.5179C43.1259 45.6096 34.2033 53 20.3945 53ZM5.52352 31.99C5.31108 33.0458 5.31108 33.996 5.31108 35.1574C5.31108 39.1693 6.58573 42.3367 9.13505 44.4482C11.6844 46.6653 15.5083 47.8267 20.5008 47.8267C31.5478 47.8267 38.4522 42.2311 39.9393 31.8845L43.5508 5.80677L43.0197 5.27888H35.7967L35.2656 5.80677L31.5478 31.99C30.698 37.7968 27.2989 40.8586 21.563 40.8586C17.9514 40.8586 13.7026 39.5916 13.7026 33.8904C13.7026 33.257 13.7026 32.6235 13.8088 31.8845L17.4203 5.91235L16.8892 5.38446H9.66616L9.13505 5.91235L5.52352 31.99ZM50.7739 52.0498C49.9241 52.0498 49.0744 51.6275 48.437 50.994L46.6313 48.988C45.9939 48.3546 45.7815 47.4044 45.8877 46.5598L51.8361 4.22311C51.9423 3.48406 52.261 2.8506 52.8983 2.32271L54.7041 0.739044C55.2352 0.211156 55.9788 0 56.7223 0H76.1608C80.3035 0 84.2337 1.16135 87.1017 3.27291C90.7132 5.91235 92.7314 9.71315 92.7314 14.253C92.7314 18.6873 91.0319 22.5936 88.0577 25.4442C90.0759 27.8725 91.2443 31.0398 91.2443 34.2072C91.2443 39.6972 88.9074 44.3426 84.5523 47.6155C80.8346 50.4661 75.9484 51.9442 70.7435 51.9442H50.7739V52.0498ZM70.7435 46.8765C74.78 46.8765 78.4977 45.7151 81.3657 43.6036C84.3399 41.2809 85.9332 38.1135 85.9332 34.3127C85.9332 31.6733 84.7648 29.3506 82.8528 27.6614C82.1093 27.0279 81.6844 26.0777 81.7906 25.1275C81.7906 24.1773 82.3217 23.3327 83.1715 22.6992C86.0394 20.7988 87.5265 17.7371 87.5265 14.1474C87.5265 11.2968 86.3581 9.07968 84.1275 7.39044C82.1093 5.91235 79.2413 5.06773 76.2671 5.06773H57.4659L56.9347 5.59562L51.305 46.1374L51.7299 46.8765H70.7435ZM63.7329 41.2809C62.8832 41.2809 62.0334 40.8586 61.3961 40.2251C60.8649 39.5916 60.5463 38.6414 60.6525 37.7968L61.6085 30.8287C61.8209 29.3506 63.0956 28.1892 64.6889 28.1892H70.8498C75.0986 28.1892 77.6479 30.4064 77.6479 34.1016C77.6479 38.6414 74.5675 41.1753 69.044 41.1753H63.7329V41.2809ZM69.1502 36.002C72.4431 36.002 72.4431 34.9462 72.4431 34.1016C72.4431 33.7849 72.4431 33.5737 72.3369 33.5737C72.3369 33.5737 72.0182 33.3625 70.8498 33.3625H66.6009L66.2822 36.002H69.1502ZM66.2822 22.5936C65.4325 22.5936 64.5827 22.1713 63.9454 21.5378C63.308 20.9044 63.0956 19.9542 63.2018 19.1096L63.9454 13.6195C64.1578 12.1414 65.4325 10.9801 67.0258 10.9801H72.9742C76.9044 10.9801 78.9226 12.5637 78.9226 15.6255C78.9226 19.9542 76.0546 22.5936 71.3809 22.5936H66.2822ZM71.3809 17.3147C73.0804 17.3147 73.5053 16.8924 73.6115 16.1534C73.3991 16.1534 73.1866 16.1534 72.9742 16.1534H69.044L68.8316 17.3147H71.3809Z" fill="#D25A30"/>
<path d="M127.44 31.4055V31.1935C127.545 30.7696 127.757 30.3456 128.179 30.1336C133.147 27.3779 136 22.3963 136 16.5668C136 7.87558 128.602 3.10599 121.733 3.10599H102.604L101.124 4.37788L95.3114 46.4562L96.791 48.1521H105.351L106.831 46.8802L108.628 34.0553C108.733 33.3134 109.367 32.8894 110.002 32.8894H114.335C114.863 32.8894 115.392 33.2074 115.603 33.7373L121.31 47.3041L122.684 48.2581H132.301L133.675 46.1382L127.545 32.2535C127.44 31.8295 127.44 31.6175 127.44 31.4055ZM116.977 23.5622H111.693C111.27 23.5622 110.953 23.3502 110.636 23.0323C110.319 22.7143 110.213 22.2903 110.319 21.8664L111.481 13.8111C111.587 13.0691 112.221 12.6452 112.855 12.6452H118.879C122.261 12.6452 124.269 14.341 124.269 17.3088C124.269 22.7143 119.619 23.5622 116.977 23.5622ZM43.8431 3L45.3227 4.69585L41.6237 31.6175C40.0384 42.6406 32.4291 49 20.6982 49C15.4139 49 11.1865 47.7281 8.33307 45.1843C5.47958 42.7465 4 39.0369 4 34.5853C4 33.3134 4.10568 32.2535 4.21137 31.1935L7.91033 4.37788L9.4956 3H18.056L19.5356 4.69585L15.731 31.6175C15.6253 32.2535 15.6253 32.7834 15.6253 33.3134C15.6253 35.6452 16.2594 38.7189 21.755 38.7189C26.6165 38.7189 29.3643 36.2811 30.1041 31.1935L33.803 4.27189L35.3883 3H43.8431ZM84.0032 23.6682C87.2794 21.4424 89.0761 17.8387 89.0761 13.8111C89.0761 10.4194 87.7022 7.66359 84.9544 5.75576C82.6293 3.95392 79.4588 3 76.1825 3H56.948L55.4684 4.27189L49.6557 46.4562L51.1353 48.1521H70.7926C75.1257 48.1521 79.2474 46.8802 82.3122 44.5484C85.6942 41.8986 87.4908 38.2949 87.4908 33.9493C87.4908 30.8756 86.1169 27.9078 83.7918 26C83.4748 25.682 83.2634 25.2581 83.2634 24.8341C83.3691 24.3041 83.5805 23.8802 84.0032 23.6682ZM69.2074 39.1429H63.8174C63.3947 39.1429 63.0777 38.9309 62.7606 38.6129C62.4436 38.2949 62.3379 37.871 62.4436 37.447L63.3947 30.4516C63.5004 29.7097 64.1345 29.2857 64.7686 29.2857H70.8983C73.2234 29.2857 75.9712 30.0276 75.9712 33.5253C76.0769 38.1889 72.2722 39.1429 69.2074 39.1429ZM71.4267 20.3825H66.4596C66.0368 20.3825 65.7198 20.1705 65.4027 19.8525C65.0857 19.5346 64.98 19.1106 65.0857 18.6866L65.8255 13.1751C65.9311 12.4332 66.5652 12.0092 67.1994 12.0092H73.012C76.8166 12.0092 77.2394 13.4931 77.2394 14.977C77.2394 18.4747 75.1257 20.3825 71.4267 20.3825Z" fill="#434244" stroke="#272425" stroke-miterlimit="10"/>
<path d="M132.779 50H122.859C122.546 50 122.337 49.8939 122.128 49.7879L120.457 48.7273C120.249 48.6212 120.04 48.4091 119.935 48.0909L114.401 34.6212H110.851L109.18 47.1364C109.18 47.4545 108.971 47.7727 108.762 47.9848L106.987 49.5758C106.778 49.7879 106.361 49.8939 106.047 49.8939H97.1718C96.7541 49.8939 96.3364 49.6818 96.1276 49.3636L94.3524 47.4545C94.0392 47.1364 93.9347 46.7121 94.0392 46.2879L99.7823 3.75758C99.7823 3.43939 99.9911 3.12121 100.2 2.90909L101.975 1.31818C102.184 1.10606 102.602 1 102.915 1H122.024C129.751 1 138 6.40909 138 16.3788C138 22.8485 134.972 28.3636 129.542 31.4394L135.598 45.4394C135.807 45.8636 135.703 46.3939 135.494 46.8182L133.823 49.3636C133.719 49.6818 133.197 50 132.779 50ZM122.964 48.0909H132.466L133.823 45.9697L127.767 32.0758C127.662 31.8636 127.662 31.5455 127.662 31.3333V31.1212C127.767 30.697 127.976 30.2727 128.393 30.0606C133.301 27.303 136.12 22.3182 136.12 16.4848C136.12 7.78788 128.811 3.01515 122.024 3.01515H103.124L101.662 4.28788L95.9187 46.3939L97.3806 48.0909H105.839L107.3 46.8182L109.076 33.9848C109.18 33.2424 109.807 32.8182 110.433 32.8182H114.714C115.236 32.8182 115.759 33.1364 115.967 33.6667L121.606 47.2424L122.964 48.0909ZM117.325 23.4848H112.104C111.686 23.4848 111.373 23.2727 111.06 22.9545C110.746 22.6364 110.642 22.2121 110.746 21.7879L111.895 13.7273C111.999 12.9848 112.626 12.5606 113.252 12.5606H119.204C122.546 12.5606 124.53 14.2576 124.53 17.2273C124.53 22.6364 119.935 23.4848 117.325 23.4848ZM112.626 21.5758H117.325C122.128 21.5758 122.65 19.1364 122.65 17.2273C122.65 14.4697 120.04 14.4697 119.204 14.4697H113.67L112.626 21.5758Z" fill="url(#paint0_linear)"/>
<path d="M20.5752 51C14.7704 51 10.2322 49.6141 6.96042 46.7356C3.68865 43.8571 2 39.6994 2 34.5821C2 33.1962 2.10554 32.0235 2.31662 30.8507L6.01055 3.66525C6.01055 3.34542 6.22164 3.02559 6.43272 2.81237L8.22691 1.31983C8.43799 1.10661 8.86016 1 9.17678 1H18.1478C18.5699 1 18.8865 1.21322 19.2032 1.53305L20.8918 3.45203C21.2084 3.77186 21.314 4.19829 21.2084 4.62473L17.409 31.9168C17.3034 32.4499 17.3034 32.8763 17.3034 33.4094C17.3034 35.3284 17.6201 36.9275 21.5251 36.9275C25.4301 36.9275 27.4354 35.2217 27.9631 31.064L31.657 3.77185C31.657 3.45202 31.8681 3.1322 32.0792 2.91898L33.8734 1.31983C34.0844 1.10661 34.5066 1 34.8232 1H43.7942C44.2164 1 44.533 1.21322 44.8496 1.53305L46.6438 3.55863C46.9604 3.87846 47.066 4.3049 46.9604 4.73134L43.2665 32.0235C41.6834 44.0704 33.3456 51 20.5752 51ZM7.80475 4.19829L4.11082 31.1706C3.89974 32.2367 3.89974 33.3028 3.89974 34.5821C3.89974 39.0597 5.37731 42.791 8.22691 45.2431C11.0765 47.8017 15.2982 49.081 20.5752 49.081C32.2902 49.081 39.8892 42.6844 41.4723 31.597L45.1662 4.51812L43.6887 2.81237H35.1398L33.6623 4.09168L29.9683 31.1706C29.2296 36.2878 26.591 38.7399 21.6306 38.7399C16.1425 38.7399 15.5092 35.6482 15.5092 33.3028C15.5092 32.6631 15.5092 32.2367 15.6148 31.597L19.3087 4.51812L17.8311 2.81237H9.38786L7.80475 4.19829Z" fill="url(#paint1_linear)"/>
<path d="M70.9377 50H51.1905C50.7704 50 50.4553 49.7874 50.1402 49.4685L48.3545 47.449C48.0394 47.1301 47.9344 46.705 48.0394 46.2798L53.9215 3.65727C53.9215 3.33839 54.1316 3.01952 54.3417 2.80694L56.1273 1.31887C56.3374 1.10629 56.7576 1 57.0727 1H76.2947C80.076 1 83.5423 2.06291 86.1682 3.97614C89.3194 6.31453 91 9.60954 91 13.6486C91 18.2191 89.1093 22.1518 85.6431 24.8091C88.0589 27.1475 89.5295 30.3362 89.5295 33.8438C89.5295 38.8395 87.4287 42.9848 83.5423 46.0672C80.1811 48.5119 75.6644 50 70.9377 50ZM51.4006 48.0868H70.9377C75.2443 48.0868 79.3408 46.8113 82.3869 44.4729C85.7481 41.8156 87.5337 38.2017 87.5337 33.8438C87.5337 30.7614 86.1682 27.7852 83.8574 25.872C83.5423 25.5531 83.3322 25.128 83.3322 24.7028C83.3322 24.2777 83.5423 23.8525 83.9624 23.6399C87.2186 21.4078 89.0043 17.7939 89.0043 13.7549C89.0043 10.3536 87.6388 7.59002 84.9078 5.67679C82.702 3.76356 79.5508 2.80694 76.2947 2.80694H57.1777L55.7072 4.08243L49.9301 46.2798L51.4006 48.0868ZM69.3621 39.0521H64.0052C63.585 39.0521 63.2699 38.8395 62.9548 38.5206C62.6397 38.2017 62.5347 37.7766 62.6397 37.3514L63.585 30.3362C63.6901 29.5922 64.3203 29.167 64.9505 29.167H71.0427C73.3536 29.167 76.0846 29.9111 76.0846 33.4187C76.1896 38.0954 72.4082 39.0521 69.3621 39.0521ZM64.5304 37.1388H69.2571C73.6687 37.1388 74.1939 35.2256 74.1939 33.5249C74.1939 32.1432 73.6687 31.1866 71.0427 31.1866H65.3707L64.5304 37.1388ZM71.5679 20.2386H66.6311C66.211 20.2386 65.8959 20.026 65.5808 19.7072C65.2657 19.3883 65.1606 18.9631 65.2657 18.538L66.0009 13.0108C66.106 12.2668 66.7362 11.8416 67.3664 11.8416H73.1435C76.9249 11.8416 77.345 13.3297 77.345 14.8178C77.345 18.3254 75.2443 20.2386 71.5679 20.2386ZM67.1563 18.3254H71.5679C74.1939 18.3254 75.4544 17.2625 75.4544 14.9241C75.4544 14.2863 75.4544 13.8612 73.1435 13.8612H67.7866L67.1563 18.3254Z" fill="url(#paint2_linear)"/>
<path d="M133.356 50H123.096C122.988 50 122.88 50 122.772 49.8924L121.044 48.8161C120.936 48.7085 120.828 48.6009 120.828 48.4933L114.996 34.6099C114.996 34.5022 114.888 34.3946 114.672 34.3946H110.244C110.136 34.3946 109.92 34.5022 109.92 34.6099L108.084 47.8475C108.084 47.9552 107.977 48.1704 107.869 48.278L106.033 49.8924C105.925 50 105.817 50 105.601 50H96.4207C96.2047 50 96.0967 49.8924 95.9887 49.7848L94.1527 47.7399C94.0447 47.6323 93.9367 47.417 94.0447 47.2018L100.093 4.04484C100.093 3.93722 100.201 3.72197 100.309 3.61435L102.145 2C102.253 2 102.361 2 102.469 2H122.232C129.9 2 138 7.16592 138 16.7444C138 23.0942 134.868 28.4753 129.36 31.4888C129.252 31.4888 129.252 31.5964 129.252 31.704V31.9193C129.252 32.0269 129.252 32.0269 129.252 32.0269L135.624 46.4484C135.732 46.6637 135.732 46.8789 135.624 46.9865L133.896 49.5695C133.788 49.8924 133.572 50 133.356 50ZM110.244 34.0718H114.672C114.888 34.0718 115.104 34.1794 115.212 34.5022L121.044 48.3857C121.044 48.4933 121.152 48.4933 121.152 48.4933L122.88 49.5695C122.88 49.5695 122.988 49.5695 123.096 49.5695H133.356C133.464 49.5695 133.572 49.5695 133.572 49.4619L135.3 46.8789C135.408 46.7713 135.408 46.6637 135.3 46.5561L128.928 32.1345C128.928 32.0269 128.82 31.9193 128.928 31.8117V31.5964C128.928 31.3812 129.036 31.2735 129.252 31.1659C134.652 28.1525 137.676 22.8789 137.676 16.6368C137.676 7.27354 129.684 2.21525 122.232 2.21525H102.469C102.361 2.21525 102.361 2.21525 102.253 2.32287L100.417 3.93722C100.417 3.93722 100.309 4.04484 100.309 4.15247L94.2607 47.3094C94.2607 47.417 94.2607 47.5247 94.3687 47.5247L96.2047 49.5695C96.3127 49.6771 96.3127 49.6771 96.4207 49.6771H105.601C105.709 49.6771 105.709 49.6771 105.817 49.5695L107.653 47.9552C107.653 47.9552 107.761 47.8475 107.761 47.7399L109.596 34.5022C109.596 34.287 109.92 34.0718 110.244 34.0718ZM117.372 23.0942H111.972C111.756 23.0942 111.648 22.9865 111.54 22.8789C111.432 22.7713 111.324 22.5561 111.432 22.3408L112.62 14.1614C112.62 13.8386 112.944 13.6233 113.268 13.6233H119.424C122.448 13.6233 124.176 15.0224 124.176 17.4978C123.96 21.2646 121.8 23.0942 117.372 23.0942ZM113.052 14.0538C112.944 14.0538 112.728 14.1614 112.728 14.2691L111.54 22.4484C111.54 22.5561 111.54 22.6637 111.648 22.6637C111.756 22.7713 111.756 22.7713 111.864 22.7713H117.264C121.476 22.7713 123.528 21.0493 123.528 17.6054C123.528 15.3453 122.016 14.0538 119.1 14.0538H113.052Z" fill="#A22330"/>
<path d="M20.9868 51C15.346 51 10.8759 49.6 7.78939 46.9077C4.70289 44.2154 3 40.1231 3 35.2769C3 33.9846 3.10643 32.8 3.31929 31.7231L7.04437 4.04615C7.04437 3.93846 7.1508 3.72308 7.25723 3.61538L9.06656 2C9.17299 2 9.27942 2 9.49228 2H18.5389C18.7518 2 18.8582 2.10769 18.9646 2.21538L20.7739 4.26154C20.8804 4.36923 20.9868 4.58462 20.8804 4.8L17.0489 32.3692C17.0489 32.9077 17.0489 33.3385 17.0489 33.9846C17.0489 37.9692 19.7096 38.2923 22.1575 38.2923C26.5212 38.2923 28.8627 36.1385 29.3948 31.6154L33.1199 4.04615C33.1199 3.93846 33.2263 3.72308 33.3328 3.61538L35.1421 2.10769C35.2485 2 35.355 2 35.5678 2H44.6144C44.8273 2 44.9337 2.10769 45.0402 2.21538L46.8495 4.26154C46.9559 4.36923 47.0623 4.58462 46.9559 4.8L43.2308 32.3692C41.5279 44.2154 33.4392 51 20.9868 51ZM9.49228 2.32308C9.38585 2.32308 9.38585 2.32308 9.27942 2.43077L7.47009 3.93846C7.47009 4.04615 7.36366 4.04615 7.36366 4.15385L3.63858 31.6154C3.42572 32.6923 3.31929 33.8769 3.31929 35.1692C3.31929 40.0154 4.91575 43.8923 8.00225 46.5846C11.0887 49.2769 15.4524 50.5692 20.9868 50.5692C33.2263 50.5692 41.2087 43.8923 42.9115 32.1538L46.6366 4.58461C46.6366 4.47692 46.6366 4.36923 46.5302 4.36923L44.7209 2.32308C44.6144 2.21538 44.6144 2.21538 44.508 2.21538H35.4614C35.355 2.21538 35.355 2.21538 35.2485 2.32308L33.4392 3.93846C33.3328 3.93846 33.3328 4.04615 33.3328 4.15385L29.6077 31.7231C29.0755 36.4615 26.6276 38.6154 22.0511 38.6154C17.2617 38.6154 16.6231 36.2462 16.6231 33.9846C16.6231 33.4462 16.6231 32.9077 16.7296 32.3692L20.5611 4.8C20.5611 4.69231 20.5611 4.58461 20.4547 4.58461L18.6453 2.53846C18.5389 2.43077 18.5389 2.43077 18.4325 2.43077H9.49228V2.32308Z" fill="#A22330"/>
<path d="M70.9569 50H51.3934C51.1853 50 51.0812 49.8924 50.9772 49.7848L49.2081 47.7399C49 47.6323 49 47.417 49 47.2018L54.8274 4.04484C54.8274 3.93722 54.9315 3.72197 55.0355 3.61435L56.8046 2C56.9086 2 57.0127 2 57.1168 2H76.1599C79.698 2 83.0279 2.96861 85.5254 4.90583C88.4391 7.0583 90 10.287 90 14.0538C90 18.574 88.0228 22.5561 84.4848 25.0314C84.3807 25.0314 84.3807 25.139 84.3807 25.2466C84.3807 25.3543 84.3807 25.4619 84.4848 25.4619C87.0863 27.6144 88.5431 30.9507 88.5431 34.3946C88.5431 39.13 86.566 43.2197 82.9239 46.1256C79.698 48.6009 75.4315 50 70.9569 50ZM57.1168 2.32287C57.0127 2.32287 57.0127 2.32287 56.9086 2.43049L55.2437 3.93722C55.1396 3.93722 55.1396 4.04484 55.1396 4.15247L49.3122 47.3094C49.3122 47.417 49.3122 47.5247 49.4162 47.5247L51.1853 49.5695C51.2893 49.6771 51.2893 49.6771 51.3934 49.6771H70.9569C75.4315 49.6771 79.698 48.278 82.8198 45.8027C86.3579 43.0045 88.231 39.0224 88.231 34.3946C88.231 30.9507 86.7741 27.8296 84.2766 25.6771C84.1726 25.5695 84.0685 25.3543 84.0685 25.139C84.0685 24.9238 84.1726 24.8161 84.2766 24.7085C87.7107 22.2332 89.5838 18.4664 89.5838 13.9462C89.5838 10.287 88.1269 7.16592 85.2132 5.12108C82.8198 3.29148 79.4898 2.32287 76.0558 2.32287H57.1168ZM69.3959 38.9148H64.0888C63.8807 38.9148 63.7766 38.8072 63.6726 38.6996C63.5685 38.5919 63.4645 38.3767 63.5685 38.1614L64.5051 31.0583C64.5051 30.7354 64.8173 30.5202 65.1294 30.5202H71.165C75.4315 30.5202 75.4315 33.2108 75.4315 34.0718C75.3274 37.4081 73.3503 38.9148 69.3959 38.9148ZM65.0254 30.9507C64.9213 30.9507 64.7132 31.0583 64.7132 31.1659L63.7767 38.2691C63.7767 38.3767 63.7766 38.4843 63.8807 38.4843C63.9848 38.5919 63.9848 38.5919 64.0888 38.5919H69.3959C73.2462 38.5919 75.0152 37.0852 75.0152 34.1794C75.0152 31.3812 72.934 30.9507 71.0609 30.9507H65.0254ZM71.5812 19.9731H66.6904C66.4822 19.9731 66.3782 19.8655 66.2741 19.7578C66.17 19.6502 66.066 19.435 66.17 19.2197L66.8985 13.6233C66.8985 13.3004 67.2107 13.0852 67.5228 13.0852H73.2462C76.0558 13.0852 76.6802 13.9462 76.6802 15.3453C76.5761 17.3901 75.6396 19.9731 71.5812 19.9731ZM67.4188 13.4081C67.3147 13.4081 67.1066 13.5157 67.1066 13.6233L66.3782 19.2197C66.3782 19.3274 66.3782 19.435 66.4822 19.435C66.5863 19.5426 66.5863 19.5426 66.6904 19.5426H71.5812C73.6624 19.5426 76.264 18.7892 76.264 15.2377C76.264 14.1614 76.0558 13.3004 73.1421 13.3004H67.4188V13.4081Z" fill="#A22330"/>
<path d="M31.248 31.4732C30.5041 36.7317 27.6349 40.1659 21.5777 40.1659C16.2643 40.1659 14.139 37.5902 14.139 33.4049C14.139 32.761 14.139 32.2244 14.2452 31.4732L17.9646 4H9.03815L5.21253 31.4732C5 32.5463 5 33.6195 5 34.6927C5 43.7073 11.1635 48 20.515 48C30.9292 48 38.6866 42.7415 40.2807 31.5805L44 4.10732H34.9673L31.248 31.4732Z" fill="white"/>
<path d="M88 13.5436C88 7.00249 82.063 4 76.3381 4H56.937L51 47H70.9312C78.9885 47 86.5158 42.2818 86.5158 33.8105C86.5158 29.8429 84.2894 26.6259 80.5788 25.2319L80.7908 23.8379C85.8797 22.015 88 17.9402 88 13.5436ZM64.9943 10.5411H73.1576C76.7622 10.5411 78.7765 11.9352 78.7765 14.9377C78.7765 19.4414 75.702 21.586 71.5673 21.586H63.51L64.9943 10.5411ZM69.447 40.5661H60.9656L62.6619 28.02H71.2493C75.2779 28.02 77.7163 30.0574 77.7163 33.7032C77.6103 38.8504 73.6877 40.5661 69.447 40.5661Z" fill="white"/>
<path d="M126.182 30.0324C130.906 28.0424 135 23.8529 135 16.9402C135 9.399 128.702 5 122.088 5H102.878L97 47H105.923L108.022 31.813H116.525L122.928 47H132.901L125.972 31.394L126.182 30.0324ZM108.967 25.2145L110.856 11.9127H119.254C123.453 11.9127 125.972 14.217 125.972 17.7781C125.972 22.7007 122.508 25.2145 117.47 25.2145H108.967Z" fill="white"/>
<path d="M20.2502 48C10.3322 48 5 43.4233 5 35.1213C5 33.9505 5.10664 32.9926 5.21329 32.0347L8.94586 5H17.4774L13.7449 31.9282C13.6382 32.6733 13.6382 33.3119 13.6382 33.9505C13.6382 38.5272 16.3043 40.8688 21.4233 40.8688C27.1821 40.8688 30.5947 37.7822 31.4479 32.0347L35.1805 5H43.7121L39.9795 31.9282C38.3798 42.2525 31.4479 48 20.2502 48ZM123.269 47.1485L116.764 31.7153H107.699L105.566 47.1485H97.0344L102.9 5H122.096C128.281 5 135 9.15099 135 16.9208C135 22.8812 131.801 27.6708 126.148 30.0124L125.935 31.6089L132.867 47.0421H123.269V47.1485ZM108.552 25.5421H117.297C122.842 25.5421 126.255 22.6683 126.255 17.7723C126.255 13.9406 123.589 11.4926 119.217 11.4926H110.472L108.552 25.5421ZM51.0705 47.1485L56.8294 5H76.1321C81.7842 5 87.5431 7.87376 87.5431 14.1535C87.5431 18.8366 84.9836 22.4554 80.3979 24.1584L80.2912 24.2649L80.0779 25.9678L80.2912 26.0743C83.9171 27.4579 86.05 30.5446 86.05 34.3762C86.05 42.7847 78.3716 47.1485 70.6932 47.1485H51.0705ZM60.3486 41.1881H69.2002C74.639 41.1881 77.7317 38.6337 77.7317 34.0569C77.7317 30.3317 75.2789 28.203 71.0131 28.203H62.1616L60.3486 41.1881ZM62.9081 22.4554H71.4397C76.1321 22.4554 78.9048 19.901 78.9048 15.5371C78.9048 12.4505 76.8786 10.9604 73.0394 10.9604H64.5078L62.9081 22.4554Z" fill="url(#paint3_linear)"/>
<path d="M121.947 4.53659C127.996 4.53659 134.469 8.61463 134.469 16.2341C134.469 22.1366 131.286 26.8585 125.873 29.2195L125.555 29.3268V29.6488L125.343 31.0439V31.1512L125.449 31.2585L132.135 46.3902H123.22L116.959 31.1512L116.853 30.8293H116.322H107.833H107.408L107.302 31.2585L105.286 46.3902H97.2204L102.951 4.42927H121.947V4.53659ZM108.045 25.3561H108.682H117.171C122.902 25.3561 126.298 22.3512 126.298 17.2C126.298 13.2293 123.433 10.6537 118.976 10.6537H110.486H110.061L109.955 11.0829L108.045 24.7122V25.3561ZM76.2082 4.53659C81.7265 4.53659 87.351 7.32683 87.351 13.5512C87.351 18.1659 84.9102 21.7073 80.4531 23.4244L80.1347 23.5317V23.8537L79.8163 25.2488L79.7102 25.6781L80.1347 25.7854C83.6367 27.1805 85.6531 30.1854 85.6531 33.8341C85.6531 42.0976 78.1184 46.4976 70.5837 46.4976H51.3755L57.1061 4.53659H76.2082ZM62.6245 22.1366H63.2612H71.4326C76.2082 22.1366 79.1796 19.3463 79.1796 14.9463C79.1796 11.7268 77.1633 10.0098 73.0245 10.0098H64.8531H64.3224L64.2163 10.439L62.7306 21.4927L62.6245 22.1366ZM60.0776 41.1317H60.7143H69.2041C74.7225 41.1317 77.9061 38.4488 77.9061 33.7268C77.9061 29.8634 75.2531 27.5024 70.902 27.5024H62.3061H61.8816L61.7755 27.9317L60.0776 40.4878V41.1317ZM43.4163 4.53659L39.702 31.3659C38.2163 41.6683 31.4245 47.3561 20.4939 47.3561C10.8367 47.3561 5.53061 42.8488 5.53061 34.5854C5.53061 33.4049 5.63673 32.439 5.74286 31.4732L9.45714 4.53659H17.4163L13.702 31.3659C13.5959 32.1171 13.5959 32.761 13.5959 33.4049C13.5959 38.1268 16.3551 40.7024 21.5551 40.7024C27.3918 40.7024 30.8939 37.4829 31.7429 31.4732L35.4571 4.42927H43.4163V4.53659ZM121.947 4H102.527L96.5837 47.0341H105.604L107.727 31.4732H116.322L122.796 47.0341H132.878L125.873 31.1512L126.086 29.7561C130.861 27.7171 135 23.4244 135 16.3415C135 8.61464 128.633 4 121.947 4ZM108.682 24.8195L110.592 11.1902H119.082C123.327 11.1902 125.873 13.5512 125.873 17.2C125.873 22.2439 122.371 24.8195 117.278 24.8195H108.682ZM76.2082 4H56.6816L50.7388 47.0341H70.6898C78.7551 47.0341 86.2898 42.3122 86.2898 33.8341C86.2898 29.8634 84.0612 26.6439 80.3469 25.2488L80.5592 23.8537C85.5469 21.922 87.7755 17.8439 87.7755 13.4439C87.7755 7.00488 81.9388 4 76.2082 4ZM63.2612 21.6L64.7469 10.5463H72.9184C76.5265 10.5463 78.5429 11.9415 78.5429 14.9463C78.5429 19.4537 75.4653 21.6 71.3265 21.6H63.2612ZM60.6082 40.5951L62.3061 28.039H70.902C74.9347 28.039 77.3755 30.0781 77.3755 33.7268C77.3755 38.8781 73.449 40.5951 69.2041 40.5951H60.6082ZM44.0531 4H35.0327L31.3184 31.4732C30.5755 36.7317 27.7102 40.1659 21.6612 40.1659C16.3551 40.1659 14.2327 37.5902 14.2327 33.4049C14.2327 32.761 14.2327 32.2244 14.3388 31.4732L18.0531 4H9.03265L5.21225 31.4732C5 32.5463 5 33.6195 5 34.6927C5 43.7073 11.1551 48 20.4939 48C30.8939 48 38.6408 42.7415 40.2327 31.5805L44.0531 4Z" fill="white"/>
<path d="M62.5034 28.7179H71.3197C73.2789 28.7179 74.9116 29.1282 76 30.0513C74.9116 28.7179 73.0612 28 70.5578 28H61.7415L60 40H60.8707L62.5034 28.7179Z" fill="#28004D" stroke="#28004D" stroke-width="0.3" stroke-miterlimit="10" stroke-linecap="round" stroke-linejoin="round"/>
<path d="M18 5H17.2558L14.093 31.0032C14 31.7342 14 32.3608 14 32.8829C14 35.076 14.5581 36.8513 15.8605 38C15.0233 36.8513 14.5581 35.3892 14.5581 33.6139C14.5581 32.9873 14.5581 32.4652 14.6512 31.7342L18 5Z" fill="#28004D" stroke="#28004D" stroke-width="0.3" stroke-miterlimit="10" stroke-linecap="round" stroke-linejoin="round"/>
<path d="M110.667 11.7717H119.2C121.227 11.7717 122.827 12.3228 124 13.315C122.827 11.8819 121.013 11 118.453 11H109.92L108 25H108.853L110.667 11.7717Z" fill="#28004D" stroke="#28004D" stroke-width="0.3" stroke-miterlimit="10" stroke-linecap="round" stroke-linejoin="round"/>
<path d="M72.9635 10H64.5328L63 21H63.8759L65.2993 10.7476H73.7299C75.5912 10.7476 77.0146 11.068 78 11.7087C77.1241 10.534 75.3723 10 72.9635 10Z" fill="#28004D" stroke="#28004D" stroke-width="0.3" stroke-miterlimit="10" stroke-linecap="round" stroke-linejoin="round"/>
<path d="M85.1948 8C86.4416 9.5 87.2727 11.4286 87.2727 13.7857C87.2727 18.1786 85.0909 22.1429 80.2078 24.1786L80 25.5714C80.3117 25.6786 80.5195 25.7857 80.8312 26L80.9351 25.0357C85.8182 23.1071 88 19.0357 88 14.6429C88 11.75 86.8571 9.5 85.1948 8Z" fill="#28004D" stroke="#28004D" stroke-width="0.3" stroke-miterlimit="10" stroke-linecap="round" stroke-linejoin="round"/>
<path d="M115.687 31H107.231L105.143 46.2632H97.1044L97 47H105.874L107.962 31.7368H116L115.687 31Z" fill="#28004D" stroke="#28004D" stroke-width="0.3" stroke-miterlimit="10" stroke-linecap="round" stroke-linejoin="round"/>
<path d="M39.5398 31.1785C37.9469 42.2176 30.1947 47.2641 19.7876 47.2641C14.7965 47.2641 10.7611 46.1076 8 43.5844C10.6549 46.5281 15.0089 48 20.531 48C30.9381 48 38.6903 42.8484 40.2832 31.9144L44 5H43.1504L39.5398 31.1785Z" fill="#28004D" stroke="#28004D" stroke-width="0.3" stroke-miterlimit="10" stroke-linecap="round" stroke-linejoin="round"/>
<path d="M126.458 29.9973C131.034 27.9782 135 23.7275 135 16.7139C135 12.9945 133.576 10.1253 131.441 8C133.169 10.0191 134.288 12.6757 134.288 15.8638C134.288 22.8774 130.322 27.1281 125.746 29.1471L125.542 30.5286L132.254 46.2561H123L123.305 47H132.966L126.254 31.2725L126.458 29.9973Z" fill="#28004D" stroke="#28004D" stroke-width="0.3" stroke-miterlimit="10" stroke-linecap="round" stroke-linejoin="round"/>
<path d="M83.9911 28C85.3881 29.5323 86.2478 31.4731 86.2478 33.7204C86.2478 41.7903 78.6179 46.285 70.4507 46.285H51.1075L51 47H71.203C79.3702 47 87 42.5054 87 34.4355C87 31.8817 85.8179 29.6344 83.9911 28Z" fill="#28004D" stroke="#28004D" stroke-width="0.3" stroke-miterlimit="10" stroke-linecap="round" stroke-linejoin="round"/>
<defs>
<linearGradient id="paint0_linear" x1="116.016" y1="49.9633" x2="116.016" y2="1.02811" gradientUnits="userSpaceOnUse">
<stop stop-color="#CE4339"/>
<stop offset="1" stop-color="#A22330"/>
</linearGradient>
<linearGradient id="paint1_linear" x1="24.5587" y1="51.0258" x2="24.5587" y2="0.921642" gradientUnits="userSpaceOnUse">
<stop stop-color="#CE4339"/>
<stop offset="1" stop-color="#A22330"/>
</linearGradient>
<linearGradient id="paint2_linear" x1="69.4844" y1="49.9632" x2="69.4844" y2="0.921877" gradientUnits="userSpaceOnUse">
<stop stop-color="#CE4339"/>
<stop offset="1" stop-color="#A22330"/>
</linearGradient>
<linearGradient id="paint3_linear" x1="70.0041" y1="4.97871" x2="70.0041" y2="48.0118" gradientUnits="userSpaceOnUse">
<stop stop-color="#9C9EB8"/>
<stop offset="0.7372" stop-color="white"/>
</linearGradient>
</defs>
</svg>
