<svg width="242" height="88" viewBox="0 0 242 88" fill="none" xmlns="http://www.w3.org/2000/svg">
<rect width="242" height="88" fill="white"/>
<path d="M68 34.0145V48.1385C68 55.161 62.2368 61 55.1316 61H41V46.876C41 39.8535 46.7632 34.0145 53.8684 34.0145H68ZM58.6053 12C53.4737 12 49.2105 12 49.2105 12C49.2105 12 49.2105 16.182 49.2105 21.3897C49.2105 26.5185 53.3947 30.7794 58.6053 30.7794C63.7368 30.7794 68 30.7794 68 30.7794C68 30.7794 68 26.5974 68 21.3897C68 16.182 63.7368 12 58.6053 12Z" fill="#7BC2CB"/>
<path d="M168.579 34.4599H150.348V37.3504H163.268C163.823 37.3504 164.22 37.7518 164.22 38.3139V41.4453V42.6496C164.22 42.0073 163.665 41.4453 163.03 41.4453H149.634C147.573 41.4453 145.829 43.1314 145.829 45.2993V50.1971C145.829 52.2847 147.494 54.0511 149.634 54.0511H172.384V38.3139C172.305 36.2263 170.64 34.4599 168.579 34.4599ZM164.22 50.1971C164.22 50.7591 163.823 51.1606 163.268 51.1606H154.866C154.311 51.1606 153.915 50.7591 153.915 50.1971V45.2993C153.915 44.7372 154.311 44.3358 154.866 44.3358H163.189C163.744 44.3358 164.14 44.7372 164.14 45.2993L164.22 50.1971ZM105.64 34.4599H113.726V54.0511H105.64V45.219C105.64 44.6569 105.244 44.2555 104.689 44.2555H96.2866V54.0511H74.8049C72.7439 54.0511 71 52.365 71 50.1971V34.4599H79.0854V50.1971C79.0854 50.7591 79.4817 51.1606 80.0366 51.1606H86.9329C87.5671 51.1606 88.122 51.7226 88.122 52.365V34.4599H96.2073V41.365H104.372C105.006 41.365 105.561 41.927 105.561 42.5693V41.365V34.4599H105.64ZM197.195 34.4599H176.982V61.8394H185.067V52.8467C185.067 53.4891 185.622 54.0511 186.256 54.0511H197.195C199.256 54.0511 201 52.365 201 50.1971V38.3139C200.921 36.2263 199.256 34.4599 197.195 34.4599ZM192.835 50.1971C192.835 50.7591 192.439 51.1606 191.884 51.1606H186.018C185.463 51.1606 185.067 50.7591 185.067 50.1971V38.2336C185.067 37.6715 185.463 37.2701 186.018 37.2701H191.884C192.439 37.2701 192.835 37.6715 192.835 38.2336V50.1971ZM118.165 38.3139V50.2774C118.165 52.365 119.829 54.1314 121.97 54.1314H132.909C133.543 54.1314 134.098 53.5693 134.098 52.927V54.1314V62H142.183V34.4599H121.97C119.829 34.4599 118.165 36.2263 118.165 38.3139ZM126.25 38.3139C126.25 37.7518 126.646 37.3504 127.201 37.3504H133.067C133.622 37.3504 134.018 37.7518 134.018 38.3139V50.2774C134.018 50.8394 133.622 51.2409 133.067 51.2409H127.201C126.646 51.2409 126.25 50.8394 126.25 50.2774V38.3139ZM84 18C84 18 84 20.9708 84 24.5839C84 28.1971 81.0671 31.1679 77.5 31.1679C73.9329 31.1679 71 31.1679 71 31.1679C71 31.1679 71 28.1971 71 24.5839C71 20.9708 73.9329 18 77.5 18C81.0671 18 84 18 84 18Z" fill="#00909E"/>
<path d="M78.4423 73.8039H71.3462C71.2596 73.8039 71.1731 73.8039 71.0865 73.7255C71 73.7255 71 73.6471 71 73.4902V64.2353C71 64.0784 71.0865 64 71.3462 64H72.125C72.2981 64 72.3846 64.0784 72.3846 64.2353V72.7843H77.5769V64.2353C77.5769 64.0784 77.6635 64 77.9231 64H78.7019C78.875 64 78.9615 64.0784 78.9615 64.2353V72.7059L79.7404 72.7843C79.8269 72.7843 79.9135 72.8627 80 72.9412C80 73.0196 80 73.098 80 73.098L79.8269 75.6863C79.8269 75.8431 79.8269 75.9216 79.7404 75.9216C79.7404 75.9216 79.6538 76 79.5673 76H78.875C78.7885 76 78.7019 76 78.7019 75.9216C78.7019 75.9216 78.6154 75.7647 78.6154 75.6863L78.4423 73.8039Z" fill="#00909E"/>
<path d="M82 64.72C82 64.88 81.9412 65.04 81.8824 65.2C81.8235 65.36 81.7059 65.36 81.4706 65.36C81.2353 65.36 81.1176 65.28 81.0588 65.12C81 64.96 81 64.8 81 64.64C81 64.48 81.0588 64.32 81.1176 64.16C81.1765 64 81.2941 64 81.5294 64C81.7647 64 81.8824 64.08 81.9412 64.16C82 64.32 82 64.48 82 64.72ZM81.9412 73.76C81.9412 73.92 81.8824 74 81.7647 74H81.2941C81.1765 74 81.0588 73.92 81.0588 73.76V66.96C81.0588 66.88 81.0588 66.8 81.1176 66.72C81.1765 66.72 81.2353 66.64 81.2941 66.64H81.7647C81.8824 66.64 81.9412 66.72 81.9412 66.88V73.76Z" fill="#00909E"/>
<path d="M90.7061 74H90.1835C89.9222 74 89.7481 73.9239 89.7481 73.6957V70.7283H85.2193V73.6957C85.2193 73.9239 85.1322 74 84.8709 74H84.3484C84.0871 74 84 73.9239 84 73.6957V67.3043C84 67.1522 84 67.0761 84.0871 67.0761C84.1742 67 84.2613 67 84.3484 67H84.8709C84.958 67 85.1322 67 85.1322 67.0761C85.2193 67.1522 85.2193 67.2283 85.2193 67.3043V69.8152H89.661V67.3043C89.661 67.1522 89.661 67.0761 89.7481 67.0761C89.8351 67 89.9222 67 90.0964 67H90.619C90.7061 67 90.8802 67 90.8802 67.0761C90.9673 67.1522 90.9673 67.2283 90.9673 67.3043V73.6957C91.0544 73.9239 90.9673 74 90.7061 74Z" fill="#00909E"/>
<path d="M95.1871 76.76C95.1871 76.84 95.1054 76.92 95.1054 76.92C95.0237 76.92 95.0237 77 94.8603 77H94.1248C93.9613 77 93.8796 76.92 93.9613 76.76L94.942 74.36L92 67.24C92 67.16 92 67.16 92 67.08C92 67 92.0817 67 92.1634 67H93.0624C93.1441 67 93.2258 67 93.2258 67.08C93.2258 67.08 93.3075 67.16 93.3075 67.24L94.6968 70.68L95.5957 73C95.5957 72.92 95.6775 72.76 95.7592 72.52C95.8409 72.28 96.0044 71.96 96.0861 71.72C96.1678 71.4 96.3312 71 96.4947 70.6L97.7205 67.24C97.8022 67.08 97.8839 67.08 97.9657 67.08H98.8646C99.028 67.08 99.028 67.16 98.9463 67.32L95.1871 76.76Z" fill="#00909E"/>
<path d="M108 70.3895C108 70.7579 108 71.2 107.925 71.5684C107.925 72.0105 107.774 72.3789 107.623 72.7474C107.472 73.1158 107.17 73.4105 106.717 73.6316C106.34 73.8526 105.736 74 104.981 74C104.302 74 103.774 73.9263 103.396 73.7053C103.019 73.4842 102.717 73.2632 102.491 72.9684C102.264 72.6737 102.189 72.3053 102.113 71.9368C102.038 71.5684 102.038 71.2 102.038 70.8316H101.057V73.7053C101.057 73.9263 100.981 74 100.755 74H100.302C100.075 74 100 73.9263 100 73.7053V67.5158C100 67.3684 100 67.2947 100.075 67.2947C100.151 67.2211 100.226 67.2211 100.302 67.2211H100.755C100.83 67.2211 100.906 67.2211 100.981 67.2947C101.057 67.3684 101.057 67.4421 101.057 67.5158V69.9474H102.038C102.038 69.6526 102.113 69.3579 102.189 68.9895C102.264 68.6947 102.415 68.3263 102.642 68.0316C102.868 67.7368 103.17 67.5158 103.547 67.2947C103.925 67.0737 104.453 67 105.057 67C105.736 67 106.34 67.0737 106.717 67.2947C107.094 67.5158 107.396 67.7368 107.623 68.1053C107.849 68.4 107.925 68.7684 108 69.2105C108 69.5789 108 69.9474 108 70.3895ZM106.792 70.4632C106.792 70.0947 106.792 69.7263 106.717 69.4316C106.717 69.1368 106.566 68.8421 106.491 68.6211C106.34 68.4 106.189 68.2526 105.962 68.1053C105.736 67.9579 105.358 67.9579 104.981 67.9579C104.604 67.9579 104.302 68.0316 104.075 68.1053C103.849 68.2526 103.698 68.4 103.547 68.6211C103.396 68.8421 103.321 69.1368 103.321 69.4316C103.321 69.7263 103.245 70.0947 103.245 70.4632C103.245 70.9053 103.245 71.2737 103.321 71.5684C103.321 71.8632 103.472 72.1579 103.547 72.3789C103.698 72.6 103.849 72.7474 104.075 72.8947C104.302 72.9684 104.604 73.0421 104.981 73.0421C105.434 73.0421 105.736 72.9684 105.962 72.8947C106.189 72.7474 106.415 72.6 106.491 72.3789C106.642 72.1579 106.717 71.9368 106.717 71.5684C106.792 71.2 106.792 70.8316 106.792 70.4632Z" fill="#00909E"/>
<path d="M110.25 67.0753H110.94C111.094 67.0753 111.17 67.1505 111.17 67.3011V68.957C111.17 69.2581 111.17 69.4839 111.247 69.7097C111.324 69.9355 111.324 70.086 111.477 70.1613C111.554 70.2366 111.707 70.3871 111.86 70.3871C112.014 70.3871 112.244 70.4624 112.474 70.4624C112.627 70.4624 112.857 70.4624 113.087 70.3871C113.317 70.3118 113.547 70.2366 113.777 70.2366C114.007 70.1613 114.237 70.086 114.39 70.0108C114.62 69.9355 114.773 69.8602 114.85 69.7849V67.2258C114.85 67.0753 114.927 67 115.157 67H115.77C115.923 67 116 67.0753 116 67.2258V73.7742C116 73.9247 115.923 74 115.77 74H115.157C115.003 74 114.85 73.9247 114.85 73.7742V70.7634C114.697 70.8387 114.543 70.914 114.39 70.9892C114.16 71.0645 114.007 71.1398 113.777 71.2151C113.547 71.2903 113.317 71.3656 113.087 71.4409C112.857 71.5161 112.55 71.5161 112.32 71.5161C111.784 71.5161 111.4 71.4409 111.094 71.2903C110.787 71.1398 110.557 70.9892 110.404 70.7634C110.25 70.5376 110.174 70.3118 110.097 70.0108C110.02 69.7097 110.02 69.4839 110.02 69.1075V67.2258C109.944 67.1505 110.097 67.0753 110.25 67.0753Z" fill="#00909E"/>
<path d="M118 67.3043C118 67.1522 118 67.0761 118.073 67.0761C118.146 67 118.22 67 118.293 67H118.805C118.951 67 119.024 67 119.024 67.0761C119.098 67.1522 119.098 67.2283 119.098 67.3043V72.0978L120.707 70.0435L122.976 67.2283C123.049 67.1522 123.049 67.1522 123.122 67.0761C123.195 67 123.268 67 123.341 67H123.707C123.927 67 124 67.0761 124 67.3043V73.6957C124 73.9239 123.927 74 123.707 74H123.268C123.049 74 122.902 73.9239 122.902 73.6957V68.6739L121.585 70.4239L118.951 73.7717C118.878 73.8478 118.878 73.9239 118.805 73.9239C118.732 74 118.659 74 118.585 74H118.366C118.146 74 118.073 73.9239 118.073 73.6957V67.3043H118Z" fill="#00909E"/>
<path d="M137.167 73.0254L137.75 73.1017C137.833 73.1017 137.917 73.178 138 73.2542C138 73.3305 138 73.4068 138 73.4068L137.833 75.6949C137.833 75.8475 137.833 75.9237 137.75 75.9237C137.75 76 137.667 76 137.583 76H137C136.917 76 136.833 76 136.833 75.9237C136.833 75.8475 136.75 75.7712 136.75 75.6949L136.667 74.0932H130.417L130.25 75.6949C130.25 75.8475 130.25 75.9237 130.167 75.9237C130.167 76 130.083 76 130 76H129.333C129.25 76 129.167 76 129.167 75.9237C129.167 75.8475 129.083 75.7712 129.083 75.6949L129 73.483C129 73.4068 129 73.3305 129.083 73.2542C129.167 73.2542 129.25 73.178 129.333 73.178L129.75 73.1017C130.083 72.9492 130.333 72.7203 130.5 72.339C130.667 72.0339 130.75 71.5763 130.917 71.0424L131.5 67.6864C131.583 67.4576 131.667 67.3051 131.833 67.1525C132 67.0763 132.25 67 132.5 67H136.667C136.833 67 136.917 67 137 67.0763C137.083 67.1525 137.083 67.2288 137.083 67.3051V73.0254H137.167ZM135.917 68.0678H132.667L132.333 70.3559C132.25 70.8136 132.167 71.2712 132.083 71.5C132 71.8051 131.917 72.0339 131.917 72.2627C131.833 72.4153 131.75 72.5678 131.75 72.7203C131.667 72.7966 131.583 72.9492 131.5 73.1017H135.917V68.0678Z" fill="#00909E"/>
<path d="M144 73.1158C143.615 73.3368 143.154 73.4842 142.692 73.7053C142.231 73.8526 141.692 74 141.077 74C140.308 74 139.769 73.8526 139.462 73.4842C139.154 73.1895 139 72.6737 139 72.0842C139 71.2737 139.231 70.6842 139.692 70.3158C140.154 69.9474 140.846 69.7263 141.923 69.7263H144.077V69.2842C144.077 68.7684 143.923 68.4 143.692 68.2526C143.462 68.0316 142.923 67.9579 142.231 67.9579C142.077 67.9579 141.923 67.9579 141.769 67.9579C141.615 67.9579 141.385 67.9579 141.231 67.9579C141 67.9579 140.846 67.9579 140.615 68.0316C140.385 68.0316 140.231 68.0316 140.077 68.1053C139.923 68.1053 139.769 68.1053 139.769 67.9579L139.692 67.5895C139.692 67.5158 139.692 67.4421 139.692 67.4421C139.692 67.3684 139.769 67.3684 139.923 67.2947C140.077 67.2211 140.231 67.2211 140.462 67.1474C140.692 67.0737 140.923 67.0737 141.154 67.0737C141.385 67.0737 141.615 67 141.846 67C142.077 67 142.308 67 142.462 67C143.077 67 143.615 67.0737 143.923 67.1474C144.308 67.2947 144.538 67.4421 144.769 67.6632C145 67.8842 145.077 68.1053 145.154 68.4737C145.231 68.7684 145.231 69.1368 145.231 69.5053V72.6C145.231 72.7474 145.231 72.8211 145.231 72.8947C145.231 72.9684 145.308 73.0421 145.308 73.0421C145.385 73.1158 145.385 73.1158 145.462 73.1158C145.538 73.1158 145.615 73.1158 145.769 73.1158C145.923 73.1158 146 73.1895 146 73.2632V73.6316C146 73.7053 146 73.7789 145.923 73.7789C145.846 73.8526 145.769 73.8526 145.692 73.8526C145.538 73.8526 145.308 73.9263 145.154 73.9263C144.769 73.9263 144.538 73.8526 144.308 73.7789C144.154 73.6316 144.077 73.4105 144 73.1158ZM144 70.6105H141.692C141.231 70.6105 140.846 70.6842 140.538 70.9053C140.231 71.1263 140.154 71.4947 140.154 72.0105C140.154 72.3789 140.231 72.6737 140.385 72.8211C140.538 72.9684 140.846 73.0421 141.308 73.0421C141.538 73.0421 141.692 73.0421 141.923 72.9684C142.154 72.8947 142.385 72.8947 142.615 72.7474C142.846 72.6737 143.077 72.6 143.308 72.5263C143.538 72.4526 143.692 72.3053 143.923 72.2316V70.6105H144Z" fill="#00909E"/>
<path d="M154 70.6C154 71.24 153.916 71.8 153.831 72.28C153.747 72.76 153.578 73.16 153.325 73.48C153.072 73.8 152.735 74.04 152.313 74.2C151.892 74.36 151.386 74.44 150.711 74.44C150.374 74.44 150.036 74.44 149.614 74.36C149.193 74.28 148.771 74.2 148.349 74.04V76.68C148.349 76.76 148.349 76.84 148.265 76.92C148.265 77 148.181 77 148.012 77H147.337C147.169 77 147.169 77 147.084 76.92C147.084 76.92 147 76.84 147 76.68V67.32C147 67.16 147.084 67.08 147.253 67.08H147.928C148.096 67.08 148.181 67.16 148.181 67.32V67.88H148.265C148.349 67.8 148.518 67.72 148.771 67.64C149.024 67.56 149.193 67.4 149.446 67.32C149.699 67.24 149.952 67.16 150.289 67.08C150.542 67 150.88 67 151.133 67C151.639 67 152.145 67.08 152.482 67.24C152.819 67.4 153.157 67.64 153.325 67.96C153.494 68.28 153.663 68.68 153.747 69.16C153.916 69.48 154 70.04 154 70.6ZM152.651 70.6C152.651 70.04 152.651 69.56 152.566 69.24C152.482 68.92 152.398 68.6 152.313 68.44C152.145 68.28 152.06 68.12 151.807 68.04C151.639 67.96 151.386 67.96 151.133 67.96C150.964 67.96 150.711 67.96 150.458 68.04C150.205 68.12 149.952 68.2 149.699 68.28C149.446 68.36 149.193 68.44 148.94 68.6C148.687 68.68 148.518 68.76 148.349 68.84V73.16C148.855 73.32 149.277 73.4 149.699 73.4C150.12 73.48 150.458 73.48 150.88 73.48C151.217 73.48 151.554 73.4 151.807 73.32C152.06 73.24 152.229 73.08 152.398 72.84C152.566 72.6 152.651 72.28 152.735 71.96C152.566 71.56 152.651 71.16 152.651 70.6Z" fill="#00909E"/>
<path d="M164.547 73.7742C164.547 73.9247 164.469 74 164.313 74H163.531C163.375 74 163.297 73.9247 163.297 73.7742V70.914H162.516C162.359 70.914 162.203 70.914 162.047 70.914C161.891 70.914 161.734 70.9892 161.578 71.0645C161.422 71.1398 161.266 71.2903 161.188 71.4409C161.031 71.5914 160.953 71.8172 160.875 72.043L160.25 73.6989C160.25 73.7742 160.172 73.8495 160.094 73.8495C160.016 73.8495 159.937 73.9247 159.859 73.9247H159.234C159.078 73.9247 159 73.9247 159 73.8495C159 73.7742 159 73.6989 159 73.6237L159.703 71.8172C159.781 71.5914 159.859 71.4409 159.937 71.2903C160.016 71.1398 160.094 70.9892 160.172 70.8387C160.25 70.6882 160.406 70.6129 160.484 70.5376C160.641 70.4624 160.797 70.3871 160.953 70.3118C160.719 70.2366 160.484 70.086 160.25 69.7849C160.094 69.4839 159.937 69.1828 159.781 68.8065L159.234 67.3011C159.156 67.2258 159.156 67.1505 159.234 67.0753C159.234 67 159.312 67 159.469 67H160.016C160.094 67 160.172 67 160.25 67.0753C160.328 67.0753 160.328 67.1505 160.406 67.2258L161.031 68.8065C161.109 69.0323 161.266 69.2581 161.344 69.4086C161.5 69.5591 161.578 69.7097 161.734 69.7849C161.891 69.8602 162.047 69.9355 162.203 69.9355C162.359 69.9355 162.516 69.9355 162.672 69.9355H163.453V67.2258C163.453 67.1505 163.453 67.0753 163.531 67.0753C163.531 67.0753 163.609 67 163.687 67H164.469C164.547 67 164.625 67 164.625 67.0753C164.625 67.0753 164.703 67.1505 164.703 67.2258V69.9355H165.406C165.562 69.9355 165.719 69.9355 165.875 69.9355C166.031 69.9355 166.187 69.8602 166.344 69.7849C166.5 69.7097 166.656 69.5591 166.734 69.4086C166.891 69.2581 166.969 69.0323 167.047 68.8065L167.672 67.2258C167.672 67.1505 167.75 67.0753 167.828 67.0753C167.906 67.0753 167.984 67 168.062 67H168.609C168.766 67 168.844 67 168.844 67.0753C168.844 67.1505 168.844 67.2258 168.844 67.3011L168.297 68.8065C168.141 69.1828 167.984 69.4839 167.828 69.7849C167.672 70.086 167.437 70.2366 167.125 70.3118C167.359 70.3871 167.516 70.4624 167.594 70.5376C167.75 70.6129 167.828 70.7634 167.906 70.8387C167.984 70.9892 168.062 71.0645 168.141 71.2903C168.219 71.4409 168.297 71.5914 168.375 71.8172L169 73.6237C169 73.6989 169 73.7742 169 73.8495C169 73.9247 168.922 73.9247 168.766 73.9247H168.141C168.062 73.9247 167.984 73.9247 167.906 73.8495C167.828 73.8495 167.828 73.7742 167.75 73.6989L167.125 72.043C167.047 71.8172 166.891 71.5914 166.812 71.4409C166.656 71.2903 166.5 71.1398 166.422 71.0645C166.266 70.9892 166.109 70.914 165.953 70.914C165.797 70.914 165.641 70.914 165.484 70.914H164.703V73.7742H164.547Z" fill="#00909E"/>
<path d="M170 67.3043C170 67.1522 170 67.0761 170.085 67.0761C170.171 67 170.256 67 170.341 67H170.939C171.11 67 171.195 67 171.195 67.0761C171.28 67.1522 171.28 67.2283 171.28 67.3043V72.0978L173.159 70.0435L175.805 67.2283C175.89 67.1522 175.89 67.1522 175.976 67.0761C176.061 67 176.146 67 176.232 67H176.659C176.915 67 177 67.0761 177 67.3043V73.6957C177 73.9239 176.915 74 176.659 74H176.146C175.89 74 175.72 73.9239 175.72 73.6957V68.6739L174.183 70.4239L171.11 73.7717C171.024 73.8478 171.024 73.9239 170.939 73.9239C170.854 74 170.768 74 170.683 74H170.427C170.171 74 170.085 73.9239 170.085 73.6957V67.3043H170Z" fill="#00909E"/>
<path d="M183.854 67.913C183.78 67.9891 183.707 67.9891 183.561 67.9891H181.512V73.6957C181.512 73.9239 181.366 74 181.22 74H180.78C180.561 74 180.415 73.9239 180.415 73.6957V67.9891H178.366C178.22 67.9891 178.146 67.9891 178.073 67.913C178 67.837 178 67.7609 178 67.6848V67.3043C178 67.0761 178.146 67 178.366 67H183.634C183.78 67 183.854 67 183.927 67.0761C184 67.1522 184 67.2283 184 67.3043V67.6848C183.927 67.837 183.854 67.913 183.854 67.913Z" fill="#00909E"/>
<path d="M190.854 67.913C190.78 67.9891 190.707 67.9891 190.561 67.9891H188.512V73.6957C188.512 73.9239 188.366 74 188.22 74H187.78C187.561 74 187.415 73.9239 187.415 73.6957V67.9891H185.366C185.22 67.9891 185.146 67.9891 185.073 67.913C185 67.837 185 67.7609 185 67.6848V67.3043C185 67.0761 185.146 67 185.366 67H190.634C190.78 67 190.854 67 190.927 67.0761C191 67.1522 191 67.2283 191 67.3043V67.6848C190.927 67.837 190.927 67.913 190.854 67.913Z" fill="#00909E"/>
<path d="M191.337 69.1304C191.337 68.75 191.422 68.4457 191.59 68.2174C191.759 67.913 191.928 67.7609 192.181 67.5326C192.434 67.3804 192.771 67.2283 193.108 67.1522C193.446 67.0761 193.783 67 194.205 67H197.578C197.831 67 198 67.0761 198 67.3043V73.6957C198 73.9239 197.831 74 197.578 74H197.072C196.819 74 196.735 73.9239 196.735 73.6957V71.1087H194.373C194.036 71.1087 193.783 71.2609 193.53 71.413C193.277 71.5652 193.108 71.8696 192.94 72.3261L192.349 73.7717C192.349 73.8478 192.265 73.9239 192.181 73.9239C192.096 73.9239 192.012 74 191.928 74H191.253C191.084 74 191 74 191 73.9239C191 73.8478 191 73.7717 191 73.6957L191.675 72.0217C191.759 71.7935 191.843 71.5652 192.012 71.337C192.181 71.1087 192.349 70.9565 192.602 70.8804C192.349 70.8043 192.096 70.7283 192.012 70.5761C191.843 70.4239 191.759 70.3478 191.59 70.1196C191.506 69.9674 191.422 69.8152 191.422 69.587C191.337 69.5109 191.337 69.2826 191.337 69.1304ZM192.602 69.1304C192.602 69.4348 192.687 69.663 192.94 69.8913C193.193 70.1196 193.614 70.1957 194.205 70.1957H196.651V67.9891H194.289C193.783 67.9891 193.361 68.0652 193.024 68.2935C192.771 68.5217 192.602 68.75 192.602 69.1304Z" fill="#00909E"/>
<path d="M201 73.2857C201 73.5238 200.895 73.6825 200.789 73.7619C200.684 73.9206 200.368 74 199.947 74C199.526 74 199.211 73.9206 199.105 73.7619C199 73.6032 199 73.4444 199 73.2857C199 73.127 199.105 72.8889 199.211 72.8095C199.316 72.6508 199.632 72.6508 199.947 72.6508C200.368 72.6508 200.579 72.7302 200.789 72.8095C201 72.9683 201 73.127 201 73.2857ZM200.684 71.1429C200.684 71.3016 200.579 71.3809 200.474 71.3809H199.947C199.737 71.3809 199.632 71.3016 199.632 71.1429L199.421 64.2381C199.421 64.0794 199.526 64 199.737 64H200.684C200.895 64 201 64.0794 201 64.2381L200.684 71.1429Z" fill="#00909E"/>
</svg>
