<svg width="242" height="90" viewBox="0 0 242 90" fill="none" xmlns="http://www.w3.org/2000/svg">
<rect width="242" height="90" fill="white"/>
<path d="M220 59.5C220 56.4933 222.493 54 225.5 54C228.507 54 231 56.4933 231 59.5C231 62.5067 228.507 65 225.5 65C222.493 65 220 62.5067 220 59.5Z" fill="#86BC25"/>
<path d="M45 44.2308C45 50.9231 43.1856 56 39.478 59.6154C35.7703 63.2308 30.6427 65 23.9374 65H11V25H24.884C31.2738 25 36.2436 26.6154 39.7935 29.9231C43.1856 33.3077 45 38 45 44.2308ZM33.7193 44.6154C33.7193 40.9231 33.0093 38.2308 31.5104 36.4615C30.0905 34.6923 27.8817 33.8462 24.884 33.8462H21.7285V56.2308H24.174C27.4872 56.2308 29.8538 55.3077 31.4316 53.3846C33.0093 51.4615 33.7193 48.5385 33.7193 44.6154Z" fill="black"/>
<path d="M91 25H80V65H91V25Z" fill="black"/>
<path d="M123 49.925C123 54.65 121.696 58.4 119.164 61.025C116.632 63.65 113.026 65 108.423 65C104.05 65 100.521 63.65 97.9127 60.95C95.3042 58.25 94 54.575 94 49.925C94 45.2 95.3042 41.525 97.836 38.9C100.368 36.275 103.974 35 108.577 35C111.415 35 113.947 35.6 116.172 36.8C118.397 38 120.008 39.725 121.235 42.05C122.463 44.225 123 46.925 123 49.925ZM104.204 49.925C104.204 52.4 104.511 54.35 105.201 55.625C105.892 56.9 106.966 57.575 108.577 57.575C110.111 57.575 111.262 56.9 111.876 55.625C112.489 54.35 112.873 52.4 112.873 49.925C112.873 47.45 112.566 45.575 111.876 44.3C111.262 43.025 110.111 42.425 108.577 42.425C107.042 42.425 105.968 43.025 105.278 44.3C104.587 45.575 104.204 47.45 104.204 49.925Z" fill="black"/>
<path d="M136 35H127V65H136V35Z" fill="black"/>
<path d="M136 25H127V32H136V25Z" fill="black"/>
<path d="M158.978 56.944C160.413 56.944 162.087 56.6429 164 55.9653V63.3436C162.565 63.9459 161.29 64.3224 160.014 64.6236C158.739 64.8494 157.225 65 155.551 65C152.043 65 149.572 64.1718 147.978 62.5154C146.464 60.8591 145.667 58.2992 145.667 54.9112V42.8649H142V35.3359H145.667V27.7317L156.188 26V35.1853H162.804V42.7143H156.188V54.083C156.188 55.9653 157.145 56.944 158.978 56.944Z" fill="black"/>
<path d="M181.207 56.8971C182.576 56.8971 184.174 56.5942 186 55.9126V63.334C184.63 63.9398 183.413 64.3184 182.196 64.6214C180.978 64.8485 179.533 65 177.935 65C174.587 65 172.228 64.167 170.707 62.501C169.261 60.835 168.5 58.2602 168.5 54.8524V42.7359H165V35.1631H168.5V27.5903L178.543 26V35.2388H184.859V42.8117H178.543V54.2466C178.467 55.9126 179.38 56.8971 181.207 56.8971Z" fill="black"/>
<path d="M213.266 38.4328C210.803 36.194 207.307 35 202.778 35C198.011 35 194.356 36.2687 191.814 38.9552C189.271 41.5672 188 45.2985 188 50.2239C188 54.9254 189.351 58.5821 192.132 61.194C194.912 63.7313 198.805 65 203.811 65C206.195 65 208.26 64.8507 210.008 64.5522C211.756 64.2537 213.425 63.7313 215.014 62.9104L213.425 56.4179C212.233 56.8657 211.121 57.2388 210.088 57.4627C208.578 57.7612 206.91 57.9851 205.082 57.9851C203.096 57.9851 201.507 57.5373 200.315 56.6418C199.123 55.7463 198.567 54.4776 198.488 52.8358H217V48.4328C216.921 43.9552 215.729 40.6716 213.266 38.4328ZM198.647 46.4179C198.805 44.8507 199.282 43.6567 200.077 42.9104C200.871 42.1642 201.904 41.791 203.175 41.791C204.526 41.791 205.559 42.2388 206.353 43.0597C207.148 43.8806 207.545 45 207.625 46.4179H198.647Z" fill="black"/>
<path d="M73.2658 38.4328C70.8027 36.194 67.3068 35 62.7781 35C58.011 35 54.3562 36.2687 51.8137 38.9552C49.2712 41.5672 48 45.2985 48 50.2239C48 54.9254 49.3507 58.5821 52.1315 61.194C54.9123 63.7313 58.8055 65 63.811 65C66.1945 65 68.2603 64.8507 70.0082 64.5522C71.7562 64.2537 73.4247 63.7313 75.0137 62.9104L73.4247 56.4179C72.2329 56.8657 71.1206 57.2388 70.0877 57.4627C68.5781 57.7612 66.9096 57.9851 65.0822 57.9851C63.0959 57.9851 61.5068 57.5373 60.3151 56.6418C59.1233 55.7463 58.5671 54.4776 58.4877 52.8358H77V48.4328C77 43.9552 75.7288 40.6716 73.2658 38.4328ZM58.6466 46.4179C58.8055 44.8507 59.2822 43.6567 60.0767 42.9104C60.8712 42.1642 61.9041 41.791 63.1753 41.791C64.526 41.791 65.5589 42.2388 66.3534 43.0597C67.1479 43.8806 67.5452 45 67.6247 46.4179H58.6466Z" fill="black"/>
</svg>
