<svg width="242" height="92" viewBox="0 0 242 92" fill="none" xmlns="http://www.w3.org/2000/svg">
<rect y="1" width="242" height="90" fill="white"/>
<path d="M141.647 25.9777L142.774 29.8198C142.774 29.8198 142.774 29.8198 142.774 29.8409V30.1154C142.687 30.4742 142.297 30.8965 141.647 31.3609V30.8965C141.799 30.7909 141.929 30.6853 142.016 30.5798L141.647 29.271V28.3843L142.232 30.3476C142.341 30.2209 142.384 30.0943 142.384 29.9887L141.669 27.5188V25.9777H141.647ZM141.366 25.0489L141.647 25.9777V27.5188L141.128 25.7666V24.6478C141.258 24.7533 141.323 24.8378 141.366 24.9644C141.366 24.9856 141.366 25.0278 141.366 25.0489ZM141.647 31.3398C141.496 31.4664 141.323 31.572 141.128 31.6775V31.2342C141.214 31.1709 141.279 31.1287 141.344 31.0864L141.128 30.3687V29.5032L141.561 30.9387C141.604 30.9176 141.626 30.8964 141.669 30.8753V31.3398H141.647ZM141.647 28.3843L141.128 26.6322V27.5188L141.647 29.2921V28.3843ZM141.128 31.6775C141.063 31.7198 140.998 31.762 140.933 31.8042V31.3398C140.998 31.2975 141.063 31.2553 141.128 31.2131V31.6775ZM140.933 24.5422C140.998 24.5845 141.063 24.6267 141.128 24.6478V25.7666L141.106 25.7033C141.063 25.7666 140.998 25.83 140.933 25.8933V25.26C140.954 25.2178 140.954 25.1756 140.954 25.1544L140.933 25.0911V24.5422ZM141.128 26.6322V27.5188L140.933 26.8644V25.9777L141.128 26.6322ZM141.128 29.5032V30.3898L140.933 29.7354V28.8487L141.128 29.5032ZM140.933 31.8253C140.759 31.9309 140.586 32.0153 140.413 32.1208V31.6564C140.478 31.6142 140.521 31.5931 140.586 31.5509L140.413 30.9598V30.0731L140.803 31.4242C140.846 31.382 140.889 31.3609 140.933 31.3398V31.8253ZM140.413 24.3734C140.608 24.4156 140.781 24.4789 140.933 24.5422V25.1122L140.889 25.0278H140.911C140.824 24.9011 140.673 24.8167 140.413 24.7533V24.3734ZM140.933 25.2811V25.9144H140.911L140.933 25.9777V26.8644L140.716 26.1255C140.629 26.21 140.521 26.2944 140.413 26.3788V25.9144C140.694 25.6611 140.868 25.45 140.933 25.2811ZM140.933 28.8487V29.7354L140.413 27.9621V27.0755L140.933 28.8487ZM140.413 32.1208C140.174 32.2475 139.915 32.3742 139.655 32.5219V32.0575C139.698 32.0364 139.763 31.9942 139.806 31.9731L139.655 31.4453V30.5587L140.023 31.8464C140.153 31.7831 140.283 31.7198 140.391 31.6353V32.1208H140.413ZM139.655 24.2678C139.936 24.2889 140.196 24.3311 140.413 24.3734V24.7322C140.218 24.6689 139.958 24.6478 139.655 24.6267V24.2678ZM140.413 25.8933V26.3577C140.348 26.3999 140.283 26.4422 140.239 26.4844L140.413 27.0755V27.9621L140.023 26.6322C139.893 26.7166 139.785 26.801 139.655 26.8644V26.4211C139.958 26.2522 140.218 26.0622 140.413 25.8933ZM140.413 30.0943L139.655 27.5188V28.4054L140.413 30.9809V30.0943ZM139.655 32.5219C139.395 32.6486 139.135 32.7753 138.875 32.9019V32.4375C138.94 32.4164 138.983 32.3742 139.026 32.3531L138.875 31.8464V30.9598L139.243 32.2264C139.373 32.1631 139.525 32.0786 139.655 32.0153V32.5219ZM138.875 24.2256C139.156 24.2256 139.416 24.2467 139.655 24.2678V24.6267C139.416 24.6056 139.156 24.6056 138.875 24.6056V24.2256ZM139.655 26.4422V26.8855C139.59 26.9277 139.546 26.9699 139.481 26.991L139.655 27.5399V28.4265L139.265 27.1388C139.135 27.2233 139.005 27.2866 138.853 27.371V26.9277C139.156 26.7166 139.416 26.5899 139.655 26.4422ZM139.655 30.5798L138.875 27.9199V28.8065L139.655 31.4875V30.5798ZM138.875 32.9019C138.615 33.0286 138.355 33.1553 138.095 33.2608V32.7964L138.225 32.733L138.095 32.2686V31.4031L138.463 32.6275C138.615 32.5642 138.745 32.5008 138.896 32.4375V32.9019H138.875ZM138.073 24.2467C138.355 24.2256 138.615 24.2256 138.853 24.2256V24.6056C138.615 24.6056 138.333 24.6267 138.073 24.6267V24.2467ZM138.875 26.8855V27.3288C138.831 27.3499 138.766 27.3921 138.723 27.4132L138.875 27.9199V28.8065L138.506 27.5399C138.376 27.6243 138.225 27.6877 138.073 27.7721V27.3077C138.355 27.1599 138.615 27.0121 138.875 26.8855ZM138.875 31.002L138.095 28.321V29.2076L138.875 31.8886V31.002ZM138.073 33.2819C137.813 33.4086 137.532 33.5141 137.272 33.6408V33.1764L137.402 33.113L137.272 32.6486V31.762L137.64 32.9864C137.792 32.923 137.943 32.8597 138.095 32.7964V33.2819H138.073ZM137.272 24.2889C137.553 24.2678 137.835 24.2467 138.073 24.2467V24.6267C137.813 24.6478 137.553 24.6689 137.272 24.69V24.2889ZM138.073 27.3077V27.7721C138.03 27.7932 137.965 27.8143 137.922 27.8355L138.073 28.321V29.2076L137.705 27.9621C137.553 28.0254 137.423 28.1099 137.272 28.1732V27.7088C137.553 27.561 137.813 27.4344 138.073 27.3077ZM138.073 31.4031L137.272 28.6588V29.5454L138.073 32.2897V31.4031ZM137.272 33.6408C137.185 33.683 137.077 33.7252 136.99 33.7675C136.817 33.8519 136.643 33.9152 136.47 33.9786V33.5141L136.6 33.4719L136.47 33.0286V32.142L136.838 33.3664C136.99 33.303 137.142 33.2397 137.293 33.1764V33.6408H137.272ZM136.449 24.3522C136.73 24.31 137.012 24.2889 137.272 24.2889V24.69C137.012 24.7111 136.752 24.7322 136.449 24.7745V24.3522ZM137.272 27.6877V28.1521L137.142 28.2154L137.272 28.6799V29.5665L136.925 28.3421C136.773 28.4054 136.622 28.4688 136.47 28.5532V28.0888C136.752 27.9199 137.012 27.8143 137.272 27.6877ZM137.272 31.7831L136.449 29.0387V29.9254L137.272 32.6697V31.7831ZM136.449 33.9786C136.189 34.1052 135.907 34.2108 135.647 34.3163V33.8519L135.777 33.7886L135.647 33.3452V32.4586L135.994 33.6619C136.145 33.5986 136.297 33.5352 136.449 33.4719V33.9786ZM135.647 24.4367C135.929 24.3945 136.21 24.3734 136.449 24.3522V24.7745C136.189 24.7956 135.907 24.8378 135.647 24.8589V24.4367ZM136.449 28.0677V28.5321L136.319 28.5954L136.449 29.0387V29.9254L136.102 28.701C135.95 28.7854 135.799 28.8487 135.647 28.9121V28.4477C135.929 28.2999 136.189 28.1732 136.449 28.0677ZM136.449 32.142L135.647 29.3554V30.242L136.449 33.0286V32.142ZM135.647 34.3163C135.387 34.4219 135.105 34.5274 134.824 34.633V34.1686L134.954 34.1052L134.824 33.683V32.7964L135.17 33.9997C135.322 33.9363 135.474 33.873 135.647 33.8097V34.3163ZM134.824 24.5422C135.105 24.5 135.387 24.4789 135.647 24.4367V24.8589C135.387 24.9011 135.105 24.9433 134.824 24.9644V24.5422ZM135.647 28.4265V28.891L135.517 28.9543L135.647 29.3765V30.2631L135.3 29.0598C135.149 29.1232 134.997 29.1865 134.824 29.2498V28.7854C135.105 28.6376 135.365 28.5321 135.647 28.4265ZM135.647 32.4797L134.824 29.6932V30.5798L135.647 33.3664V32.4797ZM134.824 34.633C134.542 34.7385 134.282 34.8441 134.001 34.9496V34.4852L134.131 34.443L134.001 34.0208V33.1341L134.347 34.3374C134.521 34.2741 134.672 34.2108 134.824 34.1686V34.633ZM133.979 24.6478C134.087 24.6267 134.174 24.6267 134.282 24.6056C134.456 24.5845 134.629 24.5634 134.824 24.5211V24.9644C134.672 24.9856 134.521 25.0067 134.347 25.0278C134.217 25.0489 134.109 25.07 133.979 25.0911V24.6478ZM134.824 28.7643V29.2287L134.694 29.271L134.824 29.6932V30.5798L134.477 29.3765C134.391 29.4187 134.304 29.4609 134.217 29.4821L134.001 29.5665V29.1021L134.044 29.081C134.304 28.9754 134.564 28.8699 134.824 28.7643ZM134.824 32.8175L134.001 30.0098V30.8965L134.824 33.7041V32.8175ZM133.979 34.9496C133.719 35.0552 133.437 35.1607 133.156 35.2663V34.8019L133.286 34.7596L133.156 34.3585V33.4719L133.502 34.6541C133.654 34.5908 133.806 34.5274 133.979 34.4852V34.9496ZM133.156 24.7956C133.437 24.7533 133.719 24.7111 133.979 24.6689V25.1122C133.719 25.1544 133.437 25.1967 133.156 25.2389V24.7956ZM133.979 29.1021V29.5665L133.849 29.6298L133.979 30.0309V30.9176L133.632 29.7143C133.481 29.7776 133.307 29.8409 133.156 29.9043V29.4398C133.437 29.3132 133.719 29.2076 133.979 29.1021ZM133.979 33.1553L133.156 30.3476V31.2342L133.979 34.0419V33.1553ZM133.156 35.2663C132.874 35.3718 132.593 35.4563 132.333 35.5618V35.0974L132.463 35.0552L132.333 34.6541V33.7675L132.679 34.9496C132.831 34.8863 133.004 34.823 133.156 34.7807V35.2663ZM132.333 24.9222C132.614 24.88 132.896 24.8167 133.156 24.7745V25.2178C132.874 25.26 132.593 25.3233 132.333 25.3655V24.9222ZM133.156 29.4187V29.8832L133.026 29.9465L133.156 30.3476V31.2342L132.809 30.052C132.658 30.1154 132.484 30.1787 132.333 30.242V29.7776C132.614 29.6298 132.874 29.5243 133.156 29.4187ZM133.156 33.4719L132.333 30.6431V31.5298L133.156 34.3585V33.4719ZM132.333 35.5618C132.051 35.6674 131.769 35.7518 131.488 35.8574V35.3929L131.596 35.3507L131.488 34.9707V34.0841L131.834 35.2663C132.008 35.203 132.159 35.1396 132.333 35.0974V35.5618ZM131.488 25.07C131.769 25.0067 132.051 24.9644 132.333 24.9222V25.3655C132.051 25.4289 131.769 25.4711 131.488 25.5133V25.07ZM132.333 29.7354V30.1998L132.203 30.242L132.333 30.6431V31.5298L131.986 30.3476C131.834 30.4109 131.661 30.4742 131.51 30.5165V30.052C131.769 29.9465 132.051 29.8409 132.333 29.7354ZM132.333 33.7886L131.488 30.9598V31.8464L132.333 34.6752V33.7886ZM131.488 35.8574C131.206 35.9629 130.925 36.0474 130.643 36.1529V35.6885L130.773 35.6463L130.643 35.2663V34.3797L130.99 35.5618C131.163 35.4985 131.315 35.4352 131.488 35.3929V35.8574ZM130.643 25.2389C130.925 25.1756 131.206 25.1333 131.488 25.0911V25.5344C131.206 25.5978 130.925 25.64 130.643 25.7033V25.2389ZM131.488 30.052V30.5165L131.358 30.5587L131.488 30.9598V31.8464L131.141 30.6642C130.99 30.7276 130.816 30.7909 130.643 30.8331V30.3476C130.838 30.2842 131.011 30.2209 131.185 30.1576C131.293 30.1154 131.401 30.0943 131.488 30.052ZM131.488 34.0841L130.643 31.2342V32.1208L131.488 34.9707V34.0841ZM130.643 36.1529C130.383 36.2374 130.08 36.3429 129.82 36.4274V35.9629L129.928 35.9207L129.82 35.5407V34.6541L130.166 35.8363C130.34 35.7729 130.491 35.7307 130.665 35.6674V36.1529H130.643ZM129.82 25.3867C130.101 25.3233 130.383 25.2811 130.643 25.2178V25.6611C130.383 25.7033 130.08 25.7666 129.82 25.83V25.3867ZM130.643 30.3476V30.812L130.535 30.8542L130.643 31.2342V32.1208L130.296 30.9387C130.123 31.002 129.971 31.0653 129.798 31.1076V30.6431C130.101 30.5587 130.383 30.4531 130.643 30.3476ZM130.643 34.3797L129.82 31.5298V32.4164L130.643 35.2663V34.3797ZM129.82 36.4274C129.538 36.5329 129.257 36.6173 128.975 36.7018V36.2585L129.083 36.2163L128.975 35.8363V34.9496L129.322 36.1318C129.473 36.0685 129.647 36.0263 129.82 35.9629V36.4274ZM128.975 25.5766C129.257 25.5133 129.538 25.4711 129.82 25.4078V25.8511C129.538 25.9144 129.257 25.9566 128.975 26.02V25.5766ZM129.82 30.6431V31.1076L129.712 31.1498L129.82 31.5298V32.4164L129.473 31.2342L128.975 31.4031V30.9387C129.257 30.8331 129.538 30.7487 129.82 30.6431ZM129.82 34.6752L128.975 31.8253V32.7119L129.82 35.5618V34.6752ZM128.975 36.7229C128.693 36.8073 128.412 36.9129 128.13 36.9973V36.5329L128.239 36.4907L128.13 36.1107V35.2241L128.477 36.4062C128.65 36.3429 128.802 36.3007 128.975 36.2374V36.7229ZM128.13 25.7455C128.412 25.6822 128.693 25.6189 128.975 25.5555V25.9989C128.693 26.0622 128.412 26.1044 128.13 26.1677V25.7455ZM128.975 30.9387V31.4031L128.867 31.4453L128.975 31.8253V32.7119L128.628 31.5298C128.455 31.5931 128.303 31.6353 128.13 31.6986V31.2342C128.412 31.1287 128.693 31.0442 128.975 30.9387ZM128.975 34.9496L128.13 32.0786V32.9653L128.975 35.8363V34.9496ZM128.13 36.9762C127.849 37.0607 127.567 37.1662 127.285 37.2507V36.7862L127.394 36.7651L127.285 36.3851V35.4985L127.632 36.6807C127.805 36.6173 127.957 36.5751 128.13 36.5118V36.9762ZM127.285 25.9355C127.567 25.8722 127.849 25.8089 128.13 25.7455V26.1888C127.849 26.2522 127.567 26.3155 127.285 26.3788V25.9355ZM128.13 31.2131V31.6775L128.022 31.7198L128.13 32.0997V32.9864L127.784 31.8042C127.61 31.8675 127.459 31.9097 127.285 31.9731V31.5086C127.567 31.4031 127.849 31.3187 128.13 31.2131ZM128.13 35.2452L127.285 32.3742V33.2608L128.13 36.1318V35.2452ZM127.285 37.2507C127.004 37.3351 126.722 37.4195 126.441 37.504V37.0607L126.549 37.0184L126.441 36.6385V35.7518L126.787 36.934C126.96 36.8707 127.112 36.8285 127.285 36.7651V37.2507ZM126.441 26.1255C126.722 26.0622 127.004 25.9989 127.285 25.9355V26.3788C127.004 26.4422 126.722 26.5055 126.441 26.5688V26.1255ZM127.285 31.5086V31.9731L127.177 32.0153L127.285 32.3953V33.2819L126.939 32.0997C126.765 32.1631 126.614 32.2053 126.441 32.2686V31.8042C126.722 31.6775 127.004 31.5931 127.285 31.5086ZM127.285 35.5196L126.441 32.6486V33.5352L127.285 36.4062V35.5196ZM126.441 37.5251C126.159 37.6095 125.877 37.694 125.596 37.7784V37.3351L125.704 37.2929L125.596 36.934V36.0474L125.942 37.2295C126.116 37.1662 126.267 37.124 126.441 37.0818V37.5251ZM125.596 26.3155C125.877 26.2522 126.159 26.1888 126.441 26.1255V26.5688C126.159 26.6322 125.877 26.6955 125.596 26.7588V26.3155ZM126.441 31.7831V32.2475L126.332 32.2897L126.441 32.6486V33.5352L126.094 32.3531C125.921 32.4164 125.769 32.4586 125.596 32.5219V32.0364C125.877 31.952 126.159 31.8675 126.441 31.7831ZM126.441 35.7729L125.596 32.9019V33.7886L126.441 36.6807V35.7729ZM125.596 37.7784C125.314 37.8629 125.032 37.9473 124.751 38.0317V37.5673L124.859 37.5251L124.751 37.1662V36.2796L125.097 37.4407C125.271 37.3773 125.444 37.3351 125.617 37.2929V37.7784H125.596ZM124.729 26.5266C125.011 26.4633 125.292 26.4 125.574 26.3155V26.7588C125.292 26.8222 125.011 26.8855 124.729 26.9699V26.5266ZM125.596 32.0364V32.5008L125.487 32.5431L125.596 32.9019V33.7886L125.249 32.6275C125.076 32.6697 124.903 32.733 124.729 32.7753V32.332C125.032 32.2264 125.314 32.142 125.596 32.0364ZM125.596 36.0474L124.751 33.1764V34.063L125.596 36.9551V36.0474ZM124.729 38.0317C124.448 38.1162 124.166 38.2006 123.863 38.2851V37.8417L123.971 37.7995L123.863 37.4407V36.554L124.209 37.7151C124.383 37.6729 124.556 37.6095 124.729 37.5673V38.0317ZM123.884 26.7166C124.166 26.6533 124.469 26.5688 124.751 26.5055V26.9488C124.469 27.0121 124.188 27.0755 123.884 27.1599V26.7166ZM124.729 32.3108V32.7542L124.621 32.7964L124.729 33.1553V34.0419L124.383 32.8808C124.209 32.923 124.058 32.9864 123.863 33.0286V32.5853C124.166 32.4797 124.469 32.3953 124.729 32.3108ZM124.729 36.3218L123.863 33.4086V34.2952L124.729 37.2084V36.3218ZM123.884 38.2851C123.603 38.3695 123.321 38.4539 123.04 38.5173V38.074L123.148 38.0529L123.04 37.694V36.8073L123.386 37.9684C123.559 37.9262 123.711 37.8629 123.884 37.8206V38.2851ZM123.04 26.9488C123.321 26.8644 123.603 26.801 123.884 26.7377V27.181C123.603 27.2444 123.321 27.3288 123.04 27.3921V26.9488ZM123.884 32.5853V33.0286L123.776 33.0708L123.884 33.4297V34.3163L123.538 33.1553C123.364 33.2186 123.213 33.2608 123.04 33.303V32.8597C123.321 32.733 123.603 32.6486 123.884 32.5853ZM123.884 36.554L123.04 33.6408V34.5274L123.884 37.4195V36.554ZM123.04 38.5173C122.758 38.6017 122.476 38.6862 122.173 38.7706V38.3273L122.281 38.2851L122.173 37.9262V37.0396L122.52 38.2006C122.693 38.1373 122.845 38.0951 123.04 38.0529V38.5173ZM122.173 27.1599C122.455 27.0755 122.736 27.0121 123.04 26.9488V27.3921C122.758 27.4555 122.476 27.5399 122.173 27.6032V27.1599ZM123.04 32.8175V33.2608L122.931 33.303L123.04 33.6619V34.5485L122.693 33.3875C122.52 33.4297 122.346 33.493 122.173 33.5352V33.0919C122.476 32.9864 122.758 32.9019 123.04 32.8175ZM123.04 36.8073L122.173 33.8941V34.7807L123.04 37.694V36.8073ZM122.173 38.7706L122.086 38.7917C121.826 38.8762 121.566 38.9395 121.328 39.0028V38.5595L121.437 38.5173L121.328 38.1584V37.2718L121.675 38.4328C121.783 38.3906 121.87 38.3695 121.978 38.3484H122L122.195 38.2851V38.7706H122.173ZM121.328 27.3921C121.61 27.3077 121.891 27.2444 122.173 27.1599V27.6032C121.891 27.6877 121.61 27.751 121.328 27.8355V27.3921ZM122.173 33.0708V33.5141L122.065 33.5563L122.173 33.9152V34.8019L121.826 33.6408L121.307 33.7886V33.3452C121.61 33.2397 121.891 33.1553 122.173 33.0708ZM122.173 37.0607L121.328 34.1474V35.0341L122.173 37.9473V37.0607ZM121.328 39.0028C121.047 39.0873 120.765 39.1506 120.483 39.235V38.7917L120.592 38.7706L120.483 38.4117V37.5251L120.83 38.6862C120.982 38.6228 121.155 38.5806 121.328 38.5384V39.0028ZM120.483 27.6243C120.765 27.5399 121.047 27.4766 121.328 27.3921V27.8355C121.047 27.9199 120.765 27.9832 120.483 28.0677V27.6243ZM121.328 33.3241V33.7675L121.22 33.8097L121.328 34.1474V35.0341L120.982 33.873C120.895 33.9152 120.787 33.9363 120.678 33.9574C120.613 33.9786 120.548 33.9997 120.483 34.0208V33.5775L120.57 33.5563C120.83 33.4719 121.068 33.4086 121.328 33.3241ZM121.328 37.2929L120.483 34.3797V35.2663L121.328 38.1795V37.2929ZM120.483 39.235C120.202 39.3195 119.899 39.3828 119.617 39.4672V39.0239L119.725 39.0028L119.617 38.665V37.7784L119.942 38.9395C120.115 38.8973 120.288 38.855 120.462 38.7917V39.235H120.483ZM119.617 27.8355C119.899 27.751 120.18 27.6877 120.483 27.6032V28.0466C120.202 28.131 119.899 28.1943 119.617 28.2788V27.8355ZM120.483 33.5563V33.9997L120.375 34.0419L120.483 34.3797V35.2663L120.137 34.1052C119.963 34.1474 119.79 34.2108 119.617 34.253V33.8097C119.899 33.7252 120.18 33.6408 120.483 33.5563ZM120.483 37.5462L119.617 34.633V35.5196L120.483 38.4328V37.5462ZM119.617 39.4672C119.335 39.5517 119.032 39.615 118.75 39.6995V39.2561L118.859 39.235L118.75 38.8973V38.0106L119.097 39.1717C119.27 39.1295 119.444 39.0873 119.617 39.0239V39.4672ZM118.75 28.0888L118.945 28.0466C119.162 27.9832 119.4 27.9199 119.617 27.8566V28.2999C119.422 28.3632 119.249 28.4054 119.054 28.4688H119.032C118.924 28.4899 118.837 28.5321 118.729 28.5532V28.0888H118.75ZM119.617 33.8097V34.253L119.509 34.2952L119.617 34.633V35.5196L119.27 34.3585C119.097 34.4008 118.924 34.443 118.75 34.4852V34.0419C119.054 33.9574 119.335 33.873 119.617 33.8097ZM119.617 37.7784L118.75 34.8441V35.7307L119.617 38.665V37.7784ZM118.75 39.6995C118.469 39.7839 118.166 39.8472 117.884 39.9106V39.4672L117.992 39.4461L117.884 39.1084V38.2217L118.209 39.3828C118.382 39.3406 118.555 39.2984 118.729 39.2561V39.6995H118.75ZM117.906 28.321C118.187 28.2365 118.469 28.1521 118.772 28.0677V28.5321C118.49 28.6165 118.187 28.701 117.906 28.7643V28.321ZM118.75 34.0208V34.4641L118.642 34.5063L118.75 34.8441V35.7307L118.404 34.5696C118.23 34.6119 118.057 34.6541 117.884 34.6963V34.253C118.187 34.1897 118.469 34.1052 118.75 34.0208ZM118.75 37.9895L117.884 35.0552V35.9418L118.75 38.8762V37.9895ZM117.906 39.9106C117.624 39.995 117.321 40.0583 117.039 40.1217V39.6783L117.147 39.6572L117.039 39.3195V38.4328L117.386 39.5939C117.559 39.5517 117.732 39.5095 117.906 39.4672V39.9106ZM117.039 28.5743C117.321 28.4899 117.624 28.4054 117.906 28.321V28.7643C117.624 28.8487 117.321 28.9332 117.039 29.0176V28.5743ZM117.906 34.2741V34.7174L117.797 34.7596L117.906 35.0974V35.984L117.559 34.823C117.386 34.8652 117.212 34.9074 117.039 34.9496V34.5063C117.321 34.4008 117.602 34.3374 117.906 34.2741ZM117.906 38.2217L117.039 35.2874V36.174L117.906 39.1084V38.2217ZM117.039 40.1217C116.757 40.2061 116.454 40.2694 116.173 40.3328V39.8894L116.281 39.8683L116.173 39.5306V38.6439L116.519 39.805C116.692 39.7628 116.866 39.7206 117.039 39.6783V40.1217ZM116.173 28.8276C116.454 28.7432 116.757 28.6588 117.039 28.5743V29.0176C116.757 29.1021 116.454 29.1865 116.173 29.271V28.8276ZM117.039 34.4852V34.9285L116.931 34.9496L117.039 35.2874V36.174L116.714 35.013C116.541 35.0552 116.368 35.0974 116.173 35.1396V34.6963C116.454 34.633 116.736 34.5485 117.039 34.4852ZM117.039 38.4328L116.173 35.4985V36.3851L117.039 39.3195V38.4328ZM116.173 40.3328C115.891 40.4172 115.588 40.4805 115.306 40.5439V40.1217L115.393 40.0794L115.306 39.7628V38.8762L115.631 40.0372C115.804 39.995 115.978 39.9528 116.151 39.9106V40.3328H116.173ZM115.306 29.081C115.588 28.9965 115.869 28.9121 116.173 28.8276V29.2921C115.891 29.3765 115.588 29.4609 115.306 29.5454V29.081ZM116.173 34.6963V35.1396L116.086 35.1607L116.173 35.4985V36.3851L115.848 35.2241C115.674 35.2663 115.501 35.3085 115.328 35.3507V34.9074C115.588 34.8441 115.869 34.7808 116.173 34.6963ZM116.173 38.6439L115.306 35.7096V36.5962L116.173 39.5306V38.6439ZM115.306 40.5439C115.003 40.6283 114.721 40.6916 114.44 40.755V40.3117L114.548 40.2905L114.44 39.9528V39.0661L114.765 40.2272C114.938 40.185 115.111 40.1428 115.306 40.1006V40.5439ZM114.44 29.3554C114.721 29.271 115.003 29.1865 115.306 29.081V29.5454C115.003 29.6298 114.721 29.7143 114.44 29.7987V29.3554ZM115.306 34.9074V35.3507L115.198 35.3718L115.306 35.7096V36.5962L114.959 35.4352C114.786 35.4774 114.613 35.5196 114.44 35.5618V35.1185C114.743 35.0552 115.003 34.9919 115.306 34.9074ZM115.306 38.855L114.44 35.9207V36.8073L115.306 39.7628V38.855ZM114.44 40.7339C114.136 40.7972 113.855 40.8605 113.573 40.9239V40.4805L113.66 40.4594L113.573 40.1428V39.2561L113.898 40.4172L114.44 40.2905V40.7339ZM113.573 29.6298C113.855 29.5454 114.158 29.4398 114.44 29.3554V29.7987C114.158 29.9043 113.855 29.9887 113.573 30.0731V29.6298ZM114.44 35.1185V35.5618L114.331 35.5829L114.44 35.9207V36.8073L114.093 35.6674C113.92 35.7096 113.746 35.7518 113.573 35.794V35.3507C113.855 35.2663 114.158 35.203 114.44 35.1185ZM114.44 39.0661L113.573 36.1107V36.9973L114.44 39.9528V39.0661ZM113.573 40.945C113.27 41.0083 112.988 41.0716 112.707 41.135V40.6916H112.793L112.707 40.375V39.4884L113.032 40.6494C113.205 40.6072 113.378 40.565 113.573 40.5228V40.945ZM112.707 29.9043C112.988 29.7987 113.27 29.7143 113.573 29.6298V30.0943C113.27 30.1787 112.988 30.2843 112.707 30.3687V29.9043ZM113.573 35.3296V35.7729L113.465 35.794L113.573 36.1107V36.9973L113.226 35.8574C113.053 35.8996 112.88 35.9418 112.707 35.984V35.5407C112.988 35.4774 113.27 35.393 113.573 35.3296ZM113.573 39.2561L112.707 36.3007V37.1873L113.573 40.1428V39.2561ZM112.707 41.1138C112.403 41.1772 112.122 41.2405 111.818 41.3038V40.8605H111.927L111.818 40.5439V39.6572L112.165 40.7972C112.338 40.755 112.512 40.7128 112.707 40.6705V41.1138ZM111.84 30.1998C112.122 30.0943 112.425 30.0098 112.728 29.9254V30.3687C112.425 30.4742 112.143 30.5587 111.84 30.6642V30.1998ZM112.707 35.5407V35.984L112.598 36.0051L112.707 36.3218V37.2084L112.36 36.0685C112.187 36.1107 112.013 36.1529 111.818 36.1951V35.7518C112.122 35.6674 112.403 35.6041 112.707 35.5407ZM112.707 39.4461L111.818 36.4907V37.3773L112.707 40.3328V39.4461ZM111.84 41.3038C111.558 41.3672 111.255 41.4305 110.974 41.4727V41.0294L111.06 41.0083L110.974 40.6916V39.805L111.299 40.945C111.472 40.9027 111.645 40.8816 111.84 40.8394V41.3038ZM110.974 30.4954C111.255 30.3898 111.558 30.3054 111.84 30.1998V30.6642C111.558 30.7698 111.255 30.8542 110.974 30.9387V30.4954ZM111.84 35.7096V36.1529L111.753 36.174L111.84 36.4907V37.3773L111.515 36.2374C111.342 36.2796 111.169 36.3218 110.974 36.3429V35.9207C111.255 35.8574 111.537 35.7729 111.84 35.7096ZM111.84 39.6572L110.974 36.7018V37.5884L111.84 40.5439V39.6572ZM110.974 41.4727C110.67 41.5361 110.389 41.5783 110.085 41.6416V41.1983H110.194L110.085 40.8816V39.995L110.432 41.135C110.605 41.0927 110.779 41.0716 110.974 41.0294V41.4727ZM110.085 30.7698C110.367 30.6642 110.67 30.5798 110.974 30.4742V30.9176C110.67 31.0231 110.389 31.1287 110.085 31.2131V30.7698ZM110.974 35.9207V36.3429L110.865 36.364L110.974 36.6807V37.5673L110.649 36.4274C110.454 36.4696 110.28 36.4907 110.107 36.5329V36.0896C110.367 36.0263 110.67 35.9629 110.974 35.9207ZM110.974 39.8261L110.085 36.8496V37.7362L110.974 40.7128V39.8261ZM110.085 41.6416C109.804 41.7049 109.501 41.7683 109.219 41.8105V41.3883L109.306 41.3672L109.219 41.0505V40.1639L109.544 41.3038C109.717 41.2616 109.89 41.2405 110.085 41.1983V41.6416ZM109.219 31.0864C109.501 30.9809 109.804 30.8965 110.085 30.7909V31.2553C109.804 31.3609 109.501 31.4664 109.219 31.5509V31.0864ZM110.085 36.0896V36.5329L109.999 36.554L110.085 36.8707V37.7573L109.761 36.6173C109.587 36.6596 109.414 36.7018 109.219 36.7229V36.2585C109.501 36.1951 109.804 36.1529 110.085 36.0896ZM110.085 39.995L109.219 37.0184V37.9051L110.085 40.8816V39.995ZM109.219 41.8105C108.916 41.8738 108.634 41.916 108.331 41.9583V41.5361H108.417L108.331 41.2194V40.3328L108.656 41.4727C108.829 41.4305 109.002 41.4094 109.197 41.3672V41.8105H109.219ZM108.331 31.4031C108.612 31.2975 108.916 31.192 109.219 31.0864V31.5509C108.916 31.6564 108.634 31.762 108.331 31.8675V31.4031ZM109.219 36.2585V36.7018L109.132 36.7229L109.219 37.0396V37.9262L108.872 36.7862C108.699 36.8073 108.526 36.8496 108.331 36.8918V36.4696C108.634 36.3851 108.916 36.3218 109.219 36.2585ZM109.219 40.1639L108.331 37.1873V38.074L109.219 41.0505V40.1639ZM108.331 41.9583C108.028 42.0216 107.746 42.0638 107.443 42.106V41.6838L107.529 41.6627L107.443 41.3672V40.4805L107.768 41.6205C107.941 41.5994 108.136 41.5572 108.309 41.5361V41.9583H108.331ZM107.464 31.7198C107.746 31.6142 108.049 31.5086 108.352 31.4031V31.8675C108.049 31.9731 107.768 32.0786 107.464 32.1842V31.7198ZM108.331 36.4274V36.8496L108.244 36.8707L108.331 37.1662V38.0529L108.006 36.9129C107.811 36.9551 107.638 36.9762 107.464 37.0184V36.5751C107.746 36.5329 108.049 36.4907 108.331 36.4274ZM108.331 40.3117L107.443 37.3351V38.2217L108.331 41.1983V40.3117ZM107.464 42.106C107.226 42.1483 106.988 42.1905 106.749 42.2116L106.576 42.2538V41.8105L106.663 41.7894L106.576 41.4938V40.6072L106.901 41.7472C107.074 41.726 107.269 41.6838 107.443 41.6627V42.106H107.464ZM106.576 32.0575C106.858 31.9309 107.161 31.8253 107.464 31.7198V32.1842C107.183 32.2897 106.901 32.3953 106.619 32.5008L106.576 32.5219V32.0575ZM107.464 36.5751V37.0184L107.378 37.0396L107.464 37.3351V38.2217L107.139 37.0818C106.944 37.124 106.771 37.1451 106.598 37.1662V36.744C106.814 36.7018 107.053 36.6596 107.269 36.6385L107.464 36.5751ZM107.464 40.4805L106.576 37.4829V38.3695L107.464 41.3672V40.4805ZM106.576 42.2327C106.273 42.2749 105.97 42.3171 105.688 42.3382V41.916L105.775 41.8949L105.688 41.5994V40.7128L106.013 41.8527C106.186 41.8105 106.36 41.7894 106.554 41.7683V42.2327H106.576ZM105.71 32.3953C105.948 32.2897 106.208 32.2053 106.468 32.0997L106.576 32.0575V32.5219C106.273 32.6486 105.991 32.7542 105.688 32.8597V32.3953H105.71ZM106.576 36.744V37.1662L106.49 37.1873L106.576 37.4829V38.3695L106.251 37.2295C106.056 37.2718 105.883 37.2929 105.71 37.314V36.8707C105.991 36.8285 106.295 36.7862 106.576 36.744ZM106.576 40.6072L105.688 37.6095V38.4962L106.576 41.4938V40.6072ZM105.71 42.3382C105.406 42.3805 105.103 42.4227 104.822 42.4438V42.0216H104.908L104.822 41.726V40.8394L105.146 41.9794C105.32 41.9583 105.515 41.9372 105.71 41.916V42.3382ZM104.822 32.7542C105.103 32.6275 105.406 32.5219 105.71 32.3953V32.8597C105.406 32.9864 105.103 33.0919 104.822 33.2186V32.7542ZM105.71 36.8707V37.314H105.623L105.71 37.6095V38.4962L105.385 37.3562C105.19 37.3773 105.016 37.4195 104.822 37.4407V36.9973C105.103 36.9551 105.406 36.9129 105.71 36.8707ZM105.71 40.7339L104.822 37.7362V38.6228L105.71 41.6205V40.7339ZM104.822 42.4649C104.518 42.5071 104.215 42.5282 103.933 42.5494V42.1271L104.02 42.106L103.933 41.8316V40.945L104.258 42.0849C104.432 42.0638 104.605 42.0427 104.8 42.0216V42.4649H104.822ZM103.933 33.113C103.998 33.0919 104.042 33.0708 104.107 33.0286C104.323 32.923 104.583 32.8386 104.8 32.733V33.1975C104.627 33.2819 104.453 33.3452 104.258 33.4297C104.15 33.4719 104.02 33.5352 103.912 33.5775V33.113H103.933ZM104.822 36.9973V37.4407L104.735 37.4618L104.822 37.7573V38.6439L104.497 37.504C104.432 37.5251 104.367 37.5251 104.323 37.5251C104.193 37.5462 104.085 37.5673 103.955 37.5673V37.1451C104.063 37.124 104.15 37.124 104.258 37.1029C104.432 37.0607 104.627 37.0184 104.822 36.9973ZM104.822 40.8605L103.933 37.8417V38.7284L104.822 41.726V40.8605ZM103.933 42.5282C103.63 42.5493 103.327 42.5705 103.045 42.5916V42.1905L103.132 42.1694L103.045 41.8949V41.0083L103.37 42.1483C103.543 42.1483 103.738 42.106 103.933 42.106V42.5282ZM103.045 33.5141C103.327 33.3875 103.63 33.2608 103.933 33.1341V33.5986C103.63 33.7463 103.327 33.873 103.045 33.9786V33.5141ZM103.933 37.124V37.5462L103.847 37.5673L103.933 37.8417V38.7284L103.608 37.5884C103.413 37.6095 103.24 37.6306 103.045 37.6518V37.2084C103.327 37.1873 103.63 37.1662 103.933 37.124ZM103.933 40.945L103.045 37.9262V38.8128L103.933 41.8316V40.945ZM103.045 42.5916C102.72 42.6127 102.439 42.6127 102.157 42.6127V42.2327H102.244L102.157 41.9583V41.0716L102.482 42.2116C102.655 42.2116 102.85 42.2116 103.045 42.1905V42.5916ZM102.157 33.9152C102.439 33.7886 102.742 33.6408 103.045 33.493V33.9574C102.742 34.1052 102.439 34.2319 102.157 34.3797V33.9152ZM103.045 37.2084V37.6518H102.959L103.045 37.9262V38.8128L102.72 37.6729C102.525 37.694 102.352 37.7151 102.157 37.7151V37.2929C102.439 37.2718 102.742 37.2507 103.045 37.2084ZM103.045 41.0294L102.157 38.0106V38.8973L103.045 41.916V41.0294ZM102.157 42.5916C101.832 42.5916 101.529 42.5705 101.269 42.5494V42.1905C101.291 42.1905 101.334 42.2116 101.356 42.2116L101.269 41.9371V41.0505L101.615 42.2116C101.789 42.2116 101.962 42.2116 102.157 42.2116V42.5916ZM101.269 34.3585C101.55 34.2108 101.854 34.063 102.157 33.9152V34.3797C101.854 34.5274 101.55 34.6752 101.269 34.823V34.3585ZM102.157 37.2929V37.7151L102.07 37.7362L102.157 38.0106V38.8973L101.832 37.7573H101.81C101.615 37.7573 101.442 37.7784 101.269 37.7784V37.3562C101.442 37.3562 101.594 37.3562 101.789 37.3351C101.897 37.314 102.027 37.2929 102.157 37.2929ZM102.157 41.0716L101.269 38.0317V38.9184L102.157 41.9583V41.0716ZM101.269 42.5494C100.922 42.5071 100.619 42.4649 100.381 42.3805V42.0005C100.402 42.0005 100.424 42.0216 100.446 42.0216L100.381 41.8105V40.9239L100.727 42.0849C100.879 42.1271 101.052 42.1483 101.269 42.1694V42.5494ZM100.402 34.8441C100.662 34.6752 100.966 34.5274 101.291 34.3585V34.823C100.966 34.9919 100.684 35.1396 100.402 35.3085V34.8441ZM101.269 37.3351V37.7573H101.182L101.269 38.0317V38.9184L100.944 37.7784C100.749 37.7784 100.576 37.7784 100.402 37.7573V37.3351C100.662 37.3562 100.944 37.3562 101.269 37.3351ZM101.269 41.0505L100.381 38.0529V38.9395L101.269 41.9371V41.0505ZM100.402 42.3805C100.012 42.2538 99.7525 42.0849 99.6875 41.8527H99.7092L98.3011 37.1029C98.3011 37.0607 98.2795 37.0396 98.2578 37.0184V36.9973V36.7229C98.3878 36.2163 99.146 35.5829 100.402 34.8441V35.3085C99.2759 35.9418 98.6477 36.4696 98.6694 36.8285L98.7127 36.9551C98.8644 37.1873 99.4492 37.314 100.381 37.3351V37.7573H100.294L100.381 38.0529V38.9395L100.034 37.7573C99.8175 37.7362 99.6009 37.7151 99.4276 37.694L100.402 40.945V41.8316L99.1676 37.6306C99.0593 37.6095 98.9727 37.5673 98.886 37.5462L100.142 41.8105C100.186 41.8949 100.272 41.9583 100.402 42.0005V42.3805Z" fill="#03599E"/>
<path d="M111.984 34.5871C111.941 33.7562 112.938 33.2698 114.146 32.9252C116.647 32.1956 119.191 31.466 121.756 30.7161L130.194 28.2436C129.918 28.0004 130.088 28.203 129.833 27.9801C128.583 28.0004 126.971 27.7369 126.759 27.1289L126.081 27.1694C126.251 27.9801 125.975 27.9193 125.17 28.203C123.24 28.8921 121.269 29.338 119.382 29.9055C117.474 30.4527 115.587 31.0201 113.743 31.5673C112.683 31.8713 111.856 31.9321 111.602 31.2633L110.839 31.4863L111.114 34.8708C111.369 34.7695 111.687 34.6682 111.984 34.5871Z" fill="#03599E"/>
<path fill-rule="evenodd" clip-rule="evenodd" d="M129.242 37.8452C129.657 38.0523 130.12 38.5701 130.169 39.1294C130.193 39.1708 130.193 39.1915 130.193 39.2122V39.3365C130.169 39.9164 129.827 40.5585 129.437 40.6621C129.364 40.6828 129.315 40.6828 129.242 40.6621V39.1087C129.266 39.1087 129.291 39.1087 129.315 39.1087C129.437 39.0879 129.51 38.9222 129.462 38.7358C129.413 38.5908 129.34 38.4873 129.242 38.4458V37.8452ZM129.047 37.783C129.12 37.783 129.193 37.8245 129.242 37.8452V38.4251C129.218 38.4044 129.193 38.4044 129.169 38.4044C129.047 38.4251 128.974 38.5908 129.022 38.7772C129.071 38.9222 129.144 39.0465 129.242 39.0672V40.6207C128.827 40.5378 128.388 39.9579 128.266 39.2744C128.193 38.5287 128.608 37.6795 129.047 37.783Z" fill="#03599E"/>
<path d="M114.706 59.5707C114.706 59.4613 114.684 59.3739 114.684 59.2864C114.663 59.1334 114.532 59.0459 114.38 59.0678C114.228 59.0896 114.141 59.2208 114.163 59.3739C114.185 59.4613 114.185 59.5269 114.185 59.5925C114.206 60.1391 114.011 60.7076 113.729 61.1012C113.468 61.4728 113.186 61.7352 113.077 61.8227C112.36 62.4349 111.405 62.8503 110.449 63.0033C110.297 63.0252 110.124 63.0471 109.972 63.0471C109.385 63.0908 108.039 62.9377 106.888 62.8284C106.28 62.7628 105.715 62.7191 105.367 62.6972C105.085 62.6754 104.846 62.7191 104.651 62.8066C104.455 62.894 104.325 63.0252 104.216 63.222C104.13 63.3969 104.064 63.5718 104.064 63.8123C104.064 63.8342 104.064 63.856 104.064 63.8779V63.9872C104.086 64.5338 104.282 65.1898 104.586 65.8676C104.651 65.9987 104.716 66.1299 104.781 66.2611C104.846 66.3923 104.911 66.5235 104.998 66.6547C105.389 67.3325 105.845 67.9665 106.258 68.4038C106.41 68.5569 106.562 68.7099 106.757 68.863C106.931 69.016 107.127 69.1472 107.344 69.3002C108.386 69.9999 109.711 70.5684 110.645 70.6558C111.557 70.7214 112.187 70.634 112.578 70.4372C112.882 70.2841 113.077 70.0655 113.142 69.8031C113.229 69.5626 113.207 69.2784 113.099 69.016C112.947 68.5787 112.556 68.0977 112.078 67.726C110.254 66.283 108.212 65.0804 105.693 63.6155C105.541 63.5281 105.389 63.4406 105.215 63.3532C105.085 63.2876 104.933 63.3094 104.868 63.4625C104.781 63.5937 104.825 63.7467 104.955 63.8123C105.107 63.9216 105.259 64.0091 105.433 64.0966C107.93 65.5615 109.95 66.764 111.731 68.1633C112.143 68.4913 112.447 68.863 112.578 69.2128C112.643 69.3658 112.665 69.5189 112.621 69.6501C112.578 69.7813 112.491 69.8687 112.317 69.9562C111.991 70.1092 111.448 70.1967 110.645 70.1311C109.82 70.0655 108.603 69.5407 107.604 68.863C107.409 68.7318 107.235 68.6006 107.061 68.4694C106.909 68.3382 106.757 68.207 106.605 68.054C106.214 67.6604 105.802 67.0701 105.433 66.436C105.367 66.3048 105.302 66.1955 105.237 66.0643C105.172 65.9331 105.107 65.8238 105.042 65.6926V65.6708C104.738 64.993 104.542 64.3371 104.564 63.8779C104.564 63.7249 104.607 63.6155 104.651 63.5281C104.694 63.4406 104.759 63.3969 104.846 63.3532C104.955 63.2876 105.107 63.2657 105.302 63.2876C105.65 63.3094 106.214 63.3532 106.801 63.4188C107.974 63.5281 109.342 63.6811 109.972 63.6374C110.145 63.6155 110.319 63.5937 110.493 63.5718C111.535 63.4188 112.621 62.9596 113.381 62.26C113.468 62.1944 113.598 62.0413 113.989 61.6259C114.402 61.1886 114.749 60.3359 114.706 59.5707Z" fill="#03599E"/>
<path d="M142.334 33.9099C142.44 34.0157 142.61 34.0157 142.695 33.8887C142.801 33.7828 142.801 33.6346 142.695 33.5288C141.018 31.9197 135.116 33.9099 131.295 35.6248C130.573 35.9424 129.915 36.2599 129.363 36.5563C129.215 36.641 129.066 36.7257 128.918 36.7892C128.578 36.9798 128.323 37.128 128.153 37.255C128.111 37.2762 128.09 37.3185 128.068 37.3397C127.665 37.4244 127.283 37.5091 126.88 37.6361C126.115 37.8901 125.372 38.2077 124.735 38.5676C124.566 38.6735 124.396 38.7794 124.226 38.864C123.865 38.3771 123.568 37.8901 123.419 37.4032C123.25 36.8527 123.313 36.3234 123.738 35.8365C123.844 35.7306 123.823 35.5613 123.738 35.4766C123.632 35.3707 123.462 35.3919 123.377 35.4977C122.782 36.1329 122.719 36.8527 122.952 37.5726C123.122 38.123 123.441 38.6523 123.844 39.1604C123.016 39.7532 122.4 40.4307 122.061 41.0871C121.912 41.3623 121.827 41.6375 121.785 41.8916C121.742 42.1668 121.764 42.4421 121.848 42.6961C121.997 43.2254 122.422 43.6488 122.995 43.9664C123.101 44.0299 123.228 44.0934 123.334 44.1358C123.441 44.1781 123.568 44.2416 123.695 44.284C124.035 44.3898 124.396 44.4534 124.757 44.4957C125.521 44.6016 126.37 44.5592 127.198 44.3475C127.198 44.3687 127.177 44.3898 127.177 44.411C127.156 44.4957 127.134 44.5804 127.113 44.6862C127.007 45.1732 126.795 45.7025 126.476 46.2106H126.455C126.413 46.2741 126.37 46.3376 126.306 46.4012C126.243 46.4858 126.179 46.5494 126.094 46.6129C125.754 46.9516 125.245 47.3327 124.735 47.5656C124.672 47.6079 124.608 47.6291 124.544 47.6503C124.162 47.3962 123.738 47.1422 123.25 46.9304C122.613 46.634 121.955 46.4435 121.318 46.2953C120.829 46.1894 120.362 46.1259 119.895 46.1259C118.834 46.0836 117.815 46.2741 116.902 46.6764C115.586 47.2692 114.503 48.3278 113.824 49.831C113.591 50.3391 113.421 50.8895 113.272 51.5247C112.975 52.8797 112.805 54.1923 112.784 55.4203C112.784 55.6532 112.763 55.9072 112.784 56.1189C112.784 56.3518 112.784 56.5847 112.805 56.7964C112.89 58.3208 113.463 60.1416 113.803 60.692C114.142 61.2425 114.27 61.3907 114.397 61.5812C114.525 61.7506 114.567 61.7506 114.631 61.8565C114.822 62.047 115.013 62.1952 115.225 62.3434C116.456 63.1903 118.133 63.1056 119.895 62.2375C120.638 61.8776 121.403 61.3483 122.146 60.692C122.591 60.2898 123.865 58.9348 124.268 58.4055C124.417 58.2149 124.566 58.0032 124.714 57.7915C124.799 57.6856 124.863 57.601 124.927 57.4951C125.457 56.7329 125.882 56.0131 126.2 55.2932C126.922 53.7265 127.156 52.2657 126.88 50.9742C126.646 49.8521 126.03 48.8571 125.011 48.0314C125.563 47.7773 126.073 47.375 126.455 47.0151C126.54 46.9304 126.625 46.8458 126.689 46.7611C126.773 46.6764 126.837 46.6129 126.88 46.5282C127.24 45.9565 127.474 45.3637 127.601 44.8133C127.623 44.7074 127.644 44.6227 127.665 44.5169C127.686 44.411 127.707 44.3263 127.707 44.2416C127.814 44.1993 127.92 44.157 128.026 44.1146C128.259 44.0088 128.514 43.9029 128.748 43.7759C128.811 43.7335 128.854 43.7124 128.918 43.6912C130.786 42.6538 132.441 41.3835 133.248 40.3037C133.418 40.092 133.545 39.8591 133.63 39.6474C133.736 39.4145 133.8 39.2028 133.8 39.0122C133.821 38.9064 133.8 38.8005 133.758 38.7158C133.63 38.2924 133.163 37.9325 132.484 37.6784C131.932 37.4667 131.21 37.3185 130.404 37.2762C130.828 37.128 131.316 36.9798 131.847 36.8316C135.095 35.8577 140.02 34.7144 142.037 35.7306C142.037 35.7306 142.037 35.773 142.037 35.8153C142.037 35.8577 142.037 35.9 142.037 35.9424C142.015 35.9847 141.994 36.0059 141.973 36.027C141.931 36.0694 141.846 36.0906 141.74 36.0694C141.591 36.027 141.464 36.1329 141.442 36.2599C141.4 36.4081 141.506 36.5352 141.633 36.5563C141.931 36.6198 142.185 36.5352 142.334 36.4081C142.44 36.3234 142.483 36.2176 142.525 36.1117C142.567 36.0059 142.567 35.9 142.567 35.7942C142.567 35.5613 142.44 35.3495 142.27 35.2649C140.105 34.1851 135.031 35.3495 131.698 36.3446C131.083 36.514 130.552 36.6834 130.106 36.8527C130.51 36.641 130.998 36.4081 131.507 36.1964C135.201 34.4392 140.848 32.4702 142.334 33.9099ZM126.391 51.0166C126.646 52.181 126.413 53.536 125.754 55.018C125.5 55.5896 125.16 56.1825 124.757 56.8176C124.693 56.9235 124.608 57.0293 124.544 57.1352C124.332 57.4316 124.141 57.7068 123.929 57.982C123.547 58.4902 122.273 59.8452 121.848 60.2474C121.212 60.819 120.553 61.2637 119.938 61.6024C118.261 62.5128 116.711 62.6186 115.565 61.8565C115.374 61.7294 115.225 61.6024 115.055 61.433C114.949 61.3272 114.652 61.0731 114.206 60.2051C113.76 59.3582 113.463 58.0879 113.378 56.7117C113.357 56.5 113.357 56.2671 113.336 56.0554C113.336 55.8437 113.336 55.6108 113.357 55.3779C113.399 54.1923 113.548 52.9008 113.845 51.567C113.973 50.9954 114.142 50.4661 114.355 49.9792C114.97 48.603 115.968 47.6291 117.178 47.0786C118.006 46.6976 118.961 46.5282 119.938 46.5705C120.384 46.5705 120.808 46.634 121.254 46.7399C121.848 46.8669 122.464 47.0575 123.08 47.3539C123.547 47.5656 123.971 47.7985 124.332 48.0314C124.481 48.1372 124.629 48.2643 124.778 48.3701C125.648 49.1323 126.179 50.0215 126.391 51.0166ZM127.177 43.797C126.349 44.0088 125.5 44.0511 124.757 43.9664C124.438 43.9241 124.12 43.8606 123.844 43.7759H123.823C123.717 43.7335 123.61 43.6912 123.504 43.6488C123.398 43.6065 123.292 43.543 123.207 43.5006C122.74 43.2466 122.422 42.929 122.315 42.5479C122.252 42.3574 122.252 42.1668 122.273 41.9551C122.315 41.7434 122.379 41.5105 122.485 41.2988C122.782 40.706 123.377 40.092 124.12 39.5415C124.311 39.7744 124.523 39.965 124.735 40.1555C124.948 40.3249 125.16 40.4943 125.372 40.6636C126.328 41.4046 127.262 42.1668 127.219 43.7547C127.219 43.7759 127.198 43.797 127.177 43.797ZM130.149 37.6996C130.998 37.7208 131.762 37.869 132.335 38.0807C132.866 38.2924 133.206 38.5465 133.291 38.8005C133.291 38.8429 133.312 38.8852 133.312 38.9276C133.291 39.0758 133.269 39.2028 133.184 39.3722C133.1 39.5415 132.993 39.7321 132.845 39.9438C132.123 40.9177 130.637 42.061 128.939 43.0349C128.79 43.1195 128.663 43.1831 128.514 43.2677C128.302 43.3948 128.09 43.4795 127.856 43.5853C127.814 43.5853 127.792 43.6065 127.75 43.6277C127.75 41.9128 126.71 41.1082 125.691 40.3037C125.372 40.0497 125.033 39.7744 124.735 39.478C124.672 39.4145 124.608 39.351 124.566 39.2875C124.629 39.2451 124.693 39.224 124.735 39.1816C125.415 38.7794 126.179 38.4406 127.049 38.1654C127.665 37.9537 128.323 37.8478 128.939 37.7843C129.363 37.6996 129.767 37.6996 130.149 37.6996Z" fill="#03599E"/>
<path d="M123.551 58.1983C122.809 57.6918 121.933 57.3234 121.168 57.1392C121.011 57.0932 120.876 57.2083 120.831 57.3464C120.786 57.5076 120.898 57.6457 121.033 57.6918C121.73 57.8759 122.517 58.1983 123.192 58.6587C123.416 58.8199 123.461 58.8429 123.641 58.981C123.799 59.0961 123.933 59.2343 124.046 59.3494C124.248 59.5566 124.428 59.7638 124.563 59.994C124.653 60.1322 124.72 60.2703 124.788 60.4084C124.923 60.7768 124.968 61.1912 124.878 61.6056C124.81 61.8358 124.72 62.0661 124.585 62.3193C124.451 62.5495 124.271 62.8028 124.046 63.033C124.046 63.056 124.046 63.056 124.046 63.056C123.799 63.3093 123.506 63.5855 123.192 63.8618C121.977 64.9669 120.516 66.2792 120.516 68.0519C120.516 68.0519 120.516 68.098 120.516 68.121C120.561 68.7656 121.011 69.18 121.685 69.4103C122.292 69.6175 123.079 69.7096 123.889 69.7096C124.113 69.7096 124.361 69.7096 124.608 69.6865C124.99 69.6635 125.372 69.6175 125.755 69.5714C126.137 69.5023 126.519 69.4333 126.901 69.3412C127.621 69.18 128.34 68.9498 129.037 68.6505C130.229 68.144 131.353 67.4533 132.297 66.5555C132.747 66.141 132.972 65.7266 133.061 65.3583C133.151 64.9669 133.061 64.5985 132.882 64.2992C132.702 64.023 132.409 63.7697 132.072 63.5855C131.465 63.2632 130.678 63.1021 129.936 63.1942C129.644 63.2402 129.352 63.2862 129.037 63.3553C128.97 63.3553 128.925 63.4014 128.88 63.4014C128.52 63.4934 128.138 63.6316 127.733 63.7697C126.721 64.1611 125.642 64.7597 124.585 65.4734C123.551 66.2101 122.54 67.085 121.64 68.098C121.55 68.2131 121.55 68.3742 121.663 68.4894C121.775 68.6045 121.955 68.5814 122.045 68.4663C122.809 67.5915 123.686 66.8087 124.585 66.1411C125.687 65.3353 126.856 64.6906 127.913 64.2532C128.273 64.1151 128.655 63.9999 128.992 63.9079H129.015C129.352 63.8158 129.667 63.7697 129.981 63.7237C130.611 63.6546 131.308 63.7927 131.802 64.046C132.05 64.1841 132.275 64.3683 132.387 64.5755C132.499 64.7597 132.544 64.9669 132.499 65.1971C132.432 65.4734 132.252 65.7957 131.892 66.118C131.061 66.9008 130.071 67.5454 129.015 68.0289C128.295 68.3512 127.531 68.6045 126.766 68.7886C126.384 68.8807 126.024 68.9498 125.642 68.9959C125.282 69.0419 124.923 69.0879 124.563 69.111H124.518C124.293 69.111 124.068 69.134 123.821 69.134C123.057 69.134 122.337 69.0419 121.798 68.8577C121.325 68.6966 121.033 68.4433 121.011 68.0519C121.011 68.0519 121.011 68.0289 121.011 68.0059C121.011 66.4864 122.36 65.2432 123.484 64.2302C123.799 63.9309 124.113 63.6546 124.383 63.4014C124.383 63.4014 124.383 63.4014 124.383 63.3783C124.451 63.3093 124.496 63.2632 124.541 63.1942C124.99 62.6877 125.26 62.1812 125.372 61.6977C125.507 61.1451 125.462 60.6387 125.26 60.1552C125.103 59.7408 124.855 59.3724 124.541 59.0271C124.496 58.981 124.451 58.935 124.406 58.8889C124.248 58.7508 124.113 58.6127 123.933 58.4745C123.799 58.3594 123.821 58.3594 123.551 58.1983Z" fill="#03599E"/>
<path d="M121 91C145.853 91 166 70.8528 166 46C166 21.1472 145.853 1 121 1C96.1472 1 76 21.1472 76 46C76 70.8528 96.1472 91 121 91Z" stroke="#03599E" stroke-width="2"/>
<path d="M86.0419 34.4339L87.8457 35.9116L87.5214 36.8065L81.8062 32.0406L82.1912 31L89.5481 31.2081L89.2238 32.1238L86.9134 32.0614L86.0419 34.4339ZM86.1635 31.9782L84.0558 31.9157C83.5694 31.8949 83.1438 31.8533 82.7384 31.8117V31.8325C83.083 32.0822 83.4478 32.3319 83.7923 32.6233L85.4542 33.9969L86.1635 31.9782Z" fill="#03599E"/>
<path d="M91.4837 26.9026C91.4837 27.2079 91.3501 27.842 90.9938 28.523C90.1698 30.0494 88.6778 30.4486 87.208 29.5797C85.7383 28.7108 85.2261 26.9966 86.1169 25.3528C86.4064 24.8127 86.7849 24.4134 87.0522 24.2256L87.6089 24.8361C87.3639 24.977 87.0744 25.2588 86.8072 25.7755C86.1837 26.9261 86.6736 28.0533 87.6757 28.6404C88.7891 29.2979 89.8581 28.9457 90.3925 27.9594C90.682 27.4428 90.7266 27.0201 90.7488 26.6913L91.4837 26.9026Z" fill="#03599E"/>
<path d="M93.1314 21.0567C94.7674 22.3377 94.6083 24.0305 93.7676 25.1057C92.836 26.3181 91.2454 26.5469 89.8367 25.4717C88.3597 24.305 88.2461 22.658 89.1777 21.4227C90.1775 20.1416 91.768 20.0044 93.1314 21.0567ZM90.4274 24.6253C91.4045 25.3802 92.5633 25.4031 93.1768 24.6024C93.7676 23.8246 93.4949 22.6808 92.4952 21.9031C91.7453 21.3083 90.4956 20.9423 89.7685 21.9031C89.0414 22.8867 89.5867 23.9848 90.4274 24.6253Z" fill="#03599E"/>
<path d="M93.1113 17.8101L95.9921 21.1016L97.6525 19.4664L94.7718 16.1537L95.4319 15.5166L98.3326 18.8294L98.7127 18.4684L100.193 20.2522L99.693 20.7618L98.5927 19.5726L95.812 22.2908L92.4512 18.4471L93.1113 17.8101Z" fill="#03599E"/>
<path d="M97.3782 11.9182C97.5663 12.1919 97.5454 12.5797 97.2319 12.8079C96.9602 13.0132 96.6258 12.9447 96.4377 12.671C96.2496 12.3744 96.2914 11.9866 96.5631 11.7813C96.8557 11.5532 97.1901 11.6216 97.3782 11.9182ZM100.429 18.4197L97.3782 13.88L98.1305 13.2869L101.161 17.8266L100.429 18.4197Z" fill="#03599E"/>
<path d="M104.301 15.2076L103.892 14.6553L103.871 14.6774C103.828 15.2076 103.505 15.8262 102.86 16.2239C101.935 16.7763 101.075 16.3786 100.688 15.6937C100.043 14.5448 100.688 13.3517 102.473 12.2913L102.408 12.2029C102.193 11.8052 101.699 11.1645 100.752 11.7389C100.322 11.9819 99.9568 12.4017 99.7417 12.7994L99.2256 12.3354C99.4621 11.8494 99.9138 11.3633 100.494 11.0319C101.892 10.1924 102.795 10.9877 103.333 11.9378L104.322 13.7052C104.559 14.125 104.795 14.5006 105.032 14.7878L104.301 15.2076ZM102.838 12.8657C101.914 13.3959 100.968 14.1692 101.484 15.075C101.806 15.6274 102.301 15.6716 102.731 15.4285C103.333 15.075 103.484 14.4564 103.398 13.9704C103.376 13.8599 103.333 13.7494 103.29 13.6611L102.838 12.8657Z" fill="#03599E"/>
<path d="M105.035 9.03216L106.835 13.4012L109.344 12.4965L107.545 8.12747L108.515 7.77441L110.338 12.1655L110.907 11.9669L111.806 14.2838L111.049 14.5486L110.338 12.9378L106.172 14.4383L104.064 9.36315L105.035 9.03216Z" fill="#03599E"/>
<path d="M111.128 5.35569C111.22 5.69694 111.037 6.01545 110.648 6.1292C110.305 6.2202 109.985 6.01545 109.894 5.67419C109.802 5.33294 109.985 4.99168 110.351 4.90068C110.74 4.78693 111.037 5.01444 111.128 5.35569ZM111.791 12.613L110.397 7.17571L111.38 6.92546L112.774 12.3628L111.791 12.613Z" fill="#03599E"/>
<path d="M118.58 11.0285L117.603 11.1561L117.292 8.96542L116.558 9.07176C116.136 9.13557 115.87 9.26319 115.692 9.47588C115.336 9.83745 115.27 10.4968 115.136 11.0285C115.092 11.1987 115.025 11.3476 114.981 11.4964L113.937 11.6453C114.026 11.4539 114.114 11.2412 114.181 11.0072C114.337 10.4755 114.381 9.77364 114.803 9.32699C114.959 9.15684 115.136 9.02923 115.381 8.94415V8.90161C114.67 8.92288 113.87 8.60384 113.759 7.79562C113.67 7.26389 113.937 6.85978 114.314 6.56202C114.737 6.26425 115.381 6.05156 116.092 5.96648C116.736 5.88141 117.381 5.86014 117.869 5.83887L118.58 11.0285ZM116.936 6.58328C116.692 6.58328 116.447 6.58328 116.114 6.64709C115.448 6.73217 114.67 7.02993 114.781 7.75308C114.87 8.41242 115.781 8.54004 116.359 8.45496C116.758 8.39115 116.981 8.36988 117.203 8.34862L116.936 6.58328Z" fill="#03599E"/>
<path d="M129.225 6.43659L128.368 11.6453L127.29 11.5172L128.025 7.05566L125.232 6.7141L124.497 11.1757L123.419 11.0476L124.276 5.83887L129.225 6.43659Z" fill="#03599E"/>
<path d="M135.032 8.78953L133.524 13.5809L132.656 13.3169L133.958 9.21588L132.284 8.70832L131.891 9.94676C131.457 11.2867 131.044 12.1597 130.279 12.3627C129.969 12.4845 129.68 12.5048 129.226 12.3627L129.35 11.6521C129.536 11.6725 129.742 11.6725 129.887 11.6115C130.445 11.4288 130.713 10.7588 131.044 9.70313L131.643 7.77441L135.032 8.78953Z" fill="#03599E"/>
<path d="M137.034 15.1723L137.282 14.565L137.258 14.5447C136.736 14.7674 135.966 14.8686 135.171 14.5447C134.054 14.0994 133.855 13.229 134.253 12.5812C134.898 11.4881 136.438 11.3666 138.574 12.2168L138.624 12.1156C138.847 11.7512 139.12 11.0225 137.978 10.5771C137.456 10.3747 136.86 10.2937 136.339 10.3544L136.438 9.72691C137.034 9.66618 137.804 9.7674 138.499 10.0508C140.188 10.7188 140.039 11.8119 139.518 12.7229L138.524 14.403C138.301 14.7877 138.077 15.1925 137.978 15.5164L137.034 15.1723ZM138.251 12.8038C137.158 12.3585 135.842 12.0144 135.32 12.9051C134.998 13.4314 135.296 13.8565 135.792 14.0589C136.513 14.3423 137.183 14.1601 137.58 13.8362C137.655 13.7755 137.754 13.6743 137.804 13.5933L138.251 12.8038Z" fill="#03599E"/>
<path d="M144.709 13.9638L144.301 14.6019L142.994 13.7086L140.626 17.452L139.871 16.9415L142.239 13.1769L140.932 12.2836L141.341 11.6455L144.709 13.9638Z" fill="#03599E"/>
<path d="M146.962 15.1608L145.552 16.7436L147.433 18.3896L148.843 16.8069L149.548 17.4189L146.065 21.323L145.36 20.711L146.941 18.9383L145.06 17.2923L143.479 19.065L142.774 18.453L146.257 14.5488L146.962 15.1608Z" fill="#03599E"/>
<path d="M151.21 20.0268L149.521 21.4327C148.896 21.9653 148.479 22.2848 147.896 22.7322L147.916 22.7748C148.604 22.6044 149 22.5192 149.667 22.4126L152.731 21.9653L153.419 22.8387L149.438 26.1619L148.875 25.4589L150.564 24.0529C151.21 23.5204 151.564 23.2434 152.231 22.7535L152.21 22.7322C151.502 22.9026 151.022 22.9878 150.439 23.0943C149.521 23.2221 148.396 23.4139 147.333 23.563L146.645 22.7109L150.626 19.3877L151.21 20.0268Z" fill="#03599E"/>
<path d="M155.575 25.0611L153.603 26.2804L153.71 26.4837L156.69 27.0707L157.29 28.132L154.053 27.3191C154.417 28.132 154.181 28.8998 153.56 29.803C153.324 30.1191 152.981 30.5707 152.724 30.9998L152.209 30.0966C152.338 29.8482 152.595 29.4643 152.895 29.0804C153.453 28.2901 153.538 27.6353 153.088 26.8224L153.002 26.6643L150.987 27.9062L150.516 27.0482L155.082 24.2256L155.575 25.0611Z" fill="#03599E"/>
<path d="M152.451 31.0784L157.128 28.8878L157.502 29.777L152.825 31.9676L152.451 31.0784ZM158.874 29.2565C158.583 29.4083 158.25 29.2999 158.105 28.9312C157.98 28.6275 158.105 28.2805 158.396 28.1504C158.687 28.0202 159.019 28.1287 159.165 28.454C159.31 28.801 159.186 29.1047 158.874 29.2565Z" fill="#03599E"/>
<path d="M158.352 31.9678C158.522 32.2834 158.799 32.8554 158.969 33.4076C159.245 34.1769 159.543 35.4984 158.437 35.8337C157.821 36.0112 157.289 35.6956 156.97 35.2025H156.949C157.076 35.9126 156.843 36.5438 156.12 36.741C154.801 37.1355 154.121 35.6562 153.802 34.7489C153.632 34.236 153.483 33.6838 153.419 33.4274L158.352 31.9678ZM154.291 34.0585C154.333 34.3149 154.397 34.4727 154.482 34.7489C154.674 35.3209 155.12 36.1098 155.843 35.8929C156.566 35.6759 156.481 34.9658 156.205 34.1571L155.992 33.5457L154.291 34.0585ZM156.609 33.3879L156.821 34.0191C157.034 34.6503 157.459 35.2222 158.055 35.0447C158.544 34.8869 158.65 34.4333 158.352 33.5851C158.246 33.309 158.182 33.1315 158.076 32.954L156.609 33.3879Z" fill="#03599E"/>
<path d="M91.4837 65.0691L86.8385 67.7742L86.3654 66.8876L90.3439 64.569L89.1396 62.2957L85.1611 64.6144L84.7095 63.7279L89.3546 61L91.4837 65.0691Z" fill="#03599E"/>
<path d="M93.2066 71.0114C91.6091 72.1077 90.0115 71.6269 89.179 70.7421C88.234 69.7419 88.3915 68.3762 89.764 67.4338C91.2266 66.4528 92.8241 66.6836 93.7916 67.703C94.7592 68.7802 94.5342 70.1073 93.2066 71.0114ZM90.4166 68.107C89.4715 68.7609 89.179 69.7034 89.809 70.3766C90.4166 71.0114 91.5641 71.0114 92.5541 70.3574C93.2966 69.8573 93.9267 68.9148 93.1841 68.107C92.4191 67.2991 91.2266 67.5492 90.4166 68.107Z" fill="#03599E"/>
<path d="M99.2253 73.034L95.9734 76.358L96.4055 76.7156L94.6544 78.4197L94.0632 77.9148L95.2229 76.6525L92.3349 74.2331L91.1069 75.4323L90.5156 74.9274L92.1757 73.1602L92.5395 73.4547C92.9716 73.3495 93.3582 73.2023 93.7221 73.0129C94.3588 72.6763 94.9273 72.2135 95.4731 71.6875L96.4509 70.6777L99.2253 73.034ZM95.9734 72.4449C95.4731 72.9498 94.9273 73.3916 94.3588 73.7072C94.0177 73.8965 93.6538 74.0438 93.3127 74.149L95.2229 75.7479L97.9518 72.9498L96.5874 71.8138L95.9734 72.4449Z" fill="#03599E"/>
<path d="M99.8336 79.9363L100.169 79.3776L100.145 79.3576C99.6182 79.5372 98.8525 79.5372 98.1585 79.1381C97.1535 78.5994 97.1056 77.7214 97.5842 77.1228C98.3739 76.1251 99.8575 76.1651 101.748 77.2026L101.82 77.1228C102.083 76.7836 102.466 76.1052 101.437 75.5465C100.982 75.2871 100.408 75.1474 99.9054 75.1474L100.097 74.5488C100.671 74.5488 101.389 74.7284 102.011 75.0676C103.519 75.8857 103.208 76.9432 102.562 77.7813L101.341 79.3177C101.054 79.6769 100.815 80.036 100.647 80.3553L99.8336 79.9363ZM101.341 77.7613C100.384 77.2026 99.1396 76.7437 98.5175 77.5418C98.1346 78.0207 98.35 78.4597 98.8046 78.7191C99.4507 79.0783 100.121 78.9585 100.551 78.6792C100.647 78.6193 100.719 78.5395 100.791 78.4597L101.341 77.7613Z" fill="#03599E"/>
<path d="M107.935 78.2781L107.599 78.9538L106.031 78.257L103.992 82.2899L103.096 81.8887L105.135 77.8558L103.567 77.1591L103.903 76.4834L107.935 78.2781Z" fill="#03599E"/>
<path d="M109.49 78.7165L108.794 81.0508L109.012 81.1195L111.643 79.4259L112.774 79.7921L109.816 81.4856C110.621 81.8518 110.947 82.5842 111.056 83.7056C111.077 84.1175 111.099 84.6897 111.208 85.1931L110.229 84.8727C110.164 84.5981 110.099 84.1175 110.077 83.614C109.99 82.6299 109.642 82.0807 108.772 81.7832L108.598 81.7145L107.881 84.0946L106.967 83.7971L108.598 78.4189L109.49 78.7165Z" fill="#03599E"/>
<path d="M112.774 85.0157L113.606 80.2442L114.369 80.4216L113.537 85.1931L112.774 85.0157ZM114.699 79.0809C114.664 79.3766 114.421 79.5738 114.126 79.4949C113.849 79.4358 113.71 79.1598 113.762 78.864C113.814 78.5485 114.057 78.3711 114.334 78.4302C114.612 78.5091 114.751 78.7851 114.699 79.0809Z" fill="#03599E"/>
<path d="M116.172 80.3863C116.596 80.3407 117.351 80.3407 118.034 80.4091C119.001 80.4774 120.604 80.7738 120.486 82.0275C120.415 82.7113 119.849 83.0988 119.166 83.19V83.2128C120.014 83.3952 120.58 83.9194 120.51 84.7173C120.392 86.1989 118.459 86.2217 117.303 86.1305C116.667 86.0849 115.983 85.971 115.677 85.9254L116.172 80.3863ZM116.761 85.3327C117.068 85.4011 117.28 85.4239 117.61 85.4467C118.317 85.4923 119.378 85.4239 119.449 84.6033C119.519 83.7827 118.694 83.5547 117.681 83.4636L116.903 83.3952L116.761 85.3327ZM116.997 82.7569L117.798 82.8253C118.576 82.8937 119.402 82.7341 119.449 82.0731C119.496 81.526 119.024 81.2069 117.963 81.1157C117.61 81.0929 117.398 81.0929 117.138 81.0929L116.997 82.7569Z" fill="#03599E"/>
<path d="M126.278 78.4629L128.069 81.3632C128.309 81.7679 128.531 82.1726 128.753 82.5773H128.771C128.808 82.1501 128.863 81.6779 128.919 81.1159L129.344 77.676L130.193 77.4512L129.547 81.6555C129.381 82.7571 129.177 84.0162 128.882 84.8255C128.586 85.545 128.18 85.9722 127.626 86.1071C127.423 86.152 127.275 86.1745 127.164 86.152L127.109 85.3426C127.183 85.3426 127.275 85.3426 127.404 85.2977C128.051 85.1178 128.291 84.286 128.402 83.6789C128.439 83.4991 128.402 83.3866 128.291 83.2293L125.354 78.6428L126.278 78.4629Z" fill="#03599E"/>
<path d="M132.038 78.6849L132.811 80.9504L133.02 80.8607L134.064 77.8774L135.129 77.4512L133.834 80.6364C134.649 80.4121 135.296 80.7934 136.006 81.5785C136.257 81.8701 136.591 82.3187 136.967 82.6328L136.048 82.9917C135.839 82.8122 135.526 82.4757 135.234 82.1168C134.607 81.399 134.043 81.1972 133.208 81.5336L133.04 81.6009L133.813 83.8889L132.936 84.2254L131.161 79.0213L132.038 78.6849Z" fill="#03599E"/>
<path d="M136.828 78.9202C136.505 78.288 136.242 77.8138 136 77.3622L136.706 76.9106L137.171 77.7235H137.191C137.211 76.9332 137.555 76.2558 138.262 75.8043C139.312 75.1495 140.605 75.6236 141.352 77.1138C142.241 78.8524 141.716 80.3201 140.706 80.9749C140.14 81.3361 139.494 81.3813 138.989 81.0652L138.969 81.0878L140.302 83.7295L139.514 84.2263L136.828 78.9202ZM138.262 79.7104C138.322 79.8459 138.403 79.9588 138.484 80.0491C138.928 80.5685 139.615 80.6814 140.181 80.3427C141.009 79.8233 141.11 78.7395 140.544 77.6332C140.06 76.6623 139.171 76.1204 138.343 76.6397C137.797 76.9784 137.514 77.7235 137.696 78.4912C137.716 78.6266 137.757 78.7621 137.817 78.875L138.262 79.7104Z" fill="#03599E"/>
<path d="M146.977 76.7697L146.525 76.277L146.505 76.2994C146.525 76.8369 146.341 77.5086 145.766 78.0013C144.966 78.6955 144.104 78.4492 143.653 77.8221C142.894 76.7697 143.324 75.4709 144.843 74.1273L144.781 74.0377C144.514 73.6794 143.96 73.1196 143.14 73.8362C142.77 74.1497 142.483 74.6199 142.34 75.0678L141.806 74.6871C141.97 74.1721 142.319 73.6122 142.812 73.1644C144.022 72.1119 144.966 72.7389 145.602 73.6122L146.792 75.2245C147.059 75.6052 147.346 75.9411 147.613 76.2098L146.977 76.7697ZM145.253 74.6647C144.453 75.3365 143.673 76.2546 144.289 77.1056C144.658 77.6206 145.151 77.5758 145.52 77.2623C146.033 76.8145 146.094 76.1651 145.951 75.6948C145.91 75.5828 145.869 75.4933 145.807 75.4037L145.253 74.6647Z" fill="#03599E"/>
<path d="M143.887 70.898C143.693 70.7038 143.693 70.3737 143.887 70.1795C144.08 69.9853 144.391 69.9853 144.585 70.1989C144.778 70.3931 144.798 70.7038 144.604 70.898C144.391 71.1116 144.08 71.0922 143.887 70.898ZM145.186 69.597C144.992 69.4028 144.992 69.0921 145.186 68.8785C145.379 68.6843 145.67 68.7037 145.883 68.8979C146.077 69.0921 146.116 69.3834 145.903 69.597C145.69 69.8106 145.379 69.7911 145.186 69.597ZM148.927 74.5486L145.535 71.1698L146.155 70.5485L149.548 73.9272L148.927 74.5486Z" fill="#03599E"/>
<path d="M147.298 68.5788L149.185 69.8948L150.927 67.91L149.04 66.594L149.693 65.8389L154.386 69.1181L153.733 69.8732L151.604 68.3846L149.862 70.3694L151.991 71.858L151.338 72.6131L146.645 69.3338L147.298 68.5788Z" fill="#03599E"/>
<path d="M150.923 63.855L152.895 64.8002C153.645 65.1668 154.096 65.3982 154.739 65.7455L154.76 65.7262C154.353 65.2053 154.096 64.8967 153.731 64.3566L152.102 61.8874L152.638 61L157.29 63.257L156.861 63.99L154.889 63.0255C154.139 62.659 153.753 62.4468 153.024 62.0417L153.002 62.061C153.431 62.6204 153.71 62.9869 154.031 63.4499C154.524 64.2022 155.125 65.0896 155.682 65.9384L155.168 66.8065L150.516 64.5495L150.923 63.855Z" fill="#03599E"/>
</svg>
