<svg width="16" height="14" viewBox="0 0 16 14" fill="none" xmlns="http://www.w3.org/2000/svg">
<path d="M13 1H1V13H13V8" stroke="#0076A8" stroke-width="2"/>
<path d="M3 5L7.5 9.5L15 2" stroke="#0076A8" stroke-width="2"/>
</svg>
