<svg width="50" height="50" viewBox="0 0 50 50" fill="none" xmlns="http://www.w3.org/2000/svg">
<path d="M25 0C11.2015 0 0 11.2015 0 25C0 38.7985 11.2015 50 25 50C38.7985 50 50 38.7985 50 25C49.9687 11.2015 38.7985 0 25 0ZM25 2.09637C37.6408 2.09637 47.9036 12.3592 47.9036 25C47.9036 37.6408 37.6408 47.9036 25 47.9036C12.3592 47.9036 2.09637 37.6408 2.09637 25C2.09637 12.3592 12.3592 2.09637 25 2.09637Z" fill="#86BC25"/>
<path d="M39.2677 25.7197L36.1388 28.8486C35.9197 29.0676 35.6694 29.1615 35.3878 29.1615C35.1062 29.1615 34.8559 29.0676 34.6369 28.8486C34.2301 28.4418 34.2301 27.7847 34.6369 27.378L35.9823 26.0325H33.2915C31.5706 26.0325 30.1625 24.6245 30.1625 22.9036V16.6458C30.1625 16.0826 29.6932 15.6133 29.13 15.6133C28.5668 15.6133 28.0975 16.0826 28.0975 16.6458V33.2916C28.0975 35.0125 26.6895 36.4205 24.9686 36.4205C23.2477 36.4205 21.8396 35.0125 21.8396 33.2916V25V16.6458C21.8396 16.0826 21.3703 15.6133 20.8071 15.6133C20.2439 15.6133 19.7746 16.0826 19.7746 16.6458V33.2916C19.7746 35.0125 18.3666 36.4205 16.6457 36.4205C14.9248 36.4205 13.5167 35.0125 13.5167 33.2916V27.0338C13.5167 26.4706 13.0474 26.0013 12.4842 26.0013C11.921 26.0013 11.4517 25.5319 11.4517 24.9687C11.4517 24.4055 11.921 23.9362 12.4842 23.9362C14.2051 23.9362 15.6131 25.3442 15.6131 27.0651V33.3229C15.6131 33.8861 16.0824 34.3555 16.6457 34.3555C17.2089 34.3555 17.6782 33.8861 17.6782 33.3229V16.6458C17.6782 14.9249 19.0862 13.5169 20.8071 13.5169C22.528 13.5169 23.936 14.9249 23.936 16.6458V24.9687V33.2916C23.936 33.8548 24.4054 34.3242 24.9686 34.3242C25.5318 34.3242 26.0011 33.8548 26.0011 33.2916V16.6458C26.0011 14.9249 27.4091 13.5169 29.13 13.5169C30.8509 13.5169 32.2589 14.9249 32.2589 16.6458V22.9036C32.2589 23.4668 32.7283 23.9362 33.2915 23.9362H35.9823L34.6369 22.5907C34.2301 22.184 34.2301 21.5269 34.6369 21.1202C35.0436 20.7134 35.7007 20.7134 36.1075 21.1202L39.2364 24.2491C39.3303 24.3429 39.4241 24.4681 39.4554 24.5933C39.5493 24.8436 39.5493 25.1252 39.4554 25.3755C39.4241 25.5319 39.3615 25.6258 39.2677 25.7197Z" fill="#86BC25"/>
</svg>
