<svg width="40" height="40" viewBox="0 0 40 40" fill="none" xmlns="http://www.w3.org/2000/svg">
<path d="M20 0C8.9612 0 0 8.9612 0 20C0 31.0388 8.9612 40 20 40C31.0388 40 40 31.0388 40 20C40 8.9612 31.0388 0 20 0ZM20 1.6771C30.1126 1.6771 38.3229 9.88736 38.3229 20C38.3229 30.1126 30.1126 38.3229 20 38.3229C9.88736 38.3229 1.6771 30.1126 1.6771 20C1.6771 9.88736 9.88736 1.6771 20 1.6771Z" fill="black"/>
<path d="M22.9788 15.8198L20 18.8236L16.9963 15.8198H22.9788ZM28.9112 11.0639C28.5858 10.7385 28.0601 10.7385 27.7347 11.0639L24.6559 14.1678H15.3442L12.2404 11.0639C11.9149 10.7385 11.3893 10.7385 11.0639 11.0639C10.7385 11.3893 10.7385 11.9149 11.0639 12.2403L14.393 15.5695L19.149 20.3255V29.1365H15.8198C15.3693 29.1365 14.9938 29.5119 14.9938 29.9625C14.9938 30.4131 15.3693 30.7885 15.8198 30.7885H24.1552C24.6058 30.7885 24.9813 30.4131 24.9813 29.9625C24.9813 29.5119 24.6058 29.1365 24.1552 29.1365H20.8261V20.3255L25.582 15.5695L28.9112 12.2403C29.2366 11.9149 29.2366 11.3893 28.9112 11.0639Z" fill="black"/>
</svg>
