<svg width="40" height="40" viewBox="0 0 40 40" fill="none" xmlns="http://www.w3.org/2000/svg">
<path d="M12.2153 14.5181C11.9149 14.8685 11.99 15.3942 12.3404 15.6945C12.4906 15.8197 12.6909 15.8698 12.8661 15.8698C13.1164 15.8698 13.3417 15.7696 13.5169 15.5694C13.567 15.4943 14.9186 13.7671 13.567 11.6144C12.8911 10.5131 13.4168 9.78715 13.4919 9.71206C13.7922 9.36162 13.7422 8.83596 13.4168 8.53559C13.0663 8.23521 12.5407 8.26025 12.2403 8.61068C12.1902 8.68578 10.7885 10.3128 12.1652 12.4905C12.8661 13.6169 12.2653 14.443 12.2153 14.5181Z" fill="black"/>
<path d="M18.0478 14.5181C17.7474 14.8685 17.8225 15.3942 18.1729 15.6945C18.3231 15.8197 18.5234 15.8698 18.6986 15.8698C18.9489 15.8698 19.1742 15.7696 19.3494 15.5694C19.3995 15.4943 20.7512 13.7671 19.3995 11.6144C18.7236 10.5131 19.2493 9.78715 19.3244 9.71206C19.6248 9.36162 19.5747 8.83596 19.2493 8.53559C18.8988 8.23521 18.3732 8.26025 18.0728 8.61068C18.0228 8.68578 16.621 10.3128 17.9977 12.4905C18.6736 13.6169 18.0978 14.443 18.0478 14.5181Z" fill="black"/>
<path d="M23.8798 14.5181C23.5794 14.8685 23.6545 15.3942 24.005 15.6945C24.1552 15.8197 24.3554 15.8698 24.5306 15.8698C24.7809 15.8698 25.0062 15.7696 25.1814 15.5694C25.2315 15.4943 26.5832 13.7671 25.2315 11.6144C24.5557 10.5131 25.0813 9.78715 25.1564 9.71206C25.4568 9.36162 25.4067 8.83596 25.0813 8.53559C24.7309 8.23521 24.2052 8.26025 23.9048 8.61068C23.8548 8.68578 22.453 10.3128 23.8298 12.4905C24.5056 13.6169 23.9299 14.443 23.8798 14.5181Z" fill="black"/>
<path d="M18.7486 28.3105C14.3181 28.3105 10.8387 24.7811 10.8387 20.2504V19.1741H26.6585V20.2504C26.6585 24.756 23.1791 28.3105 18.7486 28.3105ZM29.7123 20.701C30.3131 20.701 30.8137 21.2016 30.8137 21.8023C30.8137 22.4031 30.3131 22.9037 29.7123 22.9037C29.1116 22.9037 28.6109 22.4031 28.6109 21.8023C28.6109 21.1766 29.1116 20.701 29.7123 20.701ZM27.7098 23.6797C28.2104 24.2053 28.9363 24.5558 29.7123 24.5558C31.2392 24.5558 32.4908 23.3042 32.4908 21.7773C32.4908 20.2504 31.2392 18.9988 29.7123 18.9988C29.2117 18.9988 28.7361 19.149 28.3106 19.3993V18.298C28.3106 17.8474 27.9351 17.4719 27.4845 17.4719H9.98765C9.53709 17.4719 9.16162 17.8474 9.16162 18.298V20.2254C9.16162 24.2554 11.4645 27.6346 14.8437 29.1365H9.98765C9.53709 29.1365 9.16162 29.512 9.16162 29.9625C9.16162 30.4131 9.53709 30.7886 9.98765 30.7886H29.9877C30.4382 30.7886 30.8137 30.4131 30.8137 29.9625C30.8137 29.512 30.4382 29.1365 29.9877 29.1365H22.6535C25.0064 28.1102 26.8337 26.1578 27.7098 23.6797Z" fill="black"/>
<path d="M20 0C8.9612 0 0 8.9612 0 20C0 31.0388 8.9612 40 20 40C31.0388 40 40 31.0388 40 20C40 8.9612 31.0388 0 20 0ZM20 1.6771C30.1126 1.6771 38.3229 9.88736 38.3229 20C38.3229 30.1126 30.1126 38.3229 20 38.3229C9.88736 38.3229 1.6771 30.1126 1.6771 20C1.6771 9.88736 9.88736 1.6771 20 1.6771Z" fill="black"/>
</svg>
