<svg width="47" height="47" viewBox="0 0 47 47" fill="none" xmlns="http://www.w3.org/2000/svg">
<path d="M16.647 30.3527C16.647 30.8821 16.2058 31.3232 15.6764 31.3232C15.147 31.3232 14.7058 30.8821 14.7058 30.3527C14.7058 29.8232 15.147 29.3821 15.6764 29.3821C16.2058 29.3527 16.647 29.7938 16.647 30.3527ZM20.5588 30.3527C20.5588 30.8821 20.1176 31.3232 19.5882 31.3232C19.0588 31.3232 18.6176 30.8821 18.6176 30.3527C18.6176 29.8232 19.0588 29.3821 19.5882 29.3821C20.1176 29.3527 20.5588 29.7938 20.5588 30.3527ZM28.3823 30.3527C28.3823 30.8821 27.9411 31.3232 27.4117 31.3232C26.8823 31.3232 26.4411 30.8821 26.4411 30.3527C26.4411 29.8232 26.8823 29.3821 27.4117 29.3821C27.9411 29.3527 28.3823 29.7938 28.3823 30.3527ZM24.4705 30.3527C24.4705 30.8821 24.0294 31.3232 23.4999 31.3232C22.9705 31.3232 22.5294 30.8821 22.5294 30.3527C22.5294 29.8232 22.9705 29.3821 23.4999 29.3821C24.0294 29.3527 24.4705 29.7938 24.4705 30.3527ZM32.2941 26.4409C32.2941 26.9703 31.8529 27.4115 31.3235 27.4115C30.7941 27.4115 30.3529 26.9703 30.3529 26.4409C30.3529 25.9115 30.7941 25.4703 31.3235 25.4703C31.8529 25.4409 32.2941 25.8821 32.2941 26.4409ZM28.3823 26.4409C28.3823 26.9703 27.9411 27.4115 27.4117 27.4115C26.8823 27.4115 26.4411 26.9703 26.4411 26.4409C26.4411 25.9115 26.8823 25.4703 27.4117 25.4703C27.9411 25.4409 28.3823 25.8821 28.3823 26.4409ZM24.4705 26.4409C24.4705 26.9703 24.0294 27.4115 23.4999 27.4115C22.9705 27.4115 22.5294 26.9703 22.5294 26.4409C22.5294 25.9115 22.9705 25.4703 23.4999 25.4703C24.0294 25.4409 24.4705 25.8821 24.4705 26.4409ZM20.5588 26.4409C20.5588 26.9703 20.1176 27.4115 19.5882 27.4115C19.0588 27.4115 18.6176 26.9703 18.6176 26.4409C18.6176 25.9115 19.0588 25.4703 19.5882 25.4703C20.1176 25.4409 20.5588 25.8821 20.5588 26.4409ZM16.647 26.4409C16.647 26.9703 16.2058 27.4115 15.6764 27.4115C15.147 27.4115 14.7058 26.9703 14.7058 26.4409C14.7058 25.9115 15.147 25.4703 15.6764 25.4703C16.2058 25.4409 16.647 25.8821 16.647 26.4409ZM32.2941 22.4997C32.2941 23.0291 31.8529 23.4703 31.3235 23.4703C30.7941 23.4703 30.3529 23.0291 30.3529 22.4997C30.3529 21.9703 30.7941 21.5291 31.3235 21.5291C31.8529 21.5291 32.2941 21.9703 32.2941 22.4997ZM31.3235 17.6174C31.8529 17.6174 32.2941 18.0585 32.2941 18.5879C32.2941 19.1174 31.8529 19.5585 31.3235 19.5585C30.7941 19.5585 30.3529 19.1174 30.3529 18.5879C30.3529 18.0585 30.7941 17.6174 31.3235 17.6174ZM28.3823 22.4997C28.3823 23.0291 27.9411 23.4703 27.4117 23.4703C26.8823 23.4703 26.4411 23.0291 26.4411 22.4997C26.4411 21.9703 26.8823 21.5291 27.4117 21.5291C27.9411 21.5291 28.3823 21.9703 28.3823 22.4997ZM28.3823 18.5879C28.3823 19.1174 27.9411 19.5585 27.4117 19.5585C26.8823 19.5585 26.4411 19.1174 26.4411 18.5879C26.4411 18.0585 26.8823 17.6174 27.4117 17.6174C27.9411 17.6174 28.3823 18.0585 28.3823 18.5879ZM24.4705 22.4997C24.4705 23.0291 24.0294 23.4703 23.4999 23.4703C22.9705 23.4703 22.5294 23.0291 22.5294 22.4997C22.5294 21.9703 22.9705 21.5291 23.4999 21.5291C24.0294 21.5291 24.4705 21.9703 24.4705 22.4997ZM20.5588 22.4997C20.5588 23.0291 20.1176 23.4703 19.5882 23.4703C19.0588 23.4703 18.6176 23.0291 18.6176 22.4997C18.6176 21.9703 19.0588 21.5291 19.5882 21.5291C20.1176 21.5291 20.5588 21.9703 20.5588 22.4997ZM16.647 22.4997C16.647 23.0291 16.2058 23.4703 15.6764 23.4703C15.147 23.4703 14.7058 23.0291 14.7058 22.4997C14.7058 21.9703 15.147 21.5291 15.6764 21.5291C16.2058 21.5291 16.647 21.9703 16.647 22.4997ZM24.4705 18.5879C24.4705 19.1174 24.0294 19.5585 23.4999 19.5585C22.9705 19.5585 22.5294 19.1174 22.5294 18.5879C22.5294 18.0585 22.9705 17.6174 23.4999 17.6174C24.0294 17.6174 24.4705 18.0585 24.4705 18.5879ZM20.5588 18.5879C20.5588 19.1174 20.1176 19.5585 19.5882 19.5585C19.0588 19.5585 18.6176 19.1174 18.6176 18.5879C18.6176 18.0585 19.0588 17.6174 19.5882 17.6174C20.1176 17.6174 20.5588 18.0585 20.5588 18.5879ZM16.647 18.5879C16.647 19.1174 16.2058 19.5585 15.6764 19.5585C15.147 19.5585 14.7058 19.1174 14.7058 18.5879C14.7058 18.0585 15.147 17.6174 15.6764 17.6174C16.2058 17.6174 16.647 18.0585 16.647 18.5879ZM34.2646 34.2644H12.7352V12.735H16.647V13.7056C16.647 14.235 17.0882 14.6762 17.6176 14.6762C18.147 14.6762 18.5882 14.235 18.5882 13.7056V12.735H28.3823V13.7056C28.3823 14.235 28.8235 14.6762 29.3529 14.6762C29.8823 14.6762 30.3235 14.235 30.3235 13.7056V12.735H34.2352V34.2644H34.2646ZM35.2352 10.7644H30.3529V9.79383C30.3529 9.26442 29.9117 8.82324 29.3823 8.82324C28.8529 8.82324 28.4117 9.26442 28.4117 9.79383V10.7644H18.5882V9.79383C18.5882 9.26442 18.147 8.82324 17.6176 8.82324C17.0882 8.82324 16.647 9.26442 16.647 9.79383V10.7644H11.7352C11.2058 10.7644 10.7646 11.2056 10.7646 11.735V35.235C10.7646 35.7644 11.2058 36.2056 11.7352 36.2056H35.2352C35.7646 36.2056 36.2058 35.7644 36.2058 35.235V11.735C36.2058 11.2056 35.7646 10.7644 35.2352 10.7644Z" fill="white"/>
<path d="M23.5 0C10.5294 0 0 10.5294 0 23.5C0 36.4706 10.5294 47 23.5 47C36.4706 47 47 36.4706 47 23.5C46.9706 10.5294 36.4706 0 23.5 0ZM23.5 1.97059C35.3824 1.97059 45.0294 11.6176 45.0294 23.5C45.0294 35.3824 35.3824 45.0294 23.5 45.0294C11.6176 45.0294 1.97059 35.3824 1.97059 23.5C1.97059 11.6176 11.6176 1.97059 23.5 1.97059Z" fill="white"/>
</svg>
