<svg width="35" height="34" viewBox="0 0 35 34" fill="none" xmlns="http://www.w3.org/2000/svg">
<path d="M33.6646 17C33.6646 26.1104 26.2427 33.5 17.0823 33.5C7.92186 33.5 0.5 26.1104 0.5 17C0.5 7.88958 7.92186 0.5 17.0823 0.5C26.2427 0.5 33.6646 7.88958 33.6646 17Z" stroke="white"/>
<path d="M14.8654 12.4161C14.8654 12.8251 14.8654 14.6503 14.8654 14.6503H13.1997V17.3823H14.8654V25.5007H18.2871V17.3825H20.5832C20.5832 17.3825 20.7983 16.0726 20.9025 14.6402C20.6036 14.6402 18.3 14.6402 18.3 14.6402C18.3 14.6402 18.3 13.0509 18.3 12.7723C18.3 12.4931 18.6731 12.1176 19.0418 12.1176C19.4099 12.1176 20.1867 12.1176 20.9061 12.1176C20.9061 11.7456 20.9061 10.4604 20.9061 9.27344C19.9457 9.27344 18.853 9.27344 18.3713 9.27344C14.7808 9.27325 14.8654 12.0079 14.8654 12.4161Z" fill="white"/>
</svg>
