<svg width="50" height="50" viewBox="0 0 50 50" fill="none" xmlns="http://www.w3.org/2000/svg">
<path d="M25 0C11.2015 0 0 11.2015 0 25C0 38.7985 11.2015 50 25 50C38.7985 50 50 38.7985 50 25C50 11.2015 38.7985 0 25 0ZM25 2.09637C37.6408 2.09637 47.9036 12.3592 47.9036 25C47.9036 37.6408 37.6408 47.9036 25 47.9036C12.3592 47.9036 2.09637 37.6408 2.09637 25C2.09637 12.3592 12.3592 2.09637 25 2.09637Z" fill="white"/>
<path d="M23.9365 25.8135H23.7175C22.6849 25.8135 21.8714 25.6258 20.8076 25.2503V23.373C21.8401 23.6546 21.9966 23.8736 22.4346 23.9675C22.8727 24.0926 23.2794 24.1552 23.6549 24.1552C24.0929 24.1552 24.4371 24.0613 24.6874 23.9049C24.9378 23.7485 25.0316 23.4669 25.0316 23.154C25.0316 22.9662 24.969 22.8098 24.8752 22.6533C24.7813 22.4969 24.6249 22.3717 24.4058 22.2153C24.2181 22.0901 23.7801 21.8711 23.1543 21.5582C22.5598 21.2766 22.153 21.0263 21.8401 20.776C21.5585 20.5257 21.3395 20.2128 21.1518 19.8999C20.964 19.5557 20.9327 19.1802 20.9327 18.7109C20.9327 17.8661 21.3082 17.209 21.8714 16.7084C22.3408 16.3329 22.8101 16.0826 23.8426 16.02V14.612H24.8752V16.02C24.8752 16.0513 25.3758 16.0826 25.72 16.1765C26.158 16.3017 26.4083 16.4581 26.909 16.6771L26.2519 18.2729C25.7513 18.0538 25.3132 17.9287 24.969 17.8348C24.6249 17.741 24.312 17.7097 23.9678 17.7097C23.5923 17.7097 23.2794 17.8035 23.0917 17.9913C22.8727 18.179 22.7788 18.398 22.7788 18.6796C22.7788 18.8674 22.8101 19.0238 22.904 19.149C22.9978 19.2741 23.123 19.3993 23.3107 19.5244C23.4985 19.6496 23.9365 19.8686 24.5936 20.1815C25.501 20.6195 26.0955 21.0263 26.4396 21.4644C26.7838 21.9024 27.0654 22.4343 27.0654 23.0601C27.0654 23.9362 26.8777 24.5933 26.2519 25.0939C25.8139 25.4381 24.8752 25.6571 24.8752 25.751V27.0964H23.8426V25.8135H23.9365ZM34.3558 38.5169H32.2594V36.4205H33.2919H34.3245V38.5169H34.3558ZM23.9365 36.4518H26.0329V38.5482H23.9365V36.4518ZM19.7751 38.5169V36.4205H21.8714V38.5169H19.7751ZM15.6136 36.4518H17.71V38.5482H15.6136V36.4518ZM13.5485 32.2904H15.6449V34.3868H14.6123H13.5798V32.2904H13.5485ZM14.5811 20.8386C14.5811 15.6759 18.7738 11.4518 23.9678 11.4518C29.1618 11.4518 33.3545 15.6446 33.3545 20.8386C33.3545 26.0013 29.1618 30.2253 23.9678 30.2253C18.7738 30.2253 14.5811 26.0013 14.5811 20.8386ZM30.1943 36.4518V38.5482H28.098V36.4518H30.1943ZM26.0329 32.2904H28.1292V34.3868H26.0329V32.2904ZM21.8714 34.3555V32.2591H23.9678V34.3555H21.8714ZM17.71 34.3555V32.2591H19.8063V34.3555H17.71ZM32.2907 34.3555H30.1943V32.2591H32.2907V34.3555ZM35.3883 34.3555H34.3558V31.2266C34.3558 30.6634 33.8864 30.194 33.3232 30.194H30.5072C33.4484 28.1289 35.3883 24.6871 35.3883 20.8073C35.3883 14.4869 30.2569 9.35547 23.9365 9.35547C17.6161 9.35547 12.4847 14.5182 12.4847 20.8386C12.4847 24.7184 14.4246 28.1289 17.3658 30.2253H12.4847C11.9215 30.2253 11.4521 30.6946 11.4521 31.2578V35.4193C11.4521 35.9825 11.9215 36.4518 12.4847 36.4518H13.5172V39.5807C13.5172 40.144 13.9866 40.6133 14.5498 40.6133H35.3883C35.9515 40.6133 36.4209 40.144 36.4209 39.5807V35.4193C36.4521 34.8248 35.9828 34.3555 35.3883 34.3555Z" fill="white"/>
</svg>
