<svg width="24" height="16" viewBox="0 0 24 16" fill="none" xmlns="http://www.w3.org/2000/svg">
<rect width="8" height="16" fill="#27509A"/>
<rect x="8" width="8" height="16" fill="white"/>
<rect x="16" width="8" height="16" fill="#D60000"/>
</svg>
