<svg width="29" height="22" viewBox="0 0 29 22" fill="none" xmlns="http://www.w3.org/2000/svg">
<path d="M11.878 1L2 11.1124L11.878 21" stroke="black" stroke-width="2"/>
<path d="M29 11L2.65854 11" stroke="black" stroke-width="2"/>
</svg>
