<svg width="61" height="45" viewBox="0 0 61 45" fill="none" xmlns="http://www.w3.org/2000/svg">
<path d="M47.8669 5.95792e-08C51.5534 5.95792e-08 54.6638 1.25954 57.1983 3.77863C59.7328 6.41222 61 10.1336 61 14.9427C61 21.2405 59.3872 27.0229 56.1615 32.2901C52.9358 37.6718 48.7885 41.9084 43.7195 45L38.7082 42.4237C40.7819 40.5916 42.8555 37.958 44.9292 34.5229C47.0028 31.0878 48.1549 27.4237 48.3853 23.5305C44.9292 23.3015 42.0491 22.1565 39.745 20.0954C37.441 18.0344 36.289 15.4008 36.289 12.1947C36.289 8.53054 37.441 5.55344 39.745 3.26336C41.9339 1.08779 44.6412 5.95792e-08 47.8669 5.95792e-08ZM11.7507 5.95792e-08C15.322 5.95792e-08 18.3749 1.25954 20.9093 3.77863C23.4438 6.41222 24.711 10.1336 24.711 14.9427C24.711 21.2405 23.1558 27.0229 20.0453 32.2901C16.8196 37.6718 12.6723 41.9084 7.6034 45L2.59207 42.4237C8.46742 37.1565 11.6355 30.8588 12.0963 23.5305C8.75543 23.3015 5.93296 22.1565 3.6289 20.0954C1.20963 18.0344 -1.5676e-06 15.4008 -1.5676e-06 12.1947C-1.5676e-06 8.53054 1.15203 5.55344 3.45609 3.26336C5.76015 1.08779 8.52502 5.95792e-08 11.7507 5.95792e-08Z" fill="#86BC25"/>
</svg>
