<svg width="24" height="16" viewBox="0 0 24 16" fill="none" xmlns="http://www.w3.org/2000/svg">
<rect width="24" height="16" fill="white"/>
<rect y="2" width="24" height="2" fill="#D60000"/>
<rect y="6" width="24" height="2" fill="#D60000"/>
<rect y="10" width="24" height="2" fill="#D60000"/>
<rect y="14" width="24" height="2" fill="#D60000"/>
<rect width="11" height="8" fill="#27509A"/>
</svg>
