<svg width="35" height="34" viewBox="0 0 35 34" fill="none" xmlns="http://www.w3.org/2000/svg">
<path d="M33.6646 17C33.6646 26.1104 26.2427 33.5 17.0823 33.5C7.92186 33.5 0.5 26.1104 0.5 17C0.5 7.88958 7.92186 0.5 17.0823 0.5C26.2427 0.5 33.6646 7.88958 33.6646 17Z" stroke="white"/>
<path d="M24.7062 13.7695C24.4981 12.9302 23.7586 12.311 22.8684 12.2186C20.7603 12.0001 18.6266 11.999 16.5027 12.0001C14.3785 11.999 12.2444 12.0001 10.1363 12.2186C9.24664 12.311 8.50767 12.9302 8.29955 13.7695C8.00333 14.9647 8 16.2695 8 17.5001C8 18.7307 8 20.0353 8.29622 21.2304C8.50399 22.0695 9.24313 22.6887 10.1334 22.7812C12.2413 22.9999 14.3752 23.001 16.4994 22.9999C18.624 23.001 20.7573 22.9999 22.8651 22.7812C23.7548 22.6889 24.4944 22.0697 24.7026 21.2304C24.9989 20.0351 25 18.7305 25 17.5001C25 16.2695 25.0025 14.9647 24.7062 13.7695ZM14.3062 19.9496C14.3062 18.2038 14.3062 16.4764 14.3062 14.7305C16.1079 15.6032 17.8976 16.47 19.7107 17.3481C17.9033 18.2183 16.1126 19.08 14.3062 19.9496Z" fill="white"/>
</svg>
