<svg width="50" height="50" viewBox="0 0 50 50" fill="none" xmlns="http://www.w3.org/2000/svg">
<path d="M35.3879 29.1614C34.8247 29.1614 34.3554 29.6308 34.3554 30.194V32.8848L28.8485 27.3779C28.4417 26.9712 27.7847 26.9712 27.3779 27.3779C26.9712 27.7847 26.9712 28.4418 27.3779 28.8485L32.8848 34.3554H30.1939C29.6307 34.3554 29.1614 34.8248 29.1614 35.388C29.1614 35.9512 29.6307 36.4205 30.1939 36.4205H35.3879C35.7947 36.4205 36.2015 36.1702 36.3579 35.7634C36.4205 35.6383 36.4205 35.5131 36.4205 35.388C36.4205 35.388 36.4205 35.388 36.4205 35.3567V30.194C36.4518 29.6308 35.9824 29.1614 35.3879 29.1614ZM17.0838 15.6132H19.7747C20.3379 15.6132 20.8072 15.1439 20.8072 14.5807C20.8072 14.0175 20.3379 13.5482 19.7747 13.5482H14.5807C14.5807 13.5482 14.5807 13.5482 14.5494 13.5482C14.4242 13.5482 14.2991 13.5794 14.1739 13.6107C13.7984 13.7672 13.5168 14.1426 13.5168 14.5807V19.7747C13.5168 20.3379 13.9862 20.8072 14.5494 20.8072C15.1126 20.8072 15.5819 20.3379 15.5819 19.7747V17.0838L21.0888 22.5907C21.2765 22.7784 21.5581 22.9036 21.8397 22.9036C22.1214 22.9036 22.3717 22.8097 22.5907 22.5907C22.9974 22.184 22.9974 21.5269 22.5907 21.1201L17.0838 15.6132ZM21.1201 27.3779L15.6132 32.8848V30.194C15.6132 29.6308 15.1439 29.1614 14.5807 29.1614C14.0175 29.1614 13.5481 29.6308 13.5481 30.194V35.388C13.5481 35.388 13.5481 35.388 13.5481 35.4192C13.5481 35.5444 13.5794 35.6696 13.6107 35.7947C13.7672 36.1702 14.1426 36.4518 14.5807 36.4518H19.7747C20.3379 36.4518 20.8072 35.9824 20.8072 35.4192C20.8072 34.856 20.3379 34.3867 19.7747 34.3867H17.0838L22.5907 28.8798C22.9974 28.4731 22.9974 27.816 22.5907 27.4092C22.1839 26.9712 21.5269 26.9712 21.1201 27.3779ZM36.4518 14.5807V19.7747C36.4518 20.3379 35.9824 20.8072 35.4192 20.8072C34.856 20.8072 34.3867 20.3379 34.3867 19.7747V17.0838L28.8485 22.5907C28.6608 22.7784 28.3792 22.9036 28.0976 22.9036C27.816 22.9036 27.5657 22.8097 27.3466 22.5907C26.9399 22.184 26.9399 21.5269 27.3466 21.1201L32.8535 15.6132H30.1627C29.5994 15.6132 29.1301 15.1439 29.1301 14.5807C29.1301 14.0175 29.5994 13.5482 30.1627 13.5482H35.3566C35.3566 13.5482 35.3566 13.5482 35.3879 13.5482C35.5131 13.5482 35.6382 13.5794 35.7634 13.6107C36.2015 13.7672 36.4518 14.1426 36.4518 14.5807Z" fill="#86BC25"/>
<path d="M25 0C11.2015 0 0 11.2015 0 25C0 38.7985 11.2015 50 25 50C38.7985 50 50 38.7985 50 25C50 11.2015 38.7985 0 25 0ZM25 2.09637C37.6408 2.09637 47.9036 12.3592 47.9036 25C47.9036 37.6408 37.6408 47.9036 25 47.9036C12.3592 47.9036 2.09637 37.6408 2.09637 25C2.09637 12.3592 12.3592 2.09637 25 2.09637Z" fill="#86BC25"/>
</svg>
