<svg width="50" height="50" viewBox="0 0 50 50" fill="none" xmlns="http://www.w3.org/2000/svg">
<path d="M14.362 22.0587C13.0791 24.5306 12.2969 27.7533 14.143 31.3829C16.8651 36.8272 21.2456 38.4229 23.4045 38.5168C25.2193 38.5794 28.755 38.2352 32.1655 35.0124C34.9815 32.3528 35.9202 26.2828 34.5435 23.8422C33.7612 22.4655 33.2919 20.9323 33.0103 19.6808C31.9778 21.7146 31.352 24.2803 31.1642 25.3754C31.1017 25.7821 30.8201 26.095 30.4133 26.1889C30.0378 26.314 29.5998 26.1889 29.3495 25.876C25.4383 21.4955 25.2193 15.2377 25.3758 12.1714C18.5547 16.1138 20.6511 26.5331 20.6824 26.6582C20.7763 27.0337 20.6198 27.4405 20.3382 27.6908C20.0253 27.9411 19.6186 28.0037 19.2744 27.8472C16.5209 26.6895 15.0816 24.0612 14.362 22.0587ZM23.8113 40.6132C23.6548 40.6132 23.4984 40.6132 23.342 40.6132C19.8376 40.488 15.0816 37.8597 12.2969 32.3528C9.07412 25.9073 12.7037 20.5881 13.8926 18.836C14.143 18.4918 14.581 18.304 14.9878 18.3979C15.3945 18.4918 15.7074 18.836 15.77 19.274C15.77 19.3053 16.3019 22.6845 18.3357 24.7496C18.0541 20.6507 18.4921 12.3278 26.2206 9.5118C26.5647 9.38664 26.9402 9.44922 27.2531 9.69953C27.5347 9.91856 27.6911 10.294 27.6286 10.6695C27.6286 10.7321 26.596 17.647 29.6624 22.7784C30.2256 20.7759 31.2581 17.8973 32.9164 16.2702C33.198 15.9886 33.6361 15.8948 34.0115 16.0512C34.387 16.2077 34.6373 16.5518 34.6686 16.9586C34.6686 16.9899 34.9189 20.3065 36.3582 22.841C38.173 26.0324 37.2343 33.1351 33.6048 36.5456C29.944 40.0187 26.0641 40.6132 23.8113 40.6132Z" fill="#86BC25"/>
<path d="M25 0C11.2015 0 0 11.2015 0 25C0 38.7985 11.2015 50 25 50C38.7985 50 50 38.7985 50 25C49.9687 11.2015 38.7985 0 25 0ZM25 2.09637C37.6408 2.09637 47.9036 12.3592 47.9036 25C47.9036 37.6408 37.6408 47.9036 25 47.9036C12.3592 47.9036 2.09637 37.6408 2.09637 25C2.09637 12.3592 12.3592 2.09637 25 2.09637Z" fill="#86BC25"/>
</svg>
