<svg width="50" height="50" viewBox="0 0 50 50" fill="none" xmlns="http://www.w3.org/2000/svg">
<path d="M25 0C11.2015 0 0 11.2015 0 25C0 38.7985 11.2015 50 25 50C38.7985 50 50 38.7985 50 25C50 11.2015 38.7985 0 25 0ZM25 2.09637C37.6408 2.09637 47.9036 12.3592 47.9036 25C47.9036 37.6408 37.6408 47.9036 25 47.9036C12.3592 47.9036 2.09637 37.6408 2.09637 25C2.09637 12.3592 12.3592 2.09637 25 2.09637Z" fill="#86BC25"/>
<path d="M33.3231 15.3003L32.3844 15.7384C32.1341 15.8635 31.9463 16.0512 31.8212 16.3016L28.4733 25.0625C28.3168 25.4693 28.442 25.9699 28.7861 26.2515L30.7574 27.8785L29.9126 30.1001L18.2104 25.5944L19.0552 23.3729L21.5897 23.4981C22.0277 23.5293 22.4345 23.2477 22.6222 22.841L25.9701 14.08C26.064 13.8297 26.064 13.5481 25.9388 13.2978L25.5008 12.3591L25.7198 11.7959L33.5108 14.7684L33.3231 15.3003ZM35.263 13.1726L25.5321 9.44924C25.0002 9.23022 24.4057 9.51182 24.1866 10.0437L23.4357 11.9837C23.3418 12.234 23.3418 12.5156 23.467 12.7659L23.905 13.7046L20.9639 21.3704L18.4295 21.2765C17.9914 21.2452 17.5846 21.5268 17.3969 21.9336L15.895 25.8134C15.8012 26.0638 15.8012 26.3454 15.9263 26.5957C16.0515 26.846 16.2392 27.0337 16.4895 27.1589L22.3406 29.4117L18.9927 38.1726C18.7736 38.7046 19.0552 39.2991 19.5871 39.5181C19.7123 39.5494 19.8375 39.5807 19.9626 39.5807C20.3694 39.5807 20.7761 39.3303 20.9326 38.9236L24.2805 30.1626L30.1003 32.3842C30.2254 32.4154 30.3506 32.4467 30.4758 32.4467C30.8825 32.4467 31.2893 32.1964 31.4457 31.7897L32.9476 27.9098C33.104 27.5031 32.9789 27.0024 32.6347 26.7208L30.6635 25.0938L33.6047 17.4593L34.5433 17.0212C34.7937 16.896 34.9814 16.7083 35.1065 16.458L35.8575 14.5181C36.0452 13.9549 35.7949 13.3604 35.263 13.1726Z" fill="#86BC25"/>
</svg>
