<svg width="50" height="50" viewBox="0 0 50 50" fill="none" xmlns="http://www.w3.org/2000/svg">
<path d="M25 11.4518C24.4368 11.4518 23.9675 11.9212 23.9675 12.4844C23.9675 13.0476 24.4368 13.5169 25 13.5169C25.5632 13.5169 26.0325 13.0476 26.0325 12.4844C26.0325 11.9212 25.5632 11.4518 25 11.4518ZM25 15.6133C23.2791 15.6133 21.8711 14.2053 21.8711 12.4844C21.8711 10.7635 23.2791 9.35547 25 9.35547C26.7209 9.35547 28.1289 10.7635 28.1289 12.4844C28.1289 14.2053 26.7209 15.6133 25 15.6133Z" fill="white"/>
<path d="M30.1936 40.6133C29.693 40.6133 29.2237 40.2378 29.1611 39.7059L28.1599 32.6971L24.1861 27.7221C24.0297 27.5344 23.9671 27.3154 23.9671 27.0651V19.7747L21.8707 21.3392V28.0976C21.8707 28.6608 21.4014 29.1302 20.8382 29.1302C20.275 29.1302 19.8057 28.6608 19.8057 28.0976V20.8385C19.8057 20.5256 19.9621 20.2128 20.2124 19.9937L24.3739 16.8648C24.6868 16.6145 25.1248 16.5832 25.469 16.771C25.8132 16.9587 26.0322 17.3029 26.0322 17.7096V26.7209L29.9746 31.6333C30.0998 31.7897 30.1624 31.9462 30.1936 32.1339L31.2262 39.4243C31.3201 39.9875 30.9133 40.5194 30.3501 40.6133C30.2875 40.6133 30.2562 40.6133 30.1936 40.6133Z" fill="white"/>
<path d="M18.742 40.6133C18.523 40.6133 18.3352 40.5507 18.1475 40.4256C17.6782 40.0814 17.5843 39.4556 17.8972 38.9863L23.0912 31.6959C23.4354 31.2266 24.0611 31.1327 24.5305 31.4456C24.9998 31.7898 25.0937 32.4155 24.7808 32.8849L19.5868 40.1752C19.3991 40.4568 19.0549 40.6133 18.742 40.6133Z" fill="white"/>
<path d="M30.194 27.0651C29.9124 27.0651 29.6621 26.9712 29.4431 26.7522L28.4105 25.7196C28.0038 25.3129 28.0038 24.6558 28.4105 24.249C28.8173 23.8423 29.4744 23.8423 29.8811 24.249L30.9137 25.2816C31.3204 25.6883 31.3204 26.3454 30.9137 26.7522C30.7259 26.9712 30.4756 27.0651 30.194 27.0651Z" fill="white"/>
<path d="M25 0C11.2015 0 0 11.2015 0 25C0 38.7985 11.2015 50 25 50C38.7985 50 50 38.7985 50 25C49.9687 11.2015 38.7985 0 25 0ZM25 2.09637C37.6408 2.09637 47.9036 12.3592 47.9036 25C47.9036 37.6408 37.6408 47.9036 25 47.9036C12.3592 47.9036 2.09637 37.6408 2.09637 25C2.09637 12.3592 12.3592 2.09637 25 2.09637Z" fill="white"/>
</svg>
