<svg width="50" height="50" viewBox="0 0 50 50" fill="none" xmlns="http://www.w3.org/2000/svg">
<path d="M25.0937 32.2905C18.8046 32.2905 13.9861 27.9413 11.8584 25.0001C14.518 21.3706 19.274 17.7097 25.0937 17.7097C31.3829 17.7097 36.2014 22.0589 38.329 25.0001C35.6382 28.6296 30.8822 32.2905 25.0937 32.2905ZM40.4567 24.4369C38.329 21.1828 32.697 15.6447 25.0937 15.6447C18.1788 15.6447 12.6407 20.1503 9.76208 24.3743C9.63692 24.5621 9.57434 24.8124 9.60563 25.0314C9.60563 25.2191 9.63692 25.4069 9.76208 25.5946C11.8897 28.8487 17.5218 34.3868 25.125 34.3868C32.0399 34.3868 37.5781 29.8812 40.4567 25.6572C40.5819 25.4694 40.6444 25.2191 40.6131 25.0001C40.5819 24.7811 40.5506 24.5933 40.4567 24.4369Z" fill="white"/>
<path d="M24.9997 28.1288C23.2788 28.1288 21.8707 26.7208 21.8707 24.9999C21.8707 23.279 23.2788 21.871 24.9997 21.871C26.7206 21.871 28.1286 23.279 28.1286 24.9999C28.1286 26.7208 26.7206 28.1288 24.9997 28.1288ZM24.9997 19.7747C22.1211 19.7747 19.8057 22.1213 19.8057 24.9686C19.8057 27.8472 22.1523 30.1626 24.9997 30.1626C27.847 30.1626 30.1936 27.8472 30.1936 24.9999C30.1936 22.1213 27.847 19.7747 24.9997 19.7747Z" fill="white"/>
<path d="M25 0C11.2015 0 0 11.2015 0 25C0 38.7985 11.2015 50 25 50C38.7985 50 50 38.7985 50 25C50 11.2015 38.7985 0 25 0ZM25 2.09637C37.6408 2.09637 47.9036 12.3592 47.9036 25C47.9036 37.6408 37.6408 47.9036 25 47.9036C12.3592 47.9036 2.09637 37.6408 2.09637 25C2.09637 12.3592 12.3592 2.09637 25 2.09637Z" fill="white"/>
</svg>
