<svg width="50" height="50" viewBox="0 0 50 50" fill="none" xmlns="http://www.w3.org/2000/svg">
<path d="M34.3554 34.3554H15.6133V15.6133H34.3554V34.3554ZM39.5807 26.0325C40.1439 26.0325 40.6133 25.5632 40.6133 25C40.6133 24.4368 40.1439 23.9674 39.5807 23.9674H36.4518V21.8711H39.5807C40.1439 21.8711 40.6133 21.4017 40.6133 20.8385C40.6133 20.2753 40.1439 19.806 39.5807 19.806H36.4518V14.5807C36.4518 14.0175 35.9825 13.5482 35.4193 13.5482H30.194V10.4193C30.194 9.85606 29.7246 9.38672 29.1614 9.38672C28.5982 9.38672 28.1289 9.85606 28.1289 10.4193V13.5482H26.0325V10.4193C26.0325 9.85606 25.5632 9.38672 25 9.38672C24.4368 9.38672 23.9674 9.85606 23.9674 10.4193V13.5482H21.8711V10.4193C21.8711 9.85606 21.4017 9.38672 20.8385 9.38672C20.2753 9.38672 19.806 9.85606 19.806 10.4193V13.5482H14.5807C14.0175 13.5482 13.5482 14.0175 13.5482 14.5807V19.7747H10.4193C9.85606 19.7747 9.38672 20.244 9.38672 20.8072C9.38672 21.3704 9.85606 21.8398 10.4193 21.8398H13.5482V23.9362H10.4193C9.85606 23.9362 9.38672 24.4055 9.38672 24.9687C9.38672 25.5319 9.85606 26.0012 10.4193 26.0012H13.5482V28.0976H10.4193C9.85606 28.0976 9.38672 28.5669 9.38672 29.1301C9.38672 29.6933 9.85606 30.1627 10.4193 30.1627H13.5482V35.3567C13.5482 35.9199 14.0175 36.3892 14.5807 36.3892H19.7747V39.5181C19.7747 40.0813 20.244 40.5507 20.8072 40.5507C21.3704 40.5507 21.8398 40.0813 21.8398 39.5181V36.3892H23.9362V39.5181C23.9362 40.0813 24.4055 40.5507 24.9687 40.5507C25.5319 40.5507 26.0012 40.0813 26.0012 39.5181V36.3892H28.0976V39.5181C28.0976 40.0813 28.5669 40.5507 29.1301 40.5507C29.6934 40.5507 30.1627 40.0813 30.1627 39.5181V36.3892H35.3567C35.9199 36.3892 36.3892 35.9199 36.3892 35.3567V30.194H39.5181C40.0813 30.194 40.5507 29.7246 40.5507 29.1614C40.5507 28.5982 40.0813 28.1289 39.5181 28.1289H36.3892V26.0325H39.5807Z" fill="white"/>
<path d="M29.1615 29.1615H20.8386V20.8386H29.1615V29.1615ZM30.194 18.7422H19.7747C19.2115 18.7422 18.7422 19.2115 18.7422 19.7747V30.194C18.7422 30.7572 19.2115 31.2265 19.7747 31.2265H30.194C30.7572 31.2265 31.2265 30.7572 31.2265 30.194V19.7747C31.2265 19.2115 30.7572 18.7422 30.194 18.7422Z" fill="white"/>
<path d="M25 0C11.2015 0 0 11.2015 0 25C0 38.7985 11.2015 50 25 50C38.7985 50 50 38.7985 50 25C49.9687 11.2015 38.7985 0 25 0ZM25 2.09637C37.6408 2.09637 47.9036 12.3592 47.9036 25C47.9036 37.6408 37.6408 47.9036 25 47.9036C12.3592 47.9036 2.09637 37.6408 2.09637 25C2.09637 12.3592 12.3592 2.09637 25 2.09637Z" fill="white"/>
</svg>
