<svg width="50" height="50" viewBox="0 0 50 50" fill="none" xmlns="http://www.w3.org/2000/svg">
<path d="M35.0752 22.403C34.9813 22.0275 34.8561 21.652 34.731 21.2766C34.4494 20.5256 34.0739 19.8686 33.6671 19.2115C36.2954 18.9612 37.3593 19.4305 37.4531 19.6495C37.6096 20.0563 36.8273 21.0888 35.0752 22.403ZM27.9725 32.7597C25.0314 33.8861 21.8086 33.229 19.5871 31.2891C21.8712 30.7885 24.3117 30.0688 26.6271 29.1614C28.9425 28.2853 31.2579 27.2215 33.2917 26.0638C32.8536 29.005 30.9137 31.6333 27.9725 32.7597ZM12.1715 29.3179C12.0777 29.0676 12.5783 28.035 14.706 26.4393C14.7998 27.1902 14.9876 27.9412 15.2692 28.6921C15.4256 29.0676 15.582 29.4117 15.7698 29.7872C13.5795 29.9749 12.2967 29.7246 12.1715 29.3179ZM22.0276 17.209C22.9976 16.8335 23.9988 16.6458 25.0001 16.6458C28.348 16.6458 31.5395 18.6796 32.7911 21.9962C33.0101 22.5281 33.1352 23.0913 33.2291 23.6545C31.383 24.781 28.9425 26.0325 25.8762 27.2215C22.7785 28.4105 20.1503 29.0988 18.0226 29.4743C17.7097 29.005 17.4594 28.4731 17.2404 27.9412C15.582 23.6545 17.741 18.836 22.0276 17.209ZM39.3931 18.9299C38.6108 16.8335 35.1064 16.8648 32.0401 17.3341C29.2241 14.7684 25.0939 13.7985 21.2767 15.2691C17.4594 16.7084 15.0188 20.1815 14.6434 23.9674C12.0464 25.657 9.41809 27.9724 10.2003 30.0688C10.7009 31.383 12.3593 31.9149 14.6121 31.9149C15.363 31.9149 16.2078 31.8523 17.0839 31.7271C19.0551 34.0425 21.965 35.388 25.0001 35.388C26.2203 35.388 27.4719 35.1689 28.6922 34.6996C32.9162 33.1039 35.4819 29.005 35.3881 24.7497C38.2979 22.7784 40.0814 20.6821 39.3931 18.9299Z" fill="white"/>
<path d="M25 0C11.2015 0 0 11.2015 0 25C0 38.7985 11.2015 50 25 50C38.7985 50 50 38.7985 50 25C50 11.2015 38.7985 0 25 0ZM25 2.09637C37.6408 2.09637 47.9036 12.3592 47.9036 25C47.9036 37.6408 37.6408 47.9036 25 47.9036C12.3592 47.9036 2.09637 37.6408 2.09637 25C2.09637 12.3592 12.3592 2.09637 25 2.09637Z" fill="white"/>
</svg>
