<svg width="24" height="16" viewBox="0 0 24 16" fill="none" xmlns="http://www.w3.org/2000/svg">
<rect y="11" width="24" height="5" fill="#FFD500"/>
<rect y="5" width="24" height="6" fill="#D60000"/>
<rect width="24" height="5" fill="black"/>
</svg>
