<svg width="35" height="34" viewBox="0 0 35 34" fill="none" xmlns="http://www.w3.org/2000/svg">
<path d="M33.6646 17C33.6646 26.1104 26.2427 33.5 17.0823 33.5C7.92186 33.5 0.5 26.1104 0.5 17C0.5 7.88958 7.92186 0.5 17.0823 0.5C26.2427 0.5 33.6646 7.88958 33.6646 17Z" stroke="white"/>
<path d="M25.0547 18.7803V24.7797H21.5153V19.1821C21.5153 17.776 21.0033 16.8163 19.7222 16.8163C18.7442 16.8163 18.1622 17.4631 17.9061 18.0887C17.8128 18.3123 17.7887 18.6236 17.7887 18.9367V24.7797H14.2481C14.2481 24.7797 14.2958 15.2992 14.2481 14.317H17.7884V15.8C17.7812 15.8111 17.7719 15.8231 17.7651 15.8338H17.7884V15.8C18.2587 15.0882 19.0987 14.0712 20.9789 14.0712C23.3084 14.0712 25.0547 15.5666 25.0547 18.7803ZM10.5445 9.27344C9.33326 9.27344 8.54102 10.0541 8.54102 11.0808C8.54102 12.0851 9.31034 12.8895 10.4975 12.8895H10.5212C11.7558 12.8895 12.5237 12.0852 12.5237 11.0808C12.5005 10.0541 11.7558 9.27344 10.5445 9.27344ZM8.7513 24.7797H12.2906V14.317H8.7513V24.7797Z" fill="white"/>
</svg>
