<svg width="40" height="40" viewBox="0 0 40 40" fill="none" xmlns="http://www.w3.org/2000/svg">
<path d="M20 0C8.9612 0 0 8.9612 0 20C0 31.0388 8.9612 40 20 40C31.0388 40 40 31.0388 40 20C39.975 8.9612 31.0388 0 20 0ZM20 1.6771C30.1126 1.6771 38.3229 9.88736 38.3229 20C38.3229 30.1126 30.1126 38.3229 20 38.3229C9.88736 38.3229 1.6771 30.1126 1.6771 20C1.6771 9.88736 9.88736 1.6771 20 1.6771Z" fill="#43B02A"/>
<path d="M32.19 27.7095C31.2388 26.8835 29.3365 26.5831 27.4841 26.3078C26.608 26.1826 25.7069 26.0574 25.2814 25.8822C24.5304 25.6069 24.0548 25.1313 23.9547 24.8309C23.9297 24.7558 23.9547 24.7058 23.9798 24.6557C25.006 23.2289 26.0824 20.7258 26.608 18.523C27.5092 14.8184 27.1587 11.9648 25.5818 10.0124C23.5042 7.43417 20.1249 7.50926 19.9747 7.50926C19.6744 7.50926 16.3134 7.63443 14.3928 10.0124C12.8158 11.9648 12.4654 14.8434 13.3665 18.523C13.8921 20.7008 14.9685 23.2289 15.9948 24.6557C16.0448 24.7058 16.0448 24.7558 16.0198 24.8309C15.9197 25.1313 15.4441 25.6069 14.6931 25.8822C14.2676 26.0324 13.3665 26.1826 12.4904 26.3078C10.6381 26.5831 8.71067 26.8584 7.78451 27.7095C7.43407 28.0099 7.40904 28.5355 7.70942 28.886C7.88464 29.0612 8.10992 29.1613 8.3352 29.1613C8.53545 29.1613 8.7357 29.0862 8.88589 28.9611C9.46161 28.4604 11.364 28.1601 12.7407 27.9598C13.792 27.8096 14.6931 27.6594 15.2939 27.4342C16.4704 26.9836 17.3465 26.1826 17.5968 25.3065C17.772 24.7308 17.6719 24.1551 17.3214 23.6795C16.4203 22.4279 15.4191 20.1 14.9685 18.1476C14.2176 14.9936 14.4428 12.6156 15.6694 11.0887C17.2213 9.16133 19.8997 9.18636 19.9497 9.18636H19.9747C19.9747 9.18636 19.9747 9.18636 19.9998 9.18636C19.9998 9.18636 19.9998 9.18636 20.0248 9.18636C20.0749 9.18636 22.7532 9.16133 24.3052 11.0887C25.5317 12.6156 25.757 14.9936 25.006 18.1476C24.5304 20.1 23.5292 22.4279 22.6281 23.6795C22.2776 24.1551 22.1775 24.7308 22.3527 25.3065C22.603 26.1826 23.4791 26.9836 24.6556 27.4342C25.2564 27.6594 26.1575 27.7846 27.2088 27.9598C28.5855 28.1601 30.4879 28.4354 31.0636 28.9611C31.2138 29.1113 31.414 29.1613 31.6143 29.1613C31.8396 29.1613 32.0649 29.0612 32.2401 28.886C32.5655 28.5355 32.5405 28.0099 32.19 27.7095Z" fill="#43B02A"/>
</svg>
