<svg width="50" height="35" viewBox="0 0 50 35" fill="none" xmlns="http://www.w3.org/2000/svg">
<mask id="mask0" mask-type="alpha" maskUnits="userSpaceOnUse" x="0" y="0" width="50" height="35">
<path d="M-5.45787e-10 1.04015e-08H49.4161V35H-5.45787e-10V1.04015e-08Z" fill="white"/>
</mask>
<g mask="url(#mask0)">
<path fill-rule="evenodd" clip-rule="evenodd" d="M48.4073 5.4649C47.8387 3.31401 46.1636 1.61955 44.0364 1.04458C40.1808 0 24.7201 1.04015e-08 24.7201 1.04015e-08C24.7201 1.04015e-08 9.25975 0 5.40413 1.04458C3.27691 1.61955 1.60183 3.31401 1.03329 5.4649C0 9.36459 0 17.4998 0 17.4998C0 17.4998 0 25.6354 1.03329 29.5347C1.60183 31.6856 3.27691 33.3804 5.40413 33.955C9.25975 35 24.7201 35 24.7201 35C24.7201 35 40.1808 35 44.0364 33.955C46.1636 33.3804 47.8387 31.6856 48.4073 29.5347C49.4405 25.6354 49.4405 17.4998 49.4405 17.4998C49.4405 17.4998 49.4405 9.36459 48.4073 5.4649Z" transform="translate(-0.0249023)" fill="#D9252A"/>
</g>
<path fill-rule="evenodd" clip-rule="evenodd" d="M7.20342e-07 15.0003L12.8443 7.50056L7.20342e-07 -1.25603e-08V15.0003Z" transform="translate(19.7517 9.99963)" fill="#FFFFFE"/>
</svg>
