<svg width="324" height="131" viewBox="0 0 324 131" fill="none" xmlns="http://www.w3.org/2000/svg">
<path d="M0.554688 52V0.601562H14.4414V40.7852H34.2344V52H0.554688ZM72.9766 52H42.4609V0.601562H72.9766V11.7461H56.3477V19.832H71.7461V30.9766H56.3477V40.6797H72.9766V52ZM110.84 0.601562H126.379L109.539 52H93.1914L76.4219 0.601562H92.0312L99.0273 26.6523C100.48 32.4414 101.277 36.4727 101.418 38.7461C101.582 37.1055 101.91 35.0547 102.402 32.5938C102.895 30.1328 103.328 28.1992 103.703 26.793L110.84 0.601562ZM162.484 52H131.969V0.601562H162.484V11.7461H145.855V19.832H161.254V30.9766H145.855V40.6797H162.484V52ZM171.484 52V0.601562H185.371V40.7852H205.164V52H171.484ZM275.793 0.601562V31.5391C275.793 38.2656 273.883 43.4805 270.062 47.1836C266.266 50.8633 260.781 52.7031 253.609 52.7031C246.602 52.7031 241.211 50.9102 237.438 47.3242C233.688 43.7383 231.812 38.582 231.812 31.8555V0.601562H245.77V30.7656C245.77 34.3984 246.449 37.0352 247.809 38.6758C249.168 40.3164 251.172 41.1367 253.82 41.1367C256.656 41.1367 258.707 40.3281 259.973 38.7109C261.262 37.0703 261.906 34.3984 261.906 30.6953V0.601562H275.793ZM323.887 16.9492C323.887 22.6914 322.188 27.1328 318.789 30.2734C315.414 33.3906 310.609 34.9492 304.375 34.9492H300.473V52H286.586V0.601562H304.375C310.867 0.601562 315.742 2.01953 319 4.85547C322.258 7.69141 323.887 11.7227 323.887 16.9492ZM300.473 23.6289H303.004C305.09 23.6289 306.742 23.043 307.961 21.8711C309.203 20.6992 309.824 19.082 309.824 17.0195C309.824 13.5508 307.902 11.8164 304.059 11.8164H300.473V23.6289Z" fill="white"/>
<path d="M44.2539 78.6016V109.539C44.2539 116.266 42.3438 121.48 38.5234 125.184C34.7266 128.863 29.2422 130.703 22.0703 130.703C15.0625 130.703 9.67188 128.91 5.89844 125.324C2.14844 121.738 0.273438 116.582 0.273438 109.855V78.6016H14.2305V108.766C14.2305 112.398 14.9102 115.035 16.2695 116.676C17.6289 118.316 19.6328 119.137 22.2812 119.137C25.1172 119.137 27.168 118.328 28.4336 116.711C29.7227 115.07 30.3672 112.398 30.3672 108.695V78.6016H44.2539ZM98.957 130H83.2773L73.1172 110.348L69.0039 112.809V130H55.0469V78.6016H69.0039V100.926C69.707 99.543 71.125 97.3516 73.2578 94.3516L84.0508 78.6016H99.2383L83.0312 101.629L98.957 130ZM118.434 111.297V130H104.547V78.6016H121.387C135.355 78.6016 142.34 83.6641 142.34 93.7891C142.34 99.7422 139.434 104.348 133.621 107.605L148.598 130H132.848L121.949 111.297H118.434ZM118.434 100.855H121.035C125.887 100.855 128.312 98.7109 128.312 94.4219C128.312 90.8828 125.934 89.1133 121.176 89.1133H118.434V100.855ZM184.809 130L182.277 120.367H165.578L162.977 130H147.719L164.488 78.3906H183.016L199.996 130H184.809ZM179.395 108.977L177.18 100.539C176.664 98.6641 176.031 96.2383 175.281 93.2617C174.555 90.2852 174.074 88.1523 173.84 86.8633C173.629 88.0586 173.207 90.0273 172.574 92.7695C171.965 95.5117 170.594 100.914 168.461 108.977H179.395ZM205.586 130V78.6016H219.543V130H205.586ZM279.625 130H261.414L242.641 93.7891H242.324C242.77 99.4844 242.992 103.832 242.992 106.832V130H230.688V78.6016H248.828L267.531 114.32H267.742C267.414 109.141 267.25 104.98 267.25 101.84V78.6016H279.625V130ZM321.25 130H290.734V78.6016H321.25V89.7461H304.621V97.832H320.02V108.977H304.621V118.68H321.25V130Z" fill="#86BC25"/>
</svg>
