<svg width="29" height="22" viewBox="0 0 29 22" fill="none" xmlns="http://www.w3.org/2000/svg">
<path d="M17.122 1L27 11.1124L17.122 21" stroke="black" stroke-width="2"/>
<path d="M0 11L26.3415 11" stroke="black" stroke-width="2"/>
</svg>
